# Generated by DoSarray v0.2 on 2018-06-08 17:47
0 100.0
1 100.0
2 100.0
3 100.0
4 100.0
5 100.0
6 100.0
7 100.0
8 100.0
9 100.0
10 34.0
11 20.0
12 0.0
13 0.0
14 5.0
15 20.0
16 0.0
17 23.0
18 25.0
19 0.0
20 3.0
21 48.0
22 31.0
23 5.0
24 0.0
25 0.0
26 0.0
27 0.0
28 6.0
29 60.0
30 94.0
31 100.0
32 100.0
33 100.0
34 100.0
35 100.0
36 100.0
37 100.0
38 100.0
39 100.0
40 100.0
41 100.0
42 100.0
43 100.0
44 100.0
45 100.0
46 100.0
47 100.0
48 100.0
49 100.0
50 100.0
51 100.0
52 100.0
53 100.0
54 100.0
55 100.0
56 100.0
57 100.0
58 100.0
59 100.0
60 100.0
61 100.0
62 100.0
63 94.0
