Inter-|   Receive                                                |  Transmit
 face |bytes    packets errs drop fifo frame compressed multicast|bytes    packets errs drop fifo colls carrier compressed
   em1: 5869539903264 9889371939    0    0    0     0          0     74388 6431846467849 9891899446    0    0    0     0       0          0
    lo:  127570     667    0    0    0     0          0         0   127570     667    0    0    0     0       0          0
vethee25d29: 2510868   31922    0    0    0     0          0         0  2911020   25157    0    0    0     0       0          0
veth7bd2cdb: 2538058   32239    0    0    0     0          0         0  2943562   25427    0    0    0     0       0          0
vethdb02192: 2550218   32475    0    0    0     0          0         0  2954389   25524    0    0    0     0       0          0
vethb915b96: 2561170   32477    0    0    0     0          0         0  2958355   25557    0    0    0     0       0          0
   em4:       0       0    0    0    0     0          0         0        0       0    0    0    0     0       0          0
vethb3d5a39: 110170646 1284244    0    0    0     0          0         0 151611857  857071    0    0    0     0       0          0
vetheb66d86: 2498368   31771    0    0    0     0          0         0  2887110   24945    0    0    0     0       0          0
docker_bridge: 899128495 8602701    0    0    0     0          0         0 636095025 6134004    0    0    0     0       0          0
veth419517c: 2538082   32313    0    0    0     0          0         0  2947601   25474    0    0    0     0       0          0
   em3: 30248474083 488204056    0    0    0     0          0     51372 11215680868 14182955    0    0    0     0       0          0
vethfadc82b: 2513998   31969    0    0    0     0          0         0  2917666   25202    0    0    0     0       0          0
veth2d04129: 2517644   31983    0    0    0     0          0         0  2911853   25153    0    0    0     0       0          0
veth5c5e650: 2549896   32491    0    0    0     0          0         0  2964202   25609    0    0    0     0       0          0
docker0:       0       0    0    0    0     0          0         0        0       0    0    0    0     0       0          0
   em2:       0       0    0    0    0     0          0         0        0       0    0    0    0     0       0          0
Inter-|   Receive                                                |  Transmit
 face |bytes    packets errs drop fifo frame compressed multicast|bytes    packets errs drop fifo colls carrier compressed
   em1: 5869539939267 9889372251    0    0    0     0          0     74388 6431846497246 9891899811    0    0    0     0       0          0
    lo:  127570     667    0    0    0     0          0         0   127570     667    0    0    0     0       0          0
vethee25d29: 2513730   31959    0    0    0     0          0         0  2914554   25188    0    0    0     0       0          0
veth7bd2cdb: 2540920   32276    0    0    0     0          0         0  2947096   25458    0    0    0     0       0          0
vethdb02192: 2553080   32512    0    0    0     0          0         0  2957923   25555    0    0    0     0       0          0
vethb915b96: 2563966   32513    0    0    0     0          0         0  2961889   25588    0    0    0     0       0          0
   em4:       0       0    0    0    0     0          0         0        0       0    0    0    0     0       0          0
vethb3d5a39: 110170646 1284244    0    0    0     0          0         0 151611857  857071    0    0    0     0       0          0
vetheb66d86: 2501230   31808    0    0    0     0          0         0  2890644   24976    0    0    0     0       0          0
docker_bridge: 899149539 8603033    0    0    0     0          0         0 636126831 6134283    0    0    0     0       0          0
veth419517c: 2540944   32350    0    0    0     0          0         0  2951135   25505    0    0    0     0       0          0
   em3: 30248510580 488204430    0    0    0     0          0     51372 11215697131 14183034    0    0    0     0       0          0
vethfadc82b: 2516860   32006    0    0    0     0          0         0  2921200   25233    0    0    0     0       0          0
veth2d04129: 2520506   32020    0    0    0     0          0         0  2915387   25184    0    0    0     0       0          0
veth5c5e650: 2552758   32528    0    0    0     0          0         0  2967736   25640    0    0    0     0       0          0
docker0:       0       0    0    0    0     0          0         0        0       0    0    0    0     0       0          0
   em2:       0       0    0    0    0     0          0         0        0       0    0    0    0     0       0          0
Inter-|   Receive                                                |  Transmit
 face |bytes    packets errs drop fifo frame compressed multicast|bytes    packets errs drop fifo colls carrier compressed
   em1: 5869539981888 9889372755    0    0    0     0          0     74388 6431846542045 9891900362    0    0    0     0       0          0
    lo:  127570     667    0    0    0     0          0         0   127570     667    0    0    0     0       0          0
vethee25d29: 2515684   31984    0    0    0     0          0         0  2916936   25209    0    0    0     0       0          0
veth7bd2cdb: 2542874   32301    0    0    0     0          0         0  2949478   25479    0    0    0     0       0          0
vethdb02192: 2555430   32542    0    0    0     0          0         0  2960833   25580    0    0    0     0       0          0
vethb915b96: 2565920   32538    0    0    0     0          0         0  2964271   25609    0    0    0     0       0          0
   em4:       0       0    0    0    0     0          0         0        0       0    0    0    0     0       0          0
vethb3d5a39: 110194122 1284530    0    0    0     0          0         0 151627201  857347    0    0    0     0       0          0
vetheb66d86: 2503184   31833    0    0    0     0          0         0  2893026   24997    0    0    0     0       0          0
docker_bridge: 899183773 8603549    0    0    0     0          0         0 636164141 6134752    0    0    0     0       0          0
veth419517c: 2542898   32375    0    0    0     0          0         0  2953517   25526    0    0    0     0       0          0
   em3: 30248540919 488204737    0    0    0     0          0     51372 11215715950 14183101    0    0    0     0       0          0
vethfadc82b: 2518814   32031    0    0    0     0          0         0  2923582   25254    0    0    0     0       0          0
veth2d04129: 2522460   32045    0    0    0     0          0         0  2917769   25205    0    0    0     0       0          0
veth5c5e650: 2554712   32553    0    0    0     0          0         0  2970118   25661    0    0    0     0       0          0
docker0:       0       0    0    0    0     0          0         0        0       0    0    0    0     0       0          0
   em2:       0       0    0    0    0     0          0         0        0       0    0    0    0     0       0          0
Inter-|   Receive                                                |  Transmit
 face |bytes    packets errs drop fifo frame compressed multicast|bytes    packets errs drop fifo colls carrier compressed
   em1: 5869540065039 9889374103    0    0    0     0          0     74388 6431846642581 9891901710    0    0    0     0       0          0
    lo:  127570     667    0    0    0     0          0         0   127570     667    0    0    0     0       0          0
vethee25d29: 2516054   31989    0    0    0     0          0         0  2917206   25214    0    0    0     0       0          0
veth7bd2cdb: 2543244   32306    0    0    0     0          0         0  2949748   25484    0    0    0     0       0          0
vethdb02192: 2555800   32547    0    0    0     0          0         0  2961103   25585    0    0    0     0       0          0
vethb915b96: 2566290   32543    0    0    0     0          0         0  2964541   25614    0    0    0     0       0          0
   em4:       0       0    0    0    0     0          0         0        0       0    0    0    0     0       0          0
vethb3d5a39: 110286993 1285788    0    0    0     0          0         0 151695445  858605    0    0    0     0       0          0
vetheb66d86: 2503554   31838    0    0    0     0          0         0  2893296   25002    0    0    0     0       0          0
docker_bridge: 899261732 8604852    0    0    0     0          0         0 636234815 6136055    0    0    0     0       0          0
veth419517c: 2543268   32380    0    0    0     0          0         0  2953787   25531    0    0    0     0       0          0
   em3: 30248578538 488205176    0    0    0     0          0     51372 11215771067 14183210    0    0    0     0       0          0
vethfadc82b: 2519184   32036    0    0    0     0          0         0  2923852   25259    0    0    0     0       0          0
veth2d04129: 2522830   32050    0    0    0     0          0         0  2918039   25210    0    0    0     0       0          0
veth5c5e650: 2555082   32558    0    0    0     0          0         0  2970388   25666    0    0    0     0       0          0
docker0:       0       0    0    0    0     0          0         0        0       0    0    0    0     0       0          0
   em2:       0       0    0    0    0     0          0         0        0       0    0    0    0     0       0          0
Inter-|   Receive                                                |  Transmit
 face |bytes    packets errs drop fifo frame compressed multicast|bytes    packets errs drop fifo colls carrier compressed
   em1: 5869540148220 9889375452    0    0    0     0          0     74388 6431846743165 9891903059    0    0    0     0       0          0
    lo:  127570     667    0    0    0     0          0         0   127570     667    0    0    0     0       0          0
vethee25d29: 2516424   31994    0    0    0     0          0         0  2917476   25219    0    0    0     0       0          0
veth7bd2cdb: 2543614   32311    0    0    0     0          0         0  2950018   25489    0    0    0     0       0          0
vethdb02192: 2556244   32553    0    0    0     0          0         0  2961427   25591    0    0    0     0       0          0
vethb915b96: 2566660   32548    0    0    0     0          0         0  2964811   25619    0    0    0     0       0          0
   em4:       0       0    0    0    0     0          0         0        0       0    0    0    0     0       0          0
vethb3d5a39: 110380090 1287049    0    0    0     0          0         0 151763911  859866    0    0    0     0       0          0
vetheb66d86: 2503924   31843    0    0    0     0          0         0  2893566   25007    0    0    0     0       0          0
docker_bridge: 899339935 8606159    0    0    0     0          0         0 636305765 6137362    0    0    0     0       0          0
veth419517c: 2543638   32385    0    0    0     0          0         0  2954057   25536    0    0    0     0       0          0
   em3: 30248614565 488205564    0    0    0     0          0     51372 11215822012 14183318    0    0    0     0       0          0
vethfadc82b: 2519554   32041    0    0    0     0          0         0  2924122   25264    0    0    0     0       0          0
veth2d04129: 2523200   32055    0    0    0     0          0         0  2918309   25215    0    0    0     0       0          0
veth5c5e650: 2555452   32563    0    0    0     0          0         0  2970658   25671    0    0    0     0       0          0
docker0:       0       0    0    0    0     0          0         0        0       0    0    0    0     0       0          0
   em2:       0       0    0    0    0     0          0         0        0       0    0    0    0     0       0          0
Inter-|   Receive                                                |  Transmit
 face |bytes    packets errs drop fifo frame compressed multicast|bytes    packets errs drop fifo colls carrier compressed
   em1: 5869540247759 9889377067    0    0    0     0          0     74388 6431846863590 9891904674    0    0    0     0       0          0
    lo:  127570     667    0    0    0     0          0         0   127570     667    0    0    0     0       0          0
vethee25d29: 2516868   32000    0    0    0     0          0         0  2917800   25225    0    0    0     0       0          0
veth7bd2cdb: 2544058   32317    0    0    0     0          0         0  2950342   25495    0    0    0     0       0          0
vethdb02192: 2556614   32558    0    0    0     0          0         0  2961697   25596    0    0    0     0       0          0
vethb915b96: 2567104   32554    0    0    0     0          0         0  2965135   25625    0    0    0     0       0          0
   em4:       0       0    0    0    0     0          0         0        0       0    0    0    0     0       0          0
vethb3d5a39: 110491726 1288561    0    0    0     0          0         0 151845991  861378    0    0    0     0       0          0
vetheb66d86: 2504368   31849    0    0    0     0          0         0  2893890   25013    0    0    0     0       0          0
docker_bridge: 899433583 8607724    0    0    0     0          0         0 636390707 6138927    0    0    0     0       0          0
veth419517c: 2544082   32391    0    0    0     0          0         0  2954381   25542    0    0    0     0       0          0
   em3: 30248651538 488205987    0    0    0     0          0     51372 11215886261 14183438    0    0    0     0       0          0
vethfadc82b: 2519998   32047    0    0    0     0          0         0  2924446   25270    0    0    0     0       0          0
veth2d04129: 2523644   32061    0    0    0     0          0         0  2918633   25221    0    0    0     0       0          0
veth5c5e650: 2555896   32569    0    0    0     0          0         0  2970982   25677    0    0    0     0       0          0
docker0:       0       0    0    0    0     0          0         0        0       0    0    0    0     0       0          0
   em2:       0       0    0    0    0     0          0         0        0       0    0    0    0     0       0          0
Inter-|   Receive                                                |  Transmit
 face |bytes    packets errs drop fifo frame compressed multicast|bytes    packets errs drop fifo colls carrier compressed
   em1: 5869540336442 9889378438    0    0    0     0          0     74388 6431846965530 9891906044    0    0    0     0       0          0
    lo:  127570     667    0    0    0     0          0         0   127570     667    0    0    0     0       0          0
vethee25d29: 2517238   32005    0    0    0     0          0         0  2918070   25230    0    0    0     0       0          0
veth7bd2cdb: 2544428   32322    0    0    0     0          0         0  2950612   25500    0    0    0     0       0          0
vethdb02192: 2556984   32563    0    0    0     0          0         0  2961967   25601    0    0    0     0       0          0
vethb915b96: 2567474   32559    0    0    0     0          0         0  2965405   25630    0    0    0     0       0          0
   em4:       0       0    0    0    0     0          0         0        0       0    0    0    0     0       0          0
vethb3d5a39: 110586211 1289843    0    0    0     0          0         0 151919959  862661    0    0    0     0       0          0
vetheb66d86: 2504738   31854    0    0    0     0          0         0  2894160   25018    0    0    0     0       0          0
docker_bridge: 899512820 8609051    0    0    0     0          0         0 636467105 6140255    0    0    0     0       0          0
veth419517c: 2544452   32396    0    0    0     0          0         0  2954651   25547    0    0    0     0       0          0
   em3: 30248685225 488206377    0    0    0     0          0     51372 11215937740 14183547    0    0    0     0       0          0
vethfadc82b: 2520368   32052    0    0    0     0          0         0  2924716   25275    0    0    0     0       0          0
veth2d04129: 2524014   32066    0    0    0     0          0         0  2918903   25226    0    0    0     0       0          0
veth5c5e650: 2556266   32574    0    0    0     0          0         0  2971252   25682    0    0    0     0       0          0
docker0:       0       0    0    0    0     0          0         0        0       0    0    0    0     0       0          0
   em2:       0       0    0    0    0     0          0         0        0       0    0    0    0     0       0          0
Inter-|   Receive                                                |  Transmit
 face |bytes    packets errs drop fifo frame compressed multicast|bytes    packets errs drop fifo colls carrier compressed
   em1: 5869540423043 9889379823    0    0    0     0          0     74388 6431847072087 9891907444    0    0    0     0       0          0
    lo:  127570     667    0    0    0     0          0         0   127570     667    0    0    0     0       0          0
vethee25d29: 2517608   32010    0    0    0     0          0         0  2918340   25235    0    0    0     0       0          0
veth7bd2cdb: 2544798   32327    0    0    0     0          0         0  2950882   25505    0    0    0     0       0          0
vethdb02192: 2558146   32578    0    0    0     0          0         0  2963293   25614    0    0    0     0       0          0
vethb915b96: 2567844   32564    0    0    0     0          0         0  2965675   25635    0    0    0     0       0          0
   em4:       0       0    0    0    0     0          0         0        0       0    0    0    0     0       0          0
vethb3d5a39: 110684159 1291139    0    0    0     0          0         0 151990131  863947    0    0    0     0       0          0
vetheb66d86: 2505108   31859    0    0    0     0          0         0  2894430   25023    0    0    0     0       0          0
docker_bridge: 899596954 8610417    0    0    0     0          0         0 636542347 6141606    0    0    0     0       0          0
veth419517c: 2545614   32411    0    0    0     0          0         0  2955977   25560    0    0    0     0       0          0
   em3: 30248716732 488206719    0    0    0     0          0     51372 11215991365 14183644    0    0    0     0       0          0
vethfadc82b: 2520738   32057    0    0    0     0          0         0  2924986   25280    0    0    0     0       0          0
veth2d04129: 2524384   32071    0    0    0     0          0         0  2919173   25231    0    0    0     0       0          0
veth5c5e650: 2557032   32584    0    0    0     0          0         0  2972050   25691    0    0    0     0       0          0
docker0:       0       0    0    0    0     0          0         0        0       0    0    0    0     0       0          0
   em2:       0       0    0    0    0     0          0         0        0       0    0    0    0     0       0          0
Inter-|   Receive                                                |  Transmit
 face |bytes    packets errs drop fifo frame compressed multicast|bytes    packets errs drop fifo colls carrier compressed
   em1: 5869540523306 9889381439    0    0    0     0          0     74389 6431847192644 9891909058    0    0    0     0       0          0
    lo:  127570     667    0    0    0     0          0         0   127570     667    0    0    0     0       0          0
vethee25d29: 2518052   32016    0    0    0     0          0         0  2918664   25241    0    0    0     0       0          0
veth7bd2cdb: 2545242   32333    0    0    0     0          0         0  2951206   25511    0    0    0     0       0          0
vethdb02192: 2558590   32584    0    0    0     0          0         0  2963617   25620    0    0    0     0       0          0
vethb915b96: 2568288   32570    0    0    0     0          0         0  2965999   25641    0    0    0     0       0          0
   em4:       0       0    0    0    0     0          0         0        0       0    0    0    0     0       0          0
vethb3d5a39: 110795069 1292641    0    0    0     0          0         0 152071647  865449    0    0    0     0       0          0
vetheb66d86: 2505552   31865    0    0    0     0          0         0  2894754   25029    0    0    0     0       0          0
docker_bridge: 899690076 8611973    0    0    0     0          0         0 636626779 6143162    0    0    0     0       0          0
veth419517c: 2546058   32417    0    0    0     0          0         0  2956301   25566    0    0    0     0       0          0
   em3: 30248755265 488207114    0    0    0     0          0     51372 11216053336 14183782    0    0    0     0       0          0
vethfadc82b: 2521182   32063    0    0    0     0          0         0  2925310   25286    0    0    0     0       0          0
veth2d04129: 2524828   32077    0    0    0     0          0         0  2919497   25237    0    0    0     0       0          0
veth5c5e650: 2557476   32590    0    0    0     0          0         0  2972374   25697    0    0    0     0       0          0
docker0:       0       0    0    0    0     0          0         0        0       0    0    0    0     0       0          0
   em2:       0       0    0    0    0     0          0         0        0       0    0    0    0     0       0          0
Inter-|   Receive                                                |  Transmit
 face |bytes    packets errs drop fifo frame compressed multicast|bytes    packets errs drop fifo colls carrier compressed
   em1: 5869540608063 9889382802    0    0    0     0          0     74391 6431847294105 9891910418    0    0    0     0       0          0
    lo:  127570     667    0    0    0     0          0         0   127570     667    0    0    0     0       0          0
vethee25d29: 2518422   32021    0    0    0     0          0         0  2918934   25246    0    0    0     0       0          0
veth7bd2cdb: 2545612   32338    0    0    0     0          0         0  2951476   25516    0    0    0     0       0          0
vethdb02192: 2558960   32589    0    0    0     0          0         0  2963887   25625    0    0    0     0       0          0
vethb915b96: 2568658   32575    0    0    0     0          0         0  2966269   25646    0    0    0     0       0          0
   em4:       0       0    0    0    0     0          0         0        0       0    0    0    0     0       0          0
vethb3d5a39: 110888529 1293907    0    0    0     0          0         0 152140395  866715    0    0    0     0       0          0
vetheb66d86: 2505922   31870    0    0    0     0          0         0  2895024   25034    0    0    0     0       0          0
docker_bridge: 899768512 8613284    0    0    0     0          0         0 636697957 6144473    0    0    0     0       0          0
veth419517c: 2546428   32422    0    0    0     0          0         0  2956571   25571    0    0    0     0       0          0
   em3: 30248787874 488207473    0    0    0     0          0     51372 11216108081 14183886    0    0    0     0       0          0
vethfadc82b: 2521552   32068    0    0    0     0          0         0  2925580   25291    0    0    0     0       0          0
veth2d04129: 2525198   32082    0    0    0     0          0         0  2919767   25242    0    0    0     0       0          0
veth5c5e650: 2557846   32595    0    0    0     0          0         0  2972644   25702    0    0    0     0       0          0
docker0:       0       0    0    0    0     0          0         0        0       0    0    0    0     0       0          0
   em2:       0       0    0    0    0     0          0         0        0       0    0    0    0     0       0          0
Inter-|   Receive                                                |  Transmit
 face |bytes    packets errs drop fifo frame compressed multicast|bytes    packets errs drop fifo colls carrier compressed
   em1: 5869540665122 9889383522    0    0    0     0          0     74391 6431847350810 9891911172    0    0    0     0       0          0
    lo:  127570     667    0    0    0     0          0         0   127570     667    0    0    0     0       0          0
vethee25d29: 2520022   32042    0    0    0     0          0         0  2920830   25264    0    0    0     0       0          0
veth7bd2cdb: 2547212   32359    0    0    0     0          0         0  2953372   25534    0    0    0     0       0          0
vethdb02192: 2560560   32610    0    0    0     0          0         0  2965783   25643    0    0    0     0       0          0
vethb915b96: 2570258   32596    0    0    0     0          0         0  2968165   25664    0    0    0     0       0          0
   em4:       0       0    0    0    0     0          0         0        0       0    0    0    0     0       0          0
vethb3d5a39: 110928045 1294449    0    0    0     0          0         0 152173615  867247    0    0    0     0       0          0
vetheb66d86: 2507456   31890    0    0    0     0          0         0  2896920   25052    0    0    0     0       0          0
docker_bridge: 899812090 8614013    0    0    0     0          0         0 636748241 6145167    0    0    0     0       0          0
veth419517c: 2547962   32442    0    0    0     0          0         0  2958467   25589    0    0    0     0       0          0
   em3: 30248821135 488207870    0    0    0     0          0     51372 11216136952 14183971    0    0    0     0       0          0
vethfadc82b: 2523152   32089    0    0    0     0          0         0  2927476   25309    0    0    0     0       0          0
veth2d04129: 2526798   32103    0    0    0     0          0         0  2921663   25260    0    0    0     0       0          0
veth5c5e650: 2559446   32616    0    0    0     0          0         0  2974540   25720    0    0    0     0       0          0
docker0:       0       0    0    0    0     0          0         0        0       0    0    0    0     0       0          0
   em2:       0       0    0    0    0     0          0         0        0       0    0    0    0     0       0          0
Inter-|   Receive                                                |  Transmit
 face |bytes    packets errs drop fifo frame compressed multicast|bytes    packets errs drop fifo colls carrier compressed
   em1: 5869540695805 9889383786    0    0    0     0          0     74391 6431847375585 9891911479    0    0    0     0       0          0
    lo:  127570     667    0    0    0     0          0         0   127570     667    0    0    0     0       0          0
vethee25d29: 2522372   32072    0    0    0     0          0         0  2923740   25289    0    0    0     0       0          0
veth7bd2cdb: 2549562   32389    0    0    0     0          0         0  2956282   25559    0    0    0     0       0          0
vethdb02192: 2562910   32640    0    0    0     0          0         0  2968693   25668    0    0    0     0       0          0
vethb915b96: 2572608   32626    0    0    0     0          0         0  2971075   25689    0    0    0     0       0          0
   em4:       0       0    0    0    0     0          0         0        0       0    0    0    0     0       0          0
vethb3d5a39: 110928045 1294449    0    0    0     0          0         0 152173615  867247    0    0    0     0       0          0
vetheb66d86: 2509806   31920    0    0    0     0          0         0  2899830   25077    0    0    0     0       0          0
docker_bridge: 899829408 8614282    0    0    0     0          0         0 636774431 6145392    0    0    0     0       0          0
veth419517c: 2550312   32472    0    0    0     0          0         0  2961377   25614    0    0    0     0       0          0
   em3: 30248857050 488208267    0    0    0     0          0     51372 11216152411 14184044    0    0    0     0       0          0
vethfadc82b: 2525502   32119    0    0    0     0          0         0  2930386   25334    0    0    0     0       0          0
veth2d04129: 2529148   32133    0    0    0     0          0         0  2924573   25285    0    0    0     0       0          0
veth5c5e650: 2561730   32645    0    0    0     0          0         0  2977450   25745    0    0    0     0       0          0
docker0:       0       0    0    0    0     0          0         0        0       0    0    0    0     0       0          0
   em2:       0       0    0    0    0     0          0         0        0       0    0    0    0     0       0          0
Inter-|   Receive                                                |  Transmit
 face |bytes    packets errs drop fifo frame compressed multicast|bytes    packets errs drop fifo colls carrier compressed
   em1: 5869540731992 9889384098    0    0    0     0          0     74391 6431847404904 9891911842    0    0    0     0       0          0
    lo:  127570     667    0    0    0     0          0         0   127570     667    0    0    0     0       0          0
vethee25d29: 2525192   32108    0    0    0     0          0         0  2927232   25319    0    0    0     0       0          0
veth7bd2cdb: 2552382   32425    0    0    0     0          0         0  2959774   25589    0    0    0     0       0          0
vethdb02192: 2565730   32676    0    0    0     0          0         0  2972185   25698    0    0    0     0       0          0
vethb915b96: 2575428   32662    0    0    0     0          0         0  2974567   25719    0    0    0     0       0          0
   em4:       0       0    0    0    0     0          0         0        0       0    0    0    0     0       0          0
vethb3d5a39: 110928045 1294449    0    0    0     0          0         0 152173615  867247    0    0    0     0       0          0
vetheb66d86: 2512156   31950    0    0    0     0          0         0  2902740   25102    0    0    0     0       0          0
docker_bridge: 899849814 8614599    0    0    0     0          0         0 636805277 6145657    0    0    0     0       0          0
veth419517c: 2553132   32508    0    0    0     0          0         0  2964869   25644    0    0    0     0       0          0
   em3: 30248895468 488208689    0    0    0     0          0     51372 11216168370 14184121    0    0    0     0       0          0
vethfadc82b: 2528322   32155    0    0    0     0          0         0  2933878   25364    0    0    0     0       0          0
veth2d04129: 2531968   32169    0    0    0     0          0         0  2928065   25315    0    0    0     0       0          0
veth5c5e650: 2564484   32680    0    0    0     0          0         0  2980942   25775    0    0    0     0       0          0
docker0:       0       0    0    0    0     0          0         0        0       0    0    0    0     0       0          0
   em2:       0       0    0    0    0     0          0         0        0       0    0    0    0     0       0          0
Inter-|   Receive                                                |  Transmit
 face |bytes    packets errs drop fifo frame compressed multicast|bytes    packets errs drop fifo colls carrier compressed
   em1: 5869540743637 9889384200    0    0    0     0          0     74391 6431847414447 9891911952    0    0    0     0       0          0
    lo:  127570     667    0    0    0     0          0         0   127570     667    0    0    0     0       0          0
vethee25d29: 2525662   32114    0    0    0     0          0         0  2927814   25324    0    0    0     0       0          0
veth7bd2cdb: 2552852   32431    0    0    0     0          0         0  2960356   25594    0    0    0     0       0          0
vethdb02192: 2566134   32681    0    0    0     0          0         0  2972767   25703    0    0    0     0       0          0
vethb915b96: 2575898   32668    0    0    0     0          0         0  2975149   25724    0    0    0     0       0          0
   em4:       0       0    0    0    0     0          0         0        0       0    0    0    0     0       0          0
vethb3d5a39: 110928045 1294449    0    0    0     0          0         0 152173615  867247    0    0    0     0       0          0
vetheb66d86: 2513096   31962    0    0    0     0          0         0  2903904   25112    0    0    0     0       0          0
docker_bridge: 899853622 8614658    0    0    0     0          0         0 636811097 6145707    0    0    0     0       0          0
veth419517c: 2553602   32514    0    0    0     0          0         0  2965451   25649    0    0    0     0       0          0
   em3: 30248929179 488209090    0    0    0     0          0     51372 11216183907 14184191    0    0    0     0       0          0
vethfadc82b: 2528792   32161    0    0    0     0          0         0  2934460   25369    0    0    0     0       0          0
veth2d04129: 2532438   32175    0    0    0     0          0         0  2928647   25320    0    0    0     0       0          0
veth5c5e650: 2564954   32686    0    0    0     0          0         0  2981524   25780    0    0    0     0       0          0
docker0:       0       0    0    0    0     0          0         0        0       0    0    0    0     0       0          0
   em2:       0       0    0    0    0     0          0         0        0       0    0    0    0     0       0          0
