PING 192.168.0.2:8012 (http://192.168.0.2):
connected to 192.168.0.2:8012 (237 bytes), seq=0 time=0.30 ms 200 OK
connected to 192.168.0.2:8012 (237 bytes), seq=1 time=0.48 ms 200 OK
connected to 192.168.0.2:8012 (237 bytes), seq=2 time=0.44 ms 200 OK
connected to 192.168.0.2:8012 (237 bytes), seq=3 time=0.47 ms 200 OK
connected to 192.168.0.2:8012 (237 bytes), seq=4 time=0.37 ms 200 OK
connected to 192.168.0.2:8012 (237 bytes), seq=5 time=0.57 ms 200 OK
connected to 192.168.0.2:8012 (237 bytes), seq=6 time=0.42 ms 200 OK
connected to 192.168.0.2:8012 (237 bytes), seq=7 time=0.38 ms 200 OK
connected to 192.168.0.2:8012 (237 bytes), seq=8 time=0.49 ms 200 OK
connected to 192.168.0.2:8012 (237 bytes), seq=9 time=0.56 ms 200 OK
connected to 192.168.0.2:8012 (237 bytes), seq=10 time=8.36 ms 200 OK
connected to 192.168.0.2:8012 (237 bytes), seq=11 time=10.19 ms 200 OK
connected to 192.168.0.2:8012 (237 bytes), seq=12 time=9.47 ms 200 OK
connected to 192.168.0.2:8012 (237 bytes), seq=13 time=9.29 ms 200 OK
connected to 192.168.0.2:8012 (237 bytes), seq=14 time=4.88 ms 200 OK
connected to 192.168.0.2:8012 (237 bytes), seq=15 time=2.49 ms 200 OK
connected to 192.168.0.2:8012 (237 bytes), seq=16 time=5.89 ms 200 OK
connected to 192.168.0.2:8012 (237 bytes), seq=17 time=1.55 ms 200 OK
connected to 192.168.0.2:8012 (237 bytes), seq=18 time=0.81 ms 200 OK
connected to 192.168.0.2:8012 (237 bytes), seq=19 time=4.83 ms 200 OK
connected to 192.168.0.2:8012 (237 bytes), seq=20 time=5.19 ms 200 OK
connected to 192.168.0.2:8012 (237 bytes), seq=21 time=3.95 ms 200 OK
connected to 192.168.0.2:8012 (237 bytes), seq=22 time=6.18 ms 200 OK
connected to 192.168.0.2:8012 (237 bytes), seq=23 time=9.79 ms 200 OK
connected to 192.168.0.2:8012 (237 bytes), seq=24 time=2.66 ms 200 OK
connected to 192.168.0.2:8012 (237 bytes), seq=25 time=1.36 ms 200 OK
connected to 192.168.0.2:8012 (237 bytes), seq=26 time=4.19 ms 200 OK
connected to 192.168.0.2:8012 (237 bytes), seq=27 time=5.85 ms 200 OK
connected to 192.168.0.2:8012 (237 bytes), seq=28 time=2.06 ms 200 OK
connected to 192.168.0.2:8012 (237 bytes), seq=29 time=4.76 ms 200 OK
connected to 192.168.0.2:8012 (237 bytes), seq=30 time=0.42 ms 200 OK
connected to 192.168.0.2:8012 (237 bytes), seq=31 time=0.45 ms 200 OK
connected to 192.168.0.2:8012 (237 bytes), seq=32 time=0.66 ms 200 OK
connected to 192.168.0.2:8012 (237 bytes), seq=33 time=0.45 ms 200 OK
connected to 192.168.0.2:8012 (237 bytes), seq=34 time=0.53 ms 200 OK
connected to 192.168.0.2:8012 (237 bytes), seq=35 time=0.43 ms 200 OK
connected to 192.168.0.2:8012 (237 bytes), seq=36 time=0.40 ms 200 OK
connected to 192.168.0.2:8012 (237 bytes), seq=37 time=0.47 ms 200 OK
connected to 192.168.0.2:8012 (237 bytes), seq=38 time=0.45 ms 200 OK
connected to 192.168.0.2:8012 (237 bytes), seq=39 time=0.57 ms 200 OK
connected to 192.168.0.2:8012 (237 bytes), seq=40 time=0.35 ms 200 OK
connected to 192.168.0.2:8012 (237 bytes), seq=41 time=0.36 ms 200 OK
connected to 192.168.0.2:8012 (237 bytes), seq=42 time=0.55 ms 200 OK
connected to 192.168.0.2:8012 (237 bytes), seq=43 time=0.35 ms 200 OK
connected to 192.168.0.2:8012 (237 bytes), seq=44 time=0.26 ms 200 OK
connected to 192.168.0.2:8012 (237 bytes), seq=45 time=0.42 ms 200 OK
connected to 192.168.0.2:8012 (237 bytes), seq=46 time=0.43 ms 200 OK
connected to 192.168.0.2:8012 (237 bytes), seq=47 time=0.31 ms 200 OK
connected to 192.168.0.2:8012 (237 bytes), seq=48 time=0.46 ms 200 OK
connected to 192.168.0.2:8012 (237 bytes), seq=49 time=0.42 ms 200 OK
connected to 192.168.0.2:8012 (237 bytes), seq=50 time=0.27 ms 200 OK
connected to 192.168.0.2:8012 (237 bytes), seq=51 time=0.43 ms 200 OK
connected to 192.168.0.2:8012 (237 bytes), seq=52 time=0.42 ms 200 OK
connected to 192.168.0.2:8012 (237 bytes), seq=53 time=0.43 ms 200 OK
connected to 192.168.0.2:8012 (237 bytes), seq=54 time=0.38 ms 200 OK
connected to 192.168.0.2:8012 (237 bytes), seq=55 time=0.49 ms 200 OK
connected to 192.168.0.2:8012 (237 bytes), seq=56 time=0.43 ms 200 OK
connected to 192.168.0.2:8012 (237 bytes), seq=57 time=0.40 ms 200 OK
connected to 192.168.0.2:8012 (237 bytes), seq=58 time=0.41 ms 200 OK
connected to 192.168.0.2:8012 (237 bytes), seq=59 time=0.40 ms 200 OK
connected to 192.168.0.2:8012 (237 bytes), seq=60 time=0.40 ms 200 OK
connected to 192.168.0.2:8012 (237 bytes), seq=61 time=0.34 ms 200 OK
connected to 192.168.0.2:8012 (237 bytes), seq=62 time=0.42 ms 200 OK
connected to 192.168.0.2:8012 (237 bytes), seq=63 time=0.37 ms 200 OK
connected to 192.168.0.2:8012 (237 bytes), seq=64 time=0.41 ms 200 OK
--- http://192.168.0.2 ping statistics ---
65 connects, 65 ok, 0.00% failed, time 64131ms
round-trip min/avg/max = 0.3/1.9/10.2 ms
