Inter-|   Receive                                                |  Transmit
 face |bytes    packets errs drop fifo frame compressed multicast|bytes    packets errs drop fifo colls carrier compressed
veth9a1d96c: 1708532   21762    0    0    0     0          0         0  1927975   16720    0    0    0     0       0          0
vethf8f2b5b: 18848054  181537    0    0    0     0          0         0 12197111   95936    0    0    0     0       0          0
   em1: 707774975 8259413    0    0    0     0          0     14709 1689316484 8960416    0    0    0     0       0          0
veth7d9c62f: 1732048   22002    0    0    0     0          0         0  1955267   16946    0    0    0     0       0          0
veth1172758: 1715056   21856    0    0    0     0          0         0  1947250   16882    0    0    0     0       0          0
    lo: 176411774130 1035157942    0   38    0     0          0         0 176411774130 1035157942    0    0    0     0       0          0
veth09c01a6: 1707032   21760    0    0    0     0          0         0  1934239   16774    0    0    0     0       0          0
veth6033259: 1733604   22070    0    0    0     0          0         0  1966317   17033    0    0    0     0       0          0
   em4:       0       0    0    0    0     0          0         0        0       0    0    0    0     0       0          0
veth6d7dd7f: 1731764   22060    0    0    0     0          0         0  1979729   17169    0    0    0     0       0          0
docker_bridge: 1548280935 15523482    0    0    0     0          0         0 1197978832 12838410    0    0    0     0       0          0
   em3: 31881263114 513122791    0    5    0     0          0     58317 23753524782 26559095    0    0    0     0       0          0
lxcbr0:       0       0    0    0    0     0          0         0      648       8    0    0    0     0       0          0
vethbcc21cb: 1738480   22169    0    0    0     0          0         0  1989651   17258    0    0    0     0       0          0
veth70fa39b: 1734816   22093    0    0    0     0          0         0  1973161   17103    0    0    0     0       0          0
docker0:       0       0    0    0    0     0          0         0        0       0    0    0    0     0       0          0
veth7aa35bf: 1749064   22271    0    0    0     0          0         0  1991659   17274    0    0    0     0       0          0
   em2:       0       0    0    0    0     0          0         0        0       0    0    0    0     0       0          0
Inter-|   Receive                                                |  Transmit
 face |bytes    packets errs drop fifo frame compressed multicast|bytes    packets errs drop fifo colls carrier compressed
veth9a1d96c: 1710726   21790    0    0    0     0          0         0  1930872   16746    0    0    0     0       0          0
vethf8f2b5b: 18848054  181537    0    0    0     0          0         0 12197111   95936    0    0    0     0       0          0
   em1: 707805248 8259680    0    0    0     0          0     14709 1689340070 8960703    0    0    0     0       0          0
veth7d9c62f: 1734308   22031    0    0    0     0          0         0  1958164   16972    0    0    0     0       0          0
veth1172758: 1717184   21883    0    0    0     0          0         0  1950147   16908    0    0    0     0       0          0
    lo: 176411774130 1035157942    0   38    0     0          0         0 176411774130 1035157942    0    0    0     0       0          0
veth09c01a6: 1709292   21789    0    0    0     0          0         0  1937136   16800    0    0    0     0       0          0
veth6033259: 1735798   22098    0    0    0     0          0         0  1969214   17059    0    0    0     0       0          0
   em4:       0       0    0    0    0     0          0         0        0       0    0    0    0     0       0          0
veth6d7dd7f: 1733892   22087    0    0    0     0          0         0  1982626   17195    0    0    0     0       0          0
docker_bridge: 1548297257 15523736    0    0    0     0          0         0 1198004905 12838644    0    0    0     0       0          0
   em3: 31881293563 513123108    0    5    0     0          0     58317 23753540133 26559164    0    0    0     0       0          0
lxcbr0:       0       0    0    0    0     0          0         0      648       8    0    0    0     0       0          0
vethbcc21cb: 1740740   22198    0    0    0     0          0         0  1992548   17284    0    0    0     0       0          0
veth70fa39b: 1737010   22121    0    0    0     0          0         0  1976058   17129    0    0    0     0       0          0
docker0:       0       0    0    0    0     0          0         0        0       0    0    0    0     0       0          0
veth7aa35bf: 1751324   22300    0    0    0     0          0         0  1994556   17300    0    0    0     0       0          0
   em2:       0       0    0    0    0     0          0         0        0       0    0    0    0     0       0          0
Inter-|   Receive                                                |  Transmit
 face |bytes    packets errs drop fifo frame compressed multicast|bytes    packets errs drop fifo colls carrier compressed
veth9a1d96c: 1712944   21818    0    0    0     0          0         0  1933727   16771    0    0    0     0       0          0
vethf8f2b5b: 19244271  186566    0    0    0     0          0         0 13143011   99710    0    0    0     0       0          0
   em1: 708780279 8263711    0    0    0     0          0     14709 1689759213 8966011    0    0    0     0       0          0
veth7d9c62f: 1736526   22059    0    0    0     0          0         0  1961019   16997    0    0    0     0       0          0
veth1172758: 1719534   21913    0    0    0     0          0         0  1953002   16933    0    0    0     0       0          0
    lo: 176411774130 1035157942    0   38    0     0          0         0 176411774130 1035157942    0    0    0     0       0          0
veth09c01a6: 1711444   21816    0    0    0     0          0         0  1939991   16825    0    0    0     0       0          0
veth6033259: 1737686   22122    0    0    0     0          0         0  1971498   17079    0    0    0     0       0          0
   em4:       0       0    0    0    0     0          0         0        0       0    0    0    0     0       0          0
veth6d7dd7f: 1735648   22109    0    0    0     0          0         0  1984910   17215    0    0    0     0       0          0
docker_bridge: 1548638650 15529003    0    0    0     0          0         0 1198975424 12842634    0    0    0     0       0          0
   em3: 31881327602 513123486    0    5    0     0          0     58317 23753555660 26559233    0    0    0     0       0          0
lxcbr0:       0       0    0    0    0     0          0         0      648       8    0    0    0     0       0          0
vethbcc21cb: 1742892   22225    0    0    0     0          0         0  1995403   17309    0    0    0     0       0          0
veth70fa39b: 1739030   22146    0    0    0     0          0         0  1978913   17154    0    0    0     0       0          0
docker0:       0       0    0    0    0     0          0         0        0       0    0    0    0     0       0          0
veth7aa35bf: 1753410   22326    0    0    0     0          0         0  1997411   17325    0    0    0     0       0          0
   em2:       0       0    0    0    0     0          0         0        0       0    0    0    0     0       0          0
Inter-|   Receive                                                |  Transmit
 face |bytes    packets errs drop fifo frame compressed multicast|bytes    packets errs drop fifo colls carrier compressed
veth9a1d96c: 1715030   21844    0    0    0     0          0         0  1936582   16796    0    0    0     0       0          0
vethf8f2b5b: 22133847  223654    0    0    0     0          0         0 19924347  128215    0    0    0     0       0          0
   em1: 715592754 8292491    0    0    0     0          0     14709 1692672433 9003383    0    0    0     0       0          0
veth7d9c62f: 1738612   22085    0    0    0     0          0         0  1963874   17022    0    0    0     0       0          0
veth1172758: 1721554   21938    0    0    0     0          0         0  1955857   16958    0    0    0     0       0          0
    lo: 176411774130 1035157942    0   38    0     0          0         0 176411774130 1035157942    0    0    0     0       0          0
veth09c01a6: 1713464   21841    0    0    0     0          0         0  1942846   16850    0    0    0     0       0          0
veth6033259: 1739772   22148    0    0    0     0          0         0  1974353   17104    0    0    0     0       0          0
   em4:       0       0    0    0    0     0          0         0        0       0    0    0    0     0       0          0
veth6d7dd7f: 1737800   22136    0    0    0     0          0         0  1987765   17240    0    0    0     0       0          0
docker_bridge: 1551024432 15566324    0    0    0     0          0         0 1205782759 12871365    0    0    0     0       0          0
   em3: 31881365375 513123893    0    5    0     0          0     58317 23753572241 26559313    0    0    0     0       0          0
lxcbr0:       0       0    0    0    0     0          0         0      648       8    0    0    0     0       0          0
vethbcc21cb: 1744978   22251    0    0    0     0          0         0  1998258   17334    0    0    0     0       0          0
veth70fa39b: 1741182   22173    0    0    0     0          0         0  1981768   17179    0    0    0     0       0          0
docker0:       0       0    0    0    0     0          0         0        0       0    0    0    0     0       0          0
veth7aa35bf: 1755496   22352    0    0    0     0          0         0  2000266   17350    0    0    0     0       0          0
   em2:       0       0    0    0    0     0          0         0        0       0    0    0    0     0       0          0
Inter-|   Receive                                                |  Transmit
 face |bytes    packets errs drop fifo frame compressed multicast|bytes    packets errs drop fifo colls carrier compressed
veth9a1d96c: 1717314   21873    0    0    0     0          0         0  1939437   16821    0    0    0     0       0          0
vethf8f2b5b: 27492960  293010    0    0    0     0          0         0 31920179  178294    0    0    0     0       0          0
   em1: 727620460 8342852    0    0    0     0          0     14709 1698056378 9073042    0    0    0     0       0          0
veth7d9c62f: 1740830   22113    0    0    0     0          0         0  1966729   17047    0    0    0     0       0          0
veth1172758: 1723772   21966    0    0    0     0          0         0  1958712   16983    0    0    0     0       0          0
    lo: 176411774130 1035157942    0   38    0     0          0         0 176411774130 1035157942    0    0    0     0       0          0
veth09c01a6: 1715616   21868    0    0    0     0          0         0  1945701   16875    0    0    0     0       0          0
veth6033259: 1741924   22175    0    0    0     0          0         0  1977208   17129    0    0    0     0       0          0
   em4:       0       0    0    0    0     0          0         0        0       0    0    0    0     0       0          0
veth6d7dd7f: 1739886   22162    0    0    0     0          0         0  1990620   17265    0    0    0     0       0          0
docker_bridge: 1555429633 15635940    0    0    0     0          0         0 1217805629 12921682    0    0    0     0       0          0
   em3: 31881393532 513124177    0    5    0     0          0     58317 23753587458 26559379    0    0    0     0       0          0
lxcbr0:       0       0    0    0    0     0          0         0      648       8    0    0    0     0       0          0
vethbcc21cb: 1747600   22284    0    0    0     0          0         0  2001684   17364    0    0    0     0       0          0
veth70fa39b: 1743738   22205    0    0    0     0          0         0  1985194   17209    0    0    0     0       0          0
docker0:       0       0    0    0    0     0          0         0        0       0    0    0    0     0       0          0
veth7aa35bf: 1757920   22382    0    0    0     0          0         0  2003692   17380    0    0    0     0       0          0
   em2:       0       0    0    0    0     0          0         0        0       0    0    0    0     0       0          0
Inter-|   Receive                                                |  Transmit
 face |bytes    packets errs drop fifo frame compressed multicast|bytes    packets errs drop fifo colls carrier compressed
veth9a1d96c: 1720002   21907    0    0    0     0          0         0  1942863   16851    0    0    0     0       0          0
vethf8f2b5b: 33232632  367040    0    0    0     0          0         0 45078361  233699    0    0    0     0       0          0
   em1: 740811851 8398549    0    0    0     0          0     14709 1703821998 9147390    0    0    0     0       0          0
veth7d9c62f: 1743518   22147    0    0    0     0          0         0  1970155   17077    0    0    0     0       0          0
veth1172758: 1726394   21999    0    0    0     0          0         0  1962072   17012    0    0    0     0       0          0
    lo: 176411774130 1035157942    0   38    0     0          0         0 176411774130 1035157942    0    0    0     0       0          0
veth09c01a6: 1718172   21900    0    0    0     0          0         0  1949127   16905    0    0    0     0       0          0
veth6033259: 1744480   22207    0    0    0     0          0         0  1980634   17159    0    0    0     0       0          0
   em4:       0       0    0    0    0     0          0         0        0       0    0    0    0     0       0          0
veth6d7dd7f: 1742508   22195    0    0    0     0          0         0  1994046   17295    0    0    0     0       0          0
docker_bridge: 1560151219 15710250    0    0    0     0          0         0 1230992866 12977341    0    0    0     0       0          0
   em3: 31881422753 513124474    0    5    0     0          0     58317 23753601929 26559440    0    0    0     0       0          0
lxcbr0:       0       0    0    0    0     0          0         0      648       8    0    0    0     0       0          0
vethbcc21cb: 1749884   22313    0    0    0     0          0         0  2004539   17389    0    0    0     0       0          0
veth70fa39b: 1745890   22232    0    0    0     0          0         0  1988049   17234    0    0    0     0       0          0
docker0:       0       0    0    0    0     0          0         0        0       0    0    0    0     0       0          0
veth7aa35bf: 1760006   22408    0    0    0     0          0         0  2006547   17405    0    0    0     0       0          0
   em2:       0       0    0    0    0     0          0         0        0       0    0    0    0     0       0          0
Inter-|   Receive                                                |  Transmit
 face |bytes    packets errs drop fifo frame compressed multicast|bytes    packets errs drop fifo colls carrier compressed
veth9a1d96c: 1722220   21935    0    0    0     0          0         0  1945718   16876    0    0    0     0       0          0
vethf8f2b5b: 35824828  401777    0    0    0     0          0         0 49670921  252921    0    0    0     0       0          0
   em1: 745433836 8418030    0    0    0     0          0     14709 1706436600 9182400    0    0    0     0       0          0
veth7d9c62f: 1745538   22172    0    0    0     0          0         0  1973010   17102    0    0    0     0       0          0
veth1172758: 1728546   22026    0    0    0     0          0         0  1964927   17037    0    0    0     0       0          0
    lo: 176411774130 1035157942    0   38    0     0          0         0 176411774130 1035157942    0    0    0     0       0          0
veth09c01a6: 1720456   21929    0    0    0     0          0         0  1951982   16930    0    0    0     0       0          0
veth6033259: 1746500   22232    0    0    0     0          0         0  1983489   17184    0    0    0     0       0          0
   em4:       0       0    0    0    0     0          0         0        0       0    0    0    0     0       0          0
veth6d7dd7f: 1744660   22222    0    0    0     0          0         0  1996901   17320    0    0    0     0       0          0
docker_bridge: 1562272855 15745226    0    0    0     0          0         0 1235611121 12996788    0    0    0     0       0          0
   em3: 31881455206 513124781    0    5    0     0          0     58317 23753617306 26559510    0    0    0     0       0          0
lxcbr0:       0       0    0    0    0     0          0         0      648       8    0    0    0     0       0          0
vethbcc21cb: 1751904   22338    0    0    0     0          0         0  2007394   17414    0    0    0     0       0          0
veth70fa39b: 1748108   22260    0    0    0     0          0         0  1990904   17259    0    0    0     0       0          0
docker0:       0       0    0    0    0     0          0         0        0       0    0    0    0     0       0          0
veth7aa35bf: 1762026   22433    0    0    0     0          0         0  2009402   17430    0    0    0     0       0          0
   em2:       0       0    0    0    0     0          0         0        0       0    0    0    0     0       0          0
Inter-|   Receive                                                |  Transmit
 face |bytes    packets errs drop fifo frame compressed multicast|bytes    packets errs drop fifo colls carrier compressed
veth9a1d96c: 1724570   21965    0    0    0     0          0         0  1948573   16901    0    0    0     0       0          0
vethf8f2b5b: 35824828  401777    0    0    0     0          0         0 49670921  252921    0    0    0     0       0          0
   em1: 745464957 8418305    0    0    0     0          0     14709 1706460838 9182693    0    0    0     0       0          0
veth7d9c62f: 1747690   22199    0    0    0     0          0         0  1975865   17127    0    0    0     0       0          0
veth1172758: 1730566   22051    0    0    0     0          0         0  1967782   17062    0    0    0     0       0          0
    lo: 176411774130 1035157942    0   38    0     0          0         0 176411774130 1035157942    0    0    0     0       0          0
veth09c01a6: 1722542   21955    0    0    0     0          0         0  1954837   16955    0    0    0     0       0          0
veth6033259: 1748718   22260    0    0    0     0          0         0  1986344   17209    0    0    0     0       0          0
   em4:       0       0    0    0    0     0          0         0        0       0    0    0    0     0       0          0
veth6d7dd7f: 1746944   22251    0    0    0     0          0         0  1999756   17345    0    0    0     0       0          0
docker_bridge: 1562288821 15745469    0    0    0     0          0         0 1235636816 12997013    0    0    0     0       0          0
   em3: 31881488513 513125100    0    5    0     0          0     58317 23753633623 26559590    0    0    0     0       0          0
lxcbr0:       0       0    0    0    0     0          0         0      648       8    0    0    0     0       0          0
vethbcc21cb: 1753990   22364    0    0    0     0          0         0  2010249   17439    0    0    0     0       0          0
veth70fa39b: 1750194   22286    0    0    0     0          0         0  1993759   17284    0    0    0     0       0          0
docker0:       0       0    0    0    0     0          0         0        0       0    0    0    0     0       0          0
veth7aa35bf: 1764112   22459    0    0    0     0          0         0  2012257   17455    0    0    0     0       0          0
   em2:       0       0    0    0    0     0          0         0        0       0    0    0    0     0       0          0
Inter-|   Receive                                                |  Transmit
 face |bytes    packets errs drop fifo frame compressed multicast|bytes    packets errs drop fifo colls carrier compressed
veth9a1d96c: 1726722   21992    0    0    0     0          0         0  1951362   16925    0    0    0     0       0          0
vethf8f2b5b: 35824828  401777    0    0    0     0          0         0 49670921  252921    0    0    0     0       0          0
   em1: 745496012 8418579    0    0    0     0          0     14709 1706484548 9182978    0    0    0     0       0          0
veth7d9c62f: 1749776   22225    0    0    0     0          0         0  1978720   17152    0    0    0     0       0          0
veth1172758: 1732586   22076    0    0    0     0          0         0  1970637   17087    0    0    0     0       0          0
    lo: 176411774130 1035157942    0   38    0     0          0         0 176411774130 1035157942    0    0    0     0       0          0
veth09c01a6: 1724694   21982    0    0    0     0          0         0  1957692   16980    0    0    0     0       0          0
veth6033259: 1750738   22285    0    0    0     0          0         0  1989199   17234    0    0    0     0       0          0
   em4:       0       0    0    0    0     0          0         0        0       0    0    0    0     0       0          0
veth6d7dd7f: 1749096   22278    0    0    0     0          0         0  2002611   17370    0    0    0     0       0          0
docker_bridge: 1562304371 15745704    0    0    0     0          0         0 1235662445 12997237    0    0    0     0       0          0
   em3: 31881520730 513125439    0    5    0     0          0     58317 23753649904 26559666    0    0    0     0       0          0
lxcbr0:       0       0    0    0    0     0          0         0      648       8    0    0    0     0       0          0
vethbcc21cb: 1756076   22390    0    0    0     0          0         0  2013104   17464    0    0    0     0       0          0
veth70fa39b: 1752346   22313    0    0    0     0          0         0  1996614   17309    0    0    0     0       0          0
docker0:       0       0    0    0    0     0          0         0        0       0    0    0    0     0       0          0
veth7aa35bf: 1766132   22484    0    0    0     0          0         0  2015112   17480    0    0    0     0       0          0
   em2:       0       0    0    0    0     0          0         0        0       0    0    0    0     0       0          0
Inter-|   Receive                                                |  Transmit
 face |bytes    packets errs drop fifo frame compressed multicast|bytes    packets errs drop fifo colls carrier compressed
veth9a1d96c: 1729212   22023    0    0    0     0          0         0  1954788   16955    0    0    0     0       0          0
vethf8f2b5b: 35824828  401777    0    0    0     0          0         0 49670921  252921    0    0    0     0       0          0
   em1: 745531424 8418891    0    0    0     0          0     14709 1706511572 9183307    0    0    0     0       0          0
veth7d9c62f: 1752332   22257    0    0    0     0          0         0  1982146   17182    0    0    0     0       0          0
veth1172758: 1735142   22108    0    0    0     0          0         0  1974063   17117    0    0    0     0       0          0
    lo: 176411774130 1035157942    0   38    0     0          0         0 176411774130 1035157942    0    0    0     0       0          0
veth09c01a6: 1727316   22015    0    0    0     0          0         0  1961118   17010    0    0    0     0       0          0
veth6033259: 1753294   22317    0    0    0     0          0         0  1992625   17264    0    0    0     0       0          0
   em4:       0       0    0    0    0     0          0         0        0       0    0    0    0     0       0          0
veth6d7dd7f: 1751520   22308    0    0    0     0          0         0  2006037   17400    0    0    0     0       0          0
docker_bridge: 1562323291 15745991    0    0    0     0          0         0 1235693279 12997507    0    0    0     0       0          0
   em3: 31881555211 513125826    0    5    0     0          0     58317 23753665149 26559734    0    0    0     0       0          0
lxcbr0:       0       0    0    0    0     0          0         0      648       8    0    0    0     0       0          0
vethbcc21cb: 1758500   22420    0    0    0     0          0         0  2016530   17494    0    0    0     0       0          0
veth70fa39b: 1755034   22347    0    0    0     0          0         0  2000040   17339    0    0    0     0       0          0
docker0:       0       0    0    0    0     0          0         0        0       0    0    0    0     0       0          0
veth7aa35bf: 1768754   22517    0    0    0     0          0         0  2018538   17510    0    0    0     0       0          0
   em2:       0       0    0    0    0     0          0         0        0       0    0    0    0     0       0          0
Inter-|   Receive                                                |  Transmit
 face |bytes    packets errs drop fifo frame compressed multicast|bytes    packets errs drop fifo colls carrier compressed
veth9a1d96c: 1731430   22051    0    0    0     0          0         0  1957643   16980    0    0    0     0       0          0
vethf8f2b5b: 35824828  401777    0    0    0     0          0         0 49670921  252921    0    0    0     0       0          0
   em1: 745560557 8419148    0    0    0     0          0     14709 1706534180 9183585    0    0    0     0       0          0
veth7d9c62f: 1754418   22283    0    0    0     0          0         0  1985001   17207    0    0    0     0       0          0
veth1172758: 1737228   22134    0    0    0     0          0         0  1976918   17142    0    0    0     0       0          0
    lo: 176411774130 1035157942    0   38    0     0          0         0 176411774130 1035157942    0    0    0     0       0          0
veth09c01a6: 1729468   22042    0    0    0     0          0         0  1963973   17035    0    0    0     0       0          0
veth6033259: 1755512   22345    0    0    0     0          0         0  1995480   17289    0    0    0     0       0          0
   em4:       0       0    0    0    0     0          0         0        0       0    0    0    0     0       0          0
veth6d7dd7f: 1753672   22335    0    0    0     0          0         0  2008892   17425    0    0    0     0       0          0
docker_bridge: 1562339413 15746237    0    0    0     0          0         0 1235718974 12997732    0    0    0     0       0          0
   em3: 31881591864 513126233    0    5    0     0          0     58317 23753679220 26559793    0    0    0     0       0          0
lxcbr0:       0       0    0    0    0     0          0         0      648       8    0    0    0     0       0          0
vethbcc21cb: 1760718   22448    0    0    0     0          0         0  2019385   17519    0    0    0     0       0          0
veth70fa39b: 1757252   22375    0    0    0     0          0         0  2002895   17364    0    0    0     0       0          0
docker0:       0       0    0    0    0     0          0         0        0       0    0    0    0     0       0          0
veth7aa35bf: 1770972   22545    0    0    0     0          0         0  2021393   17535    0    0    0     0       0          0
   em2:       0       0    0    0    0     0          0         0        0       0    0    0    0     0       0          0
Inter-|   Receive                                                |  Transmit
 face |bytes    packets errs drop fifo frame compressed multicast|bytes    packets errs drop fifo colls carrier compressed
veth9a1d96c: 1733624   22079    0    0    0     0          0         0  1960540   17006    0    0    0     0       0          0
vethf8f2b5b: 35824828  401777    0    0    0     0          0         0 49670921  252921    0    0    0     0       0          0
   em1: 745592162 8419428    0    0    0     0          0     14710 1706559008 9183885    0    0    0     0       0          0
veth7d9c62f: 1756678   22312    0    0    0     0          0         0  1987898   17233    0    0    0     0       0          0
veth1172758: 1739422   22162    0    0    0     0          0         0  1979815   17168    0    0    0     0       0          0
    lo: 176411774130 1035157942    0   38    0     0          0         0 176411774130 1035157942    0    0    0     0       0          0
veth09c01a6: 1731728   22071    0    0    0     0          0         0  1966870   17061    0    0    0     0       0          0
veth6033259: 1757706   22373    0    0    0     0          0         0  1998377   17315    0    0    0     0       0          0
   em4:       0       0    0    0    0     0          0         0        0       0    0    0    0     0       0          0
veth6d7dd7f: 1755932   22364    0    0    0     0          0         0  2011789   17451    0    0    0     0       0          0
docker_bridge: 1562355787 15746492    0    0    0     0          0         0 1235745047 12997966    0    0    0     0       0          0
   em3: 31881635853 513126764    0    5    0     0          0     58317 23753695887 26559872    0    0    0     0       0          0
lxcbr0:       0       0    0    0    0     0          0         0      648       8    0    0    0     0       0          0
vethbcc21cb: 1762978   22477    0    0    0     0          0         0  2022282   17545    0    0    0     0       0          0
veth70fa39b: 1759446   22403    0    0    0     0          0         0  2005792   17390    0    0    0     0       0          0
docker0:       0       0    0    0    0     0          0         0        0       0    0    0    0     0       0          0
veth7aa35bf: 1773100   22572    0    0    0     0          0         0  2024290   17561    0    0    0     0       0          0
   em2:       0       0    0    0    0     0          0         0        0       0    0    0    0     0       0          0
Inter-|   Receive                                                |  Transmit
 face |bytes    packets errs drop fifo frame compressed multicast|bytes    packets errs drop fifo colls carrier compressed
veth9a1d96c: 1735974   22109    0    0    0     0          0         0  1963395   17031    0    0    0     0       0          0
vethf8f2b5b: 35824828  401777    0    0    0     0          0         0 49670921  252921    0    0    0     0       0          0
   em1: 745621647 8419688    0    0    0     0          0     14710 1706581654 9184162    0    0    0     0       0          0
veth7d9c62f: 1758830   22339    0    0    0     0          0         0  1990753   17258    0    0    0     0       0          0
veth1172758: 1741442   22187    0    0    0     0          0         0  1982670   17193    0    0    0     0       0          0
    lo: 176411774130 1035157942    0   38    0     0          0         0 176411774130 1035157942    0    0    0     0       0          0
veth09c01a6: 1733880   22098    0    0    0     0          0         0  1969725   17086    0    0    0     0       0          0
veth6033259: 1759726   22398    0    0    0     0          0         0  2001232   17340    0    0    0     0       0          0
   em4:       0       0    0    0    0     0          0         0        0       0    0    0    0     0       0          0
veth6d7dd7f: 1758084   22391    0    0    0     0          0         0  2014644   17476    0    0    0     0       0          0
docker_bridge: 1562371701 15746734    0    0    0     0          0         0 1235770742 12998191    0    0    0     0       0          0
   em3: 31881672446 513127193    0    5    0     0          0     58317 23753710082 26559931    0    0    0     0       0          0
lxcbr0:       0       0    0    0    0     0          0         0      648       8    0    0    0     0       0          0
vethbcc21cb: 1765130   22504    0    0    0     0          0         0  2025137   17570    0    0    0     0       0          0
veth70fa39b: 1761730   22432    0    0    0     0          0         0  2008647   17415    0    0    0     0       0          0
docker0:       0       0    0    0    0     0          0         0        0       0    0    0    0     0       0          0
veth7aa35bf: 1775120   22597    0    0    0     0          0         0  2027145   17586    0    0    0     0       0          0
   em2:       0       0    0    0    0     0          0         0        0       0    0    0    0     0       0          0
Inter-|   Receive                                                |  Transmit
 face |bytes    packets errs drop fifo frame compressed multicast|bytes    packets errs drop fifo colls carrier compressed
veth9a1d96c: 1736848   22120    0    0    0     0          0         0  1964537   17041    0    0    0     0       0          0
vethf8f2b5b: 35824828  401777    0    0    0     0          0         0 49670921  252921    0    0    0     0       0          0
   em1: 745637645 8419830    0    0    0     0          0     14710 1706594150 9184309    0    0    0     0       0          0
veth7d9c62f: 1759704   22350    0    0    0     0          0         0  1991895   17268    0    0    0     0       0          0
veth1172758: 1742250   22197    0    0    0     0          0         0  1983812   17203    0    0    0     0       0          0
    lo: 176411774130 1035157942    0   38    0     0          0         0 176411774130 1035157942    0    0    0     0       0          0
veth09c01a6: 1734754   22109    0    0    0     0          0         0  1970867   17096    0    0    0     0       0          0
veth6033259: 1760938   22413    0    0    0     0          0         0  2002945   17355    0    0    0     0       0          0
   em4:       0       0    0    0    0     0          0         0        0       0    0    0    0     0       0          0
veth6d7dd7f: 1759296   22406    0    0    0     0          0         0  2016357   17491    0    0    0     0       0          0
docker_bridge: 1562378641 15746839    0    0    0     0          0         0 1235782162 12998291    0    0    0     0       0          0
   em3: 31881711361 513127640    0    5    0     0          0     58317 23753725577 26560000    0    0    0     0       0          0
lxcbr0:       0       0    0    0    0     0          0         0      648       8    0    0    0     0       0          0
vethbcc21cb: 1765938   22514    0    0    0     0          0         0  2026279   17580    0    0    0     0       0          0
veth70fa39b: 1762604   22443    0    0    0     0          0         0  2009789   17425    0    0    0     0       0          0
docker0:       0       0    0    0    0     0          0         0        0       0    0    0    0     0       0          0
veth7aa35bf: 1775994   22608    0    0    0     0          0         0  2028287   17596    0    0    0     0       0          0
   em2:       0       0    0    0    0     0          0         0        0       0    0    0    0     0       0          0
