   em1: 707774975 8259413    0    0    0     0          0     14709 1689316484 8960416    0    0    0     0       0          0
   em1: 707805248 8259680    0    0    0     0          0     14709 1689340070 8960703    0    0    0     0       0          0
   em1: 708780279 8263711    0    0    0     0          0     14709 1689759213 8966011    0    0    0     0       0          0
   em1: 715592754 8292491    0    0    0     0          0     14709 1692672433 9003383    0    0    0     0       0          0
   em1: 727620460 8342852    0    0    0     0          0     14709 1698056378 9073042    0    0    0     0       0          0
   em1: 740811851 8398549    0    0    0     0          0     14709 1703821998 9147390    0    0    0     0       0          0
   em1: 745433836 8418030    0    0    0     0          0     14709 1706436600 9182400    0    0    0     0       0          0
   em1: 745464957 8418305    0    0    0     0          0     14709 1706460838 9182693    0    0    0     0       0          0
   em1: 745496012 8418579    0    0    0     0          0     14709 1706484548 9182978    0    0    0     0       0          0
   em1: 745531424 8418891    0    0    0     0          0     14709 1706511572 9183307    0    0    0     0       0          0
   em1: 745560557 8419148    0    0    0     0          0     14709 1706534180 9183585    0    0    0     0       0          0
   em1: 745592162 8419428    0    0    0     0          0     14710 1706559008 9183885    0    0    0     0       0          0
   em1: 745621647 8419688    0    0    0     0          0     14710 1706581654 9184162    0    0    0     0       0          0
   em1: 745637645 8419830    0    0    0     0          0     14710 1706594150 9184309    0    0    0     0       0          0
