# Generated by DoSarray v0.2 on 2018-06-08 18:09
# machine_name sequence : ['dedos01', 'dedos02', 'dedos03', 'dedos04', 'dedos05', 'dedos06', 'dedos07', 'dedos08']
# time, (min, avg, max)+
0 0.12 0.12 0.12 0.11 0.11 0.11 0.09 0.09 0.09 0.11 0.11 0.11 0.12 0.12 0.12 0.11 0.11 0.11 0.02 0.02 0.02 0.12 0.12 0.12 
5 0.11 0.11 0.11 0.1 0.1 0.1 0.09 0.09 0.09 0.1 0.1 0.1 0.11 0.11 0.11 0.1 0.1 0.1 0.01 0.01 0.01 0.26 0.26 0.26 
10 0.1 0.1 0.1 0.09 0.09 0.09 0.08 0.08 0.08 0.09 0.09 0.09 0.1 0.1 0.1 0.09 0.09 0.09 0.01 0.01 0.01 0.48 0.48 0.48 
15 0.09 0.09 0.09 0.25 0.25 0.25 0.07 0.07 0.07 0.08 0.08 0.08 0.25 0.25 0.25 0.16 0.16 0.16 0.25 0.25 0.25 0.44 0.44 0.44 
20 0.09 0.09 0.09 0.39 0.39 0.39 0.47 0.47 0.47 0.08 0.08 0.08 0.39 0.39 0.39 0.39 0.39 0.39 0.31 0.31 0.31 0.41 0.41 0.41 
25 0.08 0.08 0.08 0.52 0.52 0.52 0.67 0.67 0.67 0.55 0.55 0.55 0.36 0.36 0.36 0.8 0.8 0.8 0.29 0.29 0.29 0.37 0.37 0.37 
30 0.15 0.15 0.15 0.96 0.96 0.96 0.78 0.78 0.78 0.59 0.59 0.59 0.57 0.57 0.57 0.97 0.97 0.97 0.26 0.26 0.26 0.34 0.34 0.34 
35 0.14 0.14 0.14 0.88 0.88 0.88 0.71 0.71 0.71 0.54 0.54 0.54 0.53 0.53 0.53 0.9 0.9 0.9 0.24 0.24 0.24 0.31 0.31 0.31 
40 0.13 0.13 0.13 0.81 0.81 0.81 0.66 0.66 0.66 0.5 0.5 0.5 0.48 0.48 0.48 0.82 0.82 0.82 0.22 0.22 0.22 0.29 0.29 0.29 
45 0.12 0.12 0.12 0.74 0.74 0.74 0.6 0.6 0.6 0.46 0.46 0.46 0.44 0.44 0.44 0.76 0.76 0.76 0.2 0.2 0.2 0.27 0.27 0.27 
50 0.11 0.11 0.11 0.68 0.68 0.68 0.56 0.56 0.56 0.42 0.42 0.42 0.41 0.41 0.41 0.7 0.7 0.7 0.19 0.19 0.19 0.24 0.24 0.24 
55 0.09 0.09 0.09 0.63 0.63 0.63 0.51 0.51 0.51 0.67 0.67 0.67 0.59 0.59 0.59 0.64 0.64 0.64 0.17 0.17 0.17 0.22 0.22 0.22 
60 0.24 0.24 0.24 0.58 0.58 0.58 0.47 0.47 0.47 1.02 1.02 1.02 0.62 0.62 0.62 0.59 0.59 0.59 0.16 0.16 0.16 0.21 0.21 0.21 
65 0.22 0.22 0.22 0.73 0.73 0.73 0.43 0.43 0.43 0.94 0.94 0.94 0.57 0.57 0.57 0.62 0.62 0.62 0.14 0.14 0.14 0.19 0.19 0.19 
