Inter-|   Receive                                                |  Transmit
 face |bytes    packets errs drop fifo frame compressed multicast|bytes    packets errs drop fifo colls carrier compressed
veth9a1d96c: 1452468   18519    0    0    0     0          0         0  1636608   14176    0    0    0     0       0          0
vethf8f2b5b: 14852079  142338    0    0    0     0          0         0 10157667   77346    0    0    0     0       0          0
   em1: 696311358 8174656    0    0    0     0          0     10505 1680786656 8863266    0    0    0     0       0          0
veth7d9c62f: 1479640   18787    0    0    0     0          0         0  1662400   14390    0    0    0     0       0          0
veth1172758: 1465606   18676    0    0    0     0          0         0  1657158   14345    0    0    0     0       0          0
    lo: 176411774002 1035157941    0   38    0     0          0         0 176411774002 1035157941    0    0    0     0       0          0
veth09c01a6: 1457282   18574    0    0    0     0          0         0  1644892   14244    0    0    0     0       0          0
veth6033259: 1481050   18855    0    0    0     0          0         0  1673616   14480    0    0    0     0       0          0
   em4:       0       0    0    0    0     0          0         0        0       0    0    0    0     0       0          0
veth6d7dd7f: 1472150   18765    0    0    0     0          0         0  1680110   14553    0    0    0     0       0          0
docker_bridge: 1542951830 15455136    0    0    0     0          0         0 1193292154 12796710    0    0    0     0       0          0
   em3: 31509049230 506959129    0    5    0     0          0     57691 23750388954 26542448    0    0    0     0       0          0
lxcbr0:       0       0    0    0    0     0          0         0      648       8    0    0    0     0       0          0
vethbcc21cb: 1482006   18891    0    0    0     0          0         0  1691246   14653    0    0    0     0       0          0
veth70fa39b: 1477800   18830    0    0    0     0          0         0  1676750   14517    0    0    0     0       0          0
docker0:       0       0    0    0    0     0          0         0        0       0    0    0    0     0       0          0
veth7aa35bf: 1492420   18999    0    0    0     0          0         0  1695234   14691    0    0    0     0       0          0
   em2:       0       0    0    0    0     0          0         0        0       0    0    0    0     0       0          0
Inter-|   Receive                                                |  Transmit
 face |bytes    packets errs drop fifo frame compressed multicast|bytes    packets errs drop fifo colls carrier compressed
veth9a1d96c: 1454860   18550    0    0    0     0          0         0  1639560   14202    0    0    0     0       0          0
vethf8f2b5b: 14852079  142338    0    0    0     0          0         0 10157667   77346    0    0    0     0       0          0
   em1: 696341949 8174923    0    0    0     0          0     10505 1680811529 8863575    0    0    0     0       0          0
veth7d9c62f: 1481900   18816    0    0    0     0          0         0  1665352   14416    0    0    0     0       0          0
veth1172758: 1467998   18707    0    0    0     0          0         0  1660110   14371    0    0    0     0       0          0
    lo: 176411774002 1035157941    0   38    0     0          0         0 176411774002 1035157941    0    0    0     0       0          0
veth09c01a6: 1459674   18605    0    0    0     0          0         0  1647844   14270    0    0    0     0       0          0
veth6033259: 1483376   18885    0    0    0     0          0         0  1676568   14506    0    0    0     0       0          0
   em4:       0       0    0    0    0     0          0         0        0       0    0    0    0     0       0          0
veth6d7dd7f: 1474542   18796    0    0    0     0          0         0  1683062   14579    0    0    0     0       0          0
docker_bridge: 1542969296 15455412    0    0    0     0          0         0 1193318722 12796944    0    0    0     0       0          0
   em3: 31509082179 506959513    0    5    0     0          0     57691 23750404121 26542515    0    0    0     0       0          0
lxcbr0:       0       0    0    0    0     0          0         0      648       8    0    0    0     0       0          0
vethbcc21cb: 1484398   18922    0    0    0     0          0         0  1694198   14679    0    0    0     0       0          0
veth70fa39b: 1480192   18861    0    0    0     0          0         0  1679702   14543    0    0    0     0       0          0
docker0:       0       0    0    0    0     0          0         0        0       0    0    0    0     0       0          0
veth7aa35bf: 1494812   19030    0    0    0     0          0         0  1698186   14717    0    0    0     0       0          0
   em2:       0       0    0    0    0     0          0         0        0       0    0    0    0     0       0          0
Inter-|   Receive                                                |  Transmit
 face |bytes    packets errs drop fifo frame compressed multicast|bytes    packets errs drop fifo colls carrier compressed
veth9a1d96c: 1456814   18575    0    0    0     0          0         0  1641888   14222    0    0    0     0       0          0
vethf8f2b5b: 14853559  142358    0    0    0     0          0         0 10157667   77346    0    0    0     0       0          0
   em1: 696369770 8175167    0    0    0     0          0     10505 1680835704 8863875    0    0    0     0       0          0
veth7d9c62f: 1483986   18842    0    0    0     0          0         0  1667820   14438    0    0    0     0       0          0
veth1172758: 1470282   18736    0    0    0     0          0         0  1663020   14396    0    0    0     0       0          0
    lo: 176411774002 1035157941    0   38    0     0          0         0 176411774002 1035157941    0    0    0     0       0          0
veth09c01a6: 1461628   18630    0    0    0     0          0         0  1650172   14290    0    0    0     0       0          0
veth6033259: 1485330   18910    0    0    0     0          0         0  1678896   14526    0    0    0     0       0          0
   em4:       0       0    0    0    0     0          0         0        0       0    0    0    0     0       0          0
veth6d7dd7f: 1476694   18823    0    0    0     0          0         0  1685972   14604    0    0    0     0       0          0
docker_bridge: 1542985938 15455670    0    0    0     0          0         0 1193342142 12797146    0    0    0     0       0          0
   em3: 31509115694 506959904    0    5    0     0          0     57691 23750422284 26542584    0    0    0     0       0          0
lxcbr0:       0       0    0    0    0     0          0         0      648       8    0    0    0     0       0          0
vethbcc21cb: 1486682   18951    0    0    0     0          0         0  1697108   14704    0    0    0     0       0          0
veth70fa39b: 1482014   18884    0    0    0     0          0         0  1682030   14563    0    0    0     0       0          0
docker0:       0       0    0    0    0     0          0         0        0       0    0    0    0     0       0          0
veth7aa35bf: 1497096   19059    0    0    0     0          0         0  1701096   14742    0    0    0     0       0          0
   em2:       0       0    0    0    0     0          0         0        0       0    0    0    0     0       0          0
Inter-|   Receive                                                |  Transmit
 face |bytes    packets errs drop fifo frame compressed multicast|bytes    packets errs drop fifo colls carrier compressed
veth9a1d96c: 1457836   18586    0    0    0     0          0         0  1642168   14226    0    0    0     0       0          0
vethf8f2b5b: 14881579  142566    0    0    0     0          0         0 10163629   77431    0    0    0     0       0          0
   em1: 696384443 8175336    0    0    0     0          0     10505 1680873835 8864204    0    0    0     0       0          0
veth7d9c62f: 1484480   18849    0    0    0     0          0         0  1668262   14441    0    0    0     0       0          0
veth1172758: 1470974   18745    0    0    0     0          0         0  1663602   14401    0    0    0     0       0          0
    lo: 176411774002 1035157941    0   38    0     0          0         0 176411774002 1035157941    0    0    0     0       0          0
veth09c01a6: 1462254   18638    0    0    0     0          0         0  1650754   14295    0    0    0     0       0          0
veth6033259: 1485700   18915    0    0    0     0          0         0  1678896   14526    0    0    0     0       0          0
   em4:       0       0    0    0    0     0          0         0        0       0    0    0    0     0       0          0
veth6d7dd7f: 1477552   18834    0    0    0     0          0         0  1686760   14612    0    0    0     0       0          0
docker_bridge: 1543016102 15455956    0    0    0     0          0         0 1193352354 12797272    0    0    0     0       0          0
   em3: 31509148895 506960290    0    5    0     0          0     57691 23750438231 26542655    0    0    0     0       0          0
lxcbr0:       0       0    0    0    0     0          0         0      648       8    0    0    0     0       0          0
vethbcc21cb: 1487540   18962    0    0    0     0          0         0  1697896   14712    0    0    0     0       0          0
veth70fa39b: 1482384   18889    0    0    0     0          0         0  1682030   14563    0    0    0     0       0          0
docker0:       0       0    0    0    0     0          0         0        0       0    0    0    0     0       0          0
veth7aa35bf: 1497954   19070    0    0    0     0          0         0  1701884   14750    0    0    0     0       0          0
   em2:       0       0    0    0    0     0          0         0        0       0    0    0    0     0       0          0
Inter-|   Receive                                                |  Transmit
 face |bytes    packets errs drop fifo frame compressed multicast|bytes    packets errs drop fifo colls carrier compressed
veth9a1d96c: 1458594   18594    0    0    0     0          0         0  1642168   14226    0    0    0     0       0          0
vethf8f2b5b: 14886943  142630    0    0    0     0          0         0 10163671   77432    0    0    0     0       0          0
   em1: 696388844 8175378    0    0    0     0          0     10505 1680887018 8864360    0    0    0     0       0          0
veth7d9c62f: 1484924   18855    0    0    0     0          0         0  1668262   14441    0    0    0     0       0          0
veth1172758: 1471418   18751    0    0    0     0          0         0  1663602   14401    0    0    0     0       0          0
    lo: 176411774002 1035157941    0   38    0     0          0         0 176411774002 1035157941    0    0    0     0       0          0
veth09c01a6: 1462698   18644    0    0    0     0          0         0  1650754   14295    0    0    0     0       0          0
veth6033259: 1486070   18920    0    0    0     0          0         0  1678896   14526    0    0    0     0       0          0
   em4:       0       0    0    0    0     0          0         0        0       0    0    0    0     0       0          0
veth6d7dd7f: 1477922   18839    0    0    0     0          0         0  1686760   14612    0    0    0     0       0          0
docker_bridge: 1543023796 15456071    0    0    0     0          0         0 1193352396 12797273    0    0    0     0       0          0
   em3: 31509180020 506960642    0    5    0     0          0     57691 23750452718 26542718    0    0    0     0       0          0
lxcbr0:       0       0    0    0    0     0          0         0      648       8    0    0    0     0       0          0
vethbcc21cb: 1487910   18967    0    0    0     0          0         0  1697896   14712    0    0    0     0       0          0
veth70fa39b: 1482754   18894    0    0    0     0          0         0  1682030   14563    0    0    0     0       0          0
docker0:       0       0    0    0    0     0          0         0        0       0    0    0    0     0       0          0
veth7aa35bf: 1498324   19075    0    0    0     0          0         0  1701884   14750    0    0    0     0       0          0
   em2:       0       0    0    0    0     0          0         0        0       0    0    0    0     0       0          0
Inter-|   Receive                                                |  Transmit
 face |bytes    packets errs drop fifo frame compressed multicast|bytes    packets errs drop fifo colls carrier compressed
veth9a1d96c: 1459814   18606    0    0    0     0          0         0  1642242   14227    0    0    0     0       0          0
vethf8f2b5b: 14892265  142693    0    0    0     0          0         0 10163671   77432    0    0    0     0       0          0
   em1: 696393859 8175427    0    0    0     0          0     10505 1680901171 8864526    0    0    0     0       0          0
veth7d9c62f: 1485294   18860    0    0    0     0          0         0  1668262   14441    0    0    0     0       0          0
veth1172758: 1471788   18756    0    0    0     0          0         0  1663602   14401    0    0    0     0       0          0
    lo: 176411774002 1035157941    0   38    0     0          0         0 176411774002 1035157941    0    0    0     0       0          0
veth09c01a6: 1463068   18649    0    0    0     0          0         0  1650754   14295    0    0    0     0       0          0
veth6033259: 1486440   18925    0    0    0     0          0         0  1678896   14526    0    0    0     0       0          0
   em4:       0       0    0    0    0     0          0         0        0       0    0    0    0     0       0          0
veth6d7dd7f: 1478366   18845    0    0    0     0          0         0  1686760   14612    0    0    0     0       0          0
docker_bridge: 1543031868 15456189    0    0    0     0          0         0 1193352470 12797274    0    0    0     0       0          0
   em3: 31509213763 506961031    0    5    0     0          0     57691 23750468985 26542791    0    0    0     0       0          0
lxcbr0:       0       0    0    0    0     0          0         0      648       8    0    0    0     0       0          0
vethbcc21cb: 1488354   18973    0    0    0     0          0         0  1697896   14712    0    0    0     0       0          0
veth70fa39b: 1483124   18899    0    0    0     0          0         0  1682030   14563    0    0    0     0       0          0
docker0:       0       0    0    0    0     0          0         0        0       0    0    0    0     0       0          0
veth7aa35bf: 1498768   19081    0    0    0     0          0         0  1701884   14750    0    0    0     0       0          0
   em2:       0       0    0    0    0     0          0         0        0       0    0    0    0     0       0          0
Inter-|   Receive                                                |  Transmit
 face |bytes    packets errs drop fifo frame compressed multicast|bytes    packets errs drop fifo colls carrier compressed
veth9a1d96c: 1461570   18623    0    0    0     0          0         0  1642390   14229    0    0    0     0       0          0
vethf8f2b5b: 14898185  142773    0    0    0     0          0         0 10163671   77432    0    0    0     0       0          0
   em1: 696397592 8175463    0    0    0     0          0     10505 1680915124 8864699    0    0    0     0       0          0
veth7d9c62f: 1485664   18865    0    0    0     0          0         0  1668262   14441    0    0    0     0       0          0
veth1172758: 1472158   18761    0    0    0     0          0         0  1663602   14401    0    0    0     0       0          0
    lo: 176411774002 1035157941    0   38    0     0          0         0 176411774002 1035157941    0    0    0     0       0          0
veth09c01a6: 1463438   18654    0    0    0     0          0         0  1650754   14295    0    0    0     0       0          0
veth6033259: 1486884   18931    0    0    0     0          0         0  1678896   14526    0    0    0     0       0          0
   em4:       0       0    0    0    0     0          0         0        0       0    0    0    0     0       0          0
veth6d7dd7f: 1478736   18850    0    0    0     0          0         0  1686760   14612    0    0    0     0       0          0
docker_bridge: 1543040706 15456328    0    0    0     0          0         0 1193352618 12797276    0    0    0     0       0          0
   em3: 31509245434 506961400    0    5    0     0          0     57691 23750482822 26542847    0    0    0     0       0          0
lxcbr0:       0       0    0    0    0     0          0         0      648       8    0    0    0     0       0          0
vethbcc21cb: 1488724   18978    0    0    0     0          0         0  1697896   14712    0    0    0     0       0          0
veth70fa39b: 1483568   18905    0    0    0     0          0         0  1682030   14563    0    0    0     0       0          0
docker0:       0       0    0    0    0     0          0         0        0       0    0    0    0     0       0          0
veth7aa35bf: 1499138   19086    0    0    0     0          0         0  1701884   14750    0    0    0     0       0          0
   em2:       0       0    0    0    0     0          0         0        0       0    0    0    0     0       0          0
Inter-|   Receive                                                |  Transmit
 face |bytes    packets errs drop fifo frame compressed multicast|bytes    packets errs drop fifo colls carrier compressed
veth9a1d96c: 1463906   18650    0    0    0     0          0         0  1644414   14245    0    0    0     0       0          0
vethf8f2b5b: 14914487  142938    0    0    0     0          0         0 10179013   77515    0    0    0     0       0          0
   em1: 696428437 8175681    0    0    0     0          0     10505 1680946581 8865047    0    0    0     0       0          0
veth7d9c62f: 1486926   18881    0    0    0     0          0         0  1669566   14453    0    0    0     0       0          0
veth1172758: 1473420   18777    0    0    0     0          0         0  1664906   14413    0    0    0     0       0          0
    lo: 176411774002 1035157941    0   38    0     0          0         0 176411774002 1035157941    0    0    0     0       0          0
veth09c01a6: 1464700   18670    0    0    0     0          0         0  1652058   14307    0    0    0     0       0          0
veth6033259: 1487254   18936    0    0    0     0          0         0  1678896   14526    0    0    0     0       0          0
   em4:       0       0    0    0    0     0          0         0        0       0    0    0    0     0       0          0
veth6d7dd7f: 1480006   18867    0    0    0     0          0         0  1688300   14624    0    0    0     0       0          0
docker_bridge: 1543063414 15456628    0    0    0     0          0         0 1193378516 12797447    0    0    0     0       0          0
   em3: 31509279202 506961791    0    5    0     0          0     57691 23750498447 26542917    0    0    0     0       0          0
lxcbr0:       0       0    0    0    0     0          0         0      648       8    0    0    0     0       0          0
vethbcc21cb: 1489994   18995    0    0    0     0          0         0  1699436   14724    0    0    0     0       0          0
veth70fa39b: 1483938   18910    0    0    0     0          0         0  1682030   14563    0    0    0     0       0          0
docker0:       0       0    0    0    0     0          0         0        0       0    0    0    0     0       0          0
veth7aa35bf: 1500342   19102    0    0    0     0          0         0  1703424   14762    0    0    0     0       0          0
   em2:       0       0    0    0    0     0          0         0        0       0    0    0    0     0       0          0
Inter-|   Receive                                                |  Transmit
 face |bytes    packets errs drop fifo frame compressed multicast|bytes    packets errs drop fifo colls carrier compressed
veth9a1d96c: 1464408   18656    0    0    0     0          0         0  1644414   14245    0    0    0     0       0          0
vethf8f2b5b: 14921027  143006    0    0    0     0          0         0 10179055   77516    0    0    0     0       0          0
   em1: 696433444 8175730    0    0    0     0          0     10505 1680960814 8865206    0    0    0     0       0          0
veth7d9c62f: 1487330   18887    0    0    0     0          0         0  1669674   14455    0    0    0     0       0          0
veth1172758: 1473824   18783    0    0    0     0          0         0  1665014   14415    0    0    0     0       0          0
    lo: 176411774002 1035157941    0   38    0     0          0         0 176411774002 1035157941    0    0    0     0       0          0
veth09c01a6: 1465104   18676    0    0    0     0          0         0  1652166   14309    0    0    0     0       0          0
veth6033259: 1487624   18941    0    0    0     0          0         0  1678896   14526    0    0    0     0       0          0
   em4:       0       0    0    0    0     0          0         0        0       0    0    0    0     0       0          0
veth6d7dd7f: 1480418   18873    0    0    0     0          0         0  1688342   14625    0    0    0     0       0          0
docker_bridge: 1543071964 15456748    0    0    0     0          0         0 1193379008 12797457    0    0    0     0       0          0
   em3: 31509314801 506962210    0    5    0     0          0     57691 23750514984 26542993    0    0    0     0       0          0
lxcbr0:       0       0    0    0    0     0          0         0      648       8    0    0    0     0       0          0
vethbcc21cb: 1490406   19001    0    0    0     0          0         0  1699478   14725    0    0    0     0       0          0
veth70fa39b: 1484308   18915    0    0    0     0          0         0  1682030   14563    0    0    0     0       0          0
docker0:       0       0    0    0    0     0          0         0        0       0    0    0    0     0       0          0
veth7aa35bf: 1500754   19108    0    0    0     0          0         0  1703466   14763    0    0    0     0       0          0
   em2:       0       0    0    0    0     0          0         0        0       0    0    0    0     0       0          0
Inter-|   Receive                                                |  Transmit
 face |bytes    packets errs drop fifo frame compressed multicast|bytes    packets errs drop fifo colls carrier compressed
veth9a1d96c: 1464844   18662    0    0    0     0          0         0  1644488   14246    0    0    0     0       0          0
vethf8f2b5b: 14925959  143070    0    0    0     0          0         0 10179277   77519    0    0    0     0       0          0
   em1: 696437733 8175772    0    0    0     0          0     10505 1680972687 8865354    0    0    0     0       0          0
veth7d9c62f: 1487700   18892    0    0    0     0          0         0  1669674   14455    0    0    0     0       0          0
veth1172758: 1474194   18788    0    0    0     0          0         0  1665014   14415    0    0    0     0       0          0
    lo: 176411774002 1035157941    0   38    0     0          0         0 176411774002 1035157941    0    0    0     0       0          0
veth09c01a6: 1465474   18681    0    0    0     0          0         0  1652166   14309    0    0    0     0       0          0
veth6033259: 1487994   18946    0    0    0     0          0         0  1678896   14526    0    0    0     0       0          0
   em4:       0       0    0    0    0     0          0         0        0       0    0    0    0     0       0          0
veth6d7dd7f: 1480788   18878    0    0    0     0          0         0  1688342   14625    0    0    0     0       0          0
docker_bridge: 1543078752 15456858    0    0    0     0          0         0 1193379304 12797461    0    0    0     0       0          0
   em3: 31509351948 506962670    0    5    0     0          0     57691 23750529701 26543057    0    0    0     0       0          0
lxcbr0:       0       0    0    0    0     0          0         0      648       8    0    0    0     0       0          0
vethbcc21cb: 1490776   19006    0    0    0     0          0         0  1699478   14725    0    0    0     0       0          0
veth70fa39b: 1484678   18920    0    0    0     0          0         0  1682030   14563    0    0    0     0       0          0
docker0:       0       0    0    0    0     0          0         0        0       0    0    0    0     0       0          0
veth7aa35bf: 1501124   19113    0    0    0     0          0         0  1703466   14763    0    0    0     0       0          0
   em2:       0       0    0    0    0     0          0         0        0       0    0    0    0     0       0          0
Inter-|   Receive                                                |  Transmit
 face |bytes    packets errs drop fifo frame compressed multicast|bytes    packets errs drop fifo colls carrier compressed
veth9a1d96c: 1466180   18679    0    0    0     0          0         0  1646028   14258    0    0    0     0       0          0
vethf8f2b5b: 14937623  143240    0    0    0     0          0         0 10200297   77603    0    0    0     0       0          0
   em1: 696476706 8176010    0    0    0     0          0     10505 1681000580 8865725    0    0    0     0       0          0
veth7d9c62f: 1489044   18910    0    0    0     0          0         0  1671214   14467    0    0    0     0       0          0
veth1172758: 1475484   18805    0    0    0     0          0         0  1666554   14427    0    0    0     0       0          0
    lo: 176411774002 1035157941    0   38    0     0          0         0 176411774002 1035157941    0    0    0     0       0          0
veth09c01a6: 1466818   18699    0    0    0     0          0         0  1653706   14321    0    0    0     0       0          0
veth6033259: 1489560   18966    0    0    0     0          0         0  1680642   14541    0    0    0     0       0          0
   em4:       0       0    0    0    0     0          0         0        0       0    0    0    0     0       0          0
veth6d7dd7f: 1481950   18893    0    0    0     0          0         0  1689506   14635    0    0    0     0       0          0
docker_bridge: 1543097798 15457183    0    0    0     0          0         0 1193413468 12797653    0    0    0     0       0          0
   em3: 31509409641 506963455    0    5    0     0          0     57691 23750546454 26543135    0    0    0     0       0          0
lxcbr0:       0       0    0    0    0     0          0         0      648       8    0    0    0     0       0          0
vethbcc21cb: 1491872   19020    0    0    0     0          0         0  1700642   14735    0    0    0     0       0          0
veth70fa39b: 1486310   18941    0    0    0     0          0         0  1683776   14578    0    0    0     0       0          0
docker0:       0       0    0    0    0     0          0         0        0       0    0    0    0     0       0          0
veth7aa35bf: 1502286   19128    0    0    0     0          0         0  1704630   14773    0    0    0     0       0          0
   em2:       0       0    0    0    0     0          0         0        0       0    0    0    0     0       0          0
Inter-|   Receive                                                |  Transmit
 face |bytes    packets errs drop fifo frame compressed multicast|bytes    packets errs drop fifo colls carrier compressed
veth9a1d96c: 1469066   18716    0    0    0     0          0         0  1649528   14288    0    0    0     0       0          0
vethf8f2b5b: 14937623  143240    0    0    0     0          0         0 10200297   77603    0    0    0     0       0          0
   em1: 696509159 8176292    0    0    0     0          0     10505 1681026825 8866052    0    0    0     0       0          0
veth7d9c62f: 1491328   18939    0    0    0     0          0         0  1674124   14492    0    0    0     0       0          0
veth1172758: 1477702   18833    0    0    0     0          0         0  1669464   14452    0    0    0     0       0          0
    lo: 176411774002 1035157941    0   38    0     0          0         0 176411774002 1035157941    0    0    0     0       0          0
veth09c01a6: 1469036   18727    0    0    0     0          0         0  1656616   14346    0    0    0     0       0          0
veth6033259: 1491886   18996    0    0    0     0          0         0  1683594   14567    0    0    0     0       0          0
   em4:       0       0    0    0    0     0          0         0        0       0    0    0    0     0       0          0
veth6d7dd7f: 1484770   18929    0    0    0     0          0         0  1692866   14663    0    0    0     0       0          0
docker_bridge: 1543116404 15457472    0    0    0     0          0         0 1193441880 12797897    0    0    0     0       0          0
   em3: 31509465368 506964225    0    5    0     0          0     57691 23750560997 26543196    0    0    0     0       0          0
lxcbr0:       0       0    0    0    0     0          0         0      648       8    0    0    0     0       0          0
vethbcc21cb: 1494560   19054    0    0    0     0          0         0  1704134   14765    0    0    0     0       0          0
veth70fa39b: 1488702   18972    0    0    0     0          0         0  1686728   14604    0    0    0     0       0          0
docker0:       0       0    0    0    0     0          0         0        0       0    0    0    0     0       0          0
veth7aa35bf: 1505106   19164    0    0    0     0          0         0  1708056   14802    0    0    0     0       0          0
   em2:       0       0    0    0    0     0          0         0        0       0    0    0    0     0       0          0
Inter-|   Receive                                                |  Transmit
 face |bytes    packets errs drop fifo frame compressed multicast|bytes    packets errs drop fifo colls carrier compressed
veth9a1d96c: 1471458   18747    0    0    0     0          0         0  1652480   14314    0    0    0     0       0          0
vethf8f2b5b: 14937623  143240    0    0    0     0          0         0 10200297   77603    0    0    0     0       0          0
   em1: 696539684 8176558    0    0    0     0          0     10505 1681051698 8866361    0    0    0     0       0          0
veth7d9c62f: 1493546   18967    0    0    0     0          0         0  1677034   14517    0    0    0     0       0          0
veth1172758: 1480052   18863    0    0    0     0          0         0  1672374   14477    0    0    0     0       0          0
    lo: 176411774002 1035157941    0   38    0     0          0         0 176411774002 1035157941    0    0    0     0       0          0
veth09c01a6: 1471386   18757    0    0    0     0          0         0  1659526   14371    0    0    0     0       0          0
veth6033259: 1494236   19026    0    0    0     0          0         0  1686438   14591    0    0    0     0       0          0
   em4:       0       0    0    0    0     0          0         0        0       0    0    0    0     0       0          0
veth6d7dd7f: 1487162   18960    0    0    0     0          0         0  1695818   14689    0    0    0     0       0          0
docker_bridge: 1543133730 15457743    0    0    0     0          0         0 1193468172 12798125    0    0    0     0       0          0
   em3: 31509504429 506964706    0    5    0     0          0     57691 23750576240 26543265    0    0    0     0       0          0
lxcbr0:       0       0    0    0    0     0          0         0      648       8    0    0    0     0       0          0
vethbcc21cb: 1496952   19085    0    0    0     0          0         0  1707086   14791    0    0    0     0       0          0
veth70fa39b: 1491052   19002    0    0    0     0          0         0  1689638   14629    0    0    0     0       0          0
docker0:       0       0    0    0    0     0          0         0        0       0    0    0    0     0       0          0
veth7aa35bf: 1507432   19194    0    0    0     0          0         0  1711008   14828    0    0    0     0       0          0
   em2:       0       0    0    0    0     0          0         0        0       0    0    0    0     0       0          0
Inter-|   Receive                                                |  Transmit
 face |bytes    packets errs drop fifo frame compressed multicast|bytes    packets errs drop fifo colls carrier compressed
veth9a1d96c: 1473850   18777    0    0    0     0          0         0  1655766   14341    0    0    0     0       0          0
vethf8f2b5b: 14937623  143240    0    0    0     0          0         0 10200297   77603    0    0    0     0       0          0
   em1: 696573903 8176855    0    0    0     0          0     10505 1681078877 8866697    0    0    0     0       0          0
veth7d9c62f: 1496276   19002    0    0    0     0          0         0  1680568   14548    0    0    0     0       0          0
veth1172758: 1482782   18898    0    0    0     0          0         0  1675908   14508    0    0    0     0       0          0
    lo: 176411774002 1035157941    0   38    0     0          0         0 176411774002 1035157941    0    0    0     0       0          0
veth09c01a6: 1474182   18793    0    0    0     0          0         0  1663060   14402    0    0    0     0       0          0
veth6033259: 1496990   19061    0    0    0     0          0         0  1689930   14621    0    0    0     0       0          0
   em4:       0       0    0    0    0     0          0         0        0       0    0    0    0     0       0          0
veth6d7dd7f: 1489512   18990    0    0    0     0          0         0  1698728   14714    0    0    0     0       0          0
docker_bridge: 1543152636 15458036    0    0    0     0          0         0 1193497708 12798379    0    0    0     0       0          0
   em3: 31509538962 506965110    0    5    0     0          0     57691 23750592115 26543336    0    0    0     0       0          0
lxcbr0:       0       0    0    0    0     0          0         0      648       8    0    0    0     0       0          0
vethbcc21cb: 1499302   19115    0    0    0     0          0         0  1709996   14816    0    0    0     0       0          0
veth70fa39b: 1493740   19036    0    0    0     0          0         0  1693130   14659    0    0    0     0       0          0
docker0:       0       0    0    0    0     0          0         0        0       0    0    0    0     0       0          0
veth7aa35bf: 1509650   19222    0    0    0     0          0         0  1713852   14852    0    0    0     0       0          0
   em2:       0       0    0    0    0     0          0         0        0       0    0    0    0     0       0          0
