dedos04 1528340788 0.00 0.01 0.00 4/611 166349
dedos04 1528340794 0.00 0.01 0.00 3/629 166619
dedos04 1528340799 0.00 0.01 0.00 3/651 166856
dedos04 1528340804 0.08 0.03 0.01 3/653 167071
dedos04 1528340809 0.07 0.03 0.01 3/653 167285
dedos04 1528340814 0.15 0.05 0.01 2/651 167491
dedos04 1528340819 0.22 0.06 0.02 3/655 167709
dedos04 1528340825 0.28 0.08 0.02 3/656 167927
dedos04 1528340830 0.34 0.09 0.03 3/658 168104
dedos04 1528340835 0.39 0.11 0.04 3/656 168351
dedos04 1528340840 0.44 0.12 0.04 1/616 168607
dedos04 1528340846 0.40 0.12 0.04 1/616 168819
dedos04 1528340851 0.50 0.15 0.05 2/618 169039
dedos04 1528340857 0.46 0.15 0.05 2/619 169253
