# Generated by DoSarray v0.2 on 2018-06-06 23:07
# machine_name sequence : ['dedos01', 'dedos02', 'dedos03', 'dedos04', 'dedos05', 'dedos06', 'dedos07', 'dedos08']
# time, (min, avg, max)+
0 0.0208468212071 0.0208468212071 0.0208468212071 0.0445935124559 0.0445935124559 0.0445935124559 0.0231304331103 0.0231304331103 0.0231304331103 0.0222770683445 0.0222770683445 0.0222770683445 0.0220063066955 0.0220063066955 0.0220063066955 0.0225755208343 0.0225755208343 0.0225755208343 0.022054811311 0.022054811311 0.022054811311 0.0377935548625 0.0377935548625 0.0377935548625 
5 0.0208452997324 0.0208452997324 0.0208452997324 0.0446758546702 0.0446758546702 0.0446758546702 0.0231622623624 0.0231622623624 0.0231622623624 0.0223807112055 0.0223807112055 0.0223807112055 0.0222557068388 0.0222557068388 0.0222557068388 0.0226538463551 0.0226538463551 0.0226538463551 0.0221004555539 0.0221004555539 0.0221004555539 0.0377790095637 0.0377790095637 0.0377790095637 
10 0.0208591755822 0.0208591755822 0.0208591755822 0.0453938690409 0.0453938690409 0.0453938690409 0.0238073068034 0.0238073068034 0.0238073068034 0.0230877100989 0.0230877100989 0.0230877100989 0.0229403704828 0.0229403704828 0.0229403704828 0.023306437311 0.023306437311 0.023306437311 0.0221055068501 0.0221055068501 0.0221055068501 0.0377690286893 0.0377690286893 0.0377690286893 
15 0.0210664613041 0.0210664613041 0.0210664613041 0.0454076840318 0.0454076840318 0.0454076840318 0.0238522207385 0.0238522207385 0.0238522207385 0.0230919702283 0.0230919702283 0.0230919702283 0.0229316067881 0.0229316067881 0.0229316067881 0.0233210434688 0.0233210434688 0.0233210434688 0.0221072717608 0.0221072717608 0.0221072717608 0.0377174811243 0.0377174811243 0.0377174811243 
20 0.0210715734593 0.0210715734593 0.0210715734593 0.0454011112608 0.0454011112608 0.0454011112608 0.0238510035587 0.0238510035587 0.0238510035587 0.023093735139 0.023093735139 0.023093735139 0.0229607582446 0.0229607582446 0.0229607582446 0.0233269467909 0.0233269467909 0.0233269467909 0.0220913875643 0.0220913875643 0.0220913875643 0.0377567960322 0.0377567960322 0.0377567960322 
25 0.021079972 0.021079972 0.021079972 0.0454092663656 0.0454092663656 0.0454092663656 0.023816861665 0.023816861665 0.023816861665 0.0230998210381 0.0230998210381 0.0230998210381 0.0229480995746 0.0229480995746 0.0229480995746 0.0233422832565 0.0233422832565 0.0233422832565 0.0221019161697 0.0221019161697 0.0221019161697 0.0377827828212 0.0377827828212 0.0377827828212 
30 0.0210813717568 0.0210813717568 0.0210813717568 0.0454297149864 0.0454297149864 0.0454297149864 0.0238416921331 0.0238416921331 0.0238416921331 0.0231158269526 0.0231158269526 0.0231158269526 0.0229667224257 0.0229667224257 0.0229667224257 0.0232842846385 0.0232842846385 0.0232842846385 0.0220852408062 0.0220852408062 0.0220852408062 0.0377752971653 0.0377752971653 0.0377752971653 
35 0.0211020029546 0.0211020029546 0.0211020029546 0.0454796193587 0.0454796193587 0.0454796193587 0.0238732170902 0.0238732170902 0.0238732170902 0.0231429700624 0.0231429700624 0.0231429700624 0.0229492558954 0.0229492558954 0.0229492558954 0.0232907356915 0.0232907356915 0.0232907356915 0.0220941870779 0.0220941870779 0.0220941870779 0.0377819307953 0.0377819307953 0.0377819307953 
40 0.0211351711044 0.0211351711044 0.0211351711044 0.0456642046771 0.0456642046771 0.0456642046771 0.0238518555845 0.0238518555845 0.0238518555845 0.0230684177989 0.0230684177989 0.0230684177989 0.0229319719421 0.0229319719421 0.0229319719421 0.0233297463044 0.0233297463044 0.0233297463044 0.0220807372409 0.0220807372409 0.0220807372409 0.0377631253672 0.0377631253672 0.0377631253672 
45 0.0210827106546 0.0210827106546 0.0210827106546 0.0454616050975 0.0454616050975 0.0454616050975 0.0238236170129 0.0238236170129 0.0238236170129 0.0231237994803 0.0231237994803 0.0231237994803 0.0229662355537 0.0229662355537 0.0229662355537 0.0233036377975 0.0233036377975 0.0233036377975 0.0221045939652 0.0221045939652 0.0221045939652 0.0377550311215 0.0377550311215 0.0377550311215 
50 0.0210712691643 0.0210712691643 0.0210712691643 0.0445430603528 0.0445430603528 0.0445430603528 0.0229981256648 0.0229981256648 0.0229981256648 0.0222306937937 0.0222306937937 0.0222306937937 0.0220962562835 0.0220962562835 0.0220962562835 0.0225275030907 0.0225275030907 0.0225275030907 0.0220895009356 0.0220895009356 0.0220895009356 0.0377622124823 0.0377622124823 0.0377622124823 
55 0.0209516812479 0.0209516812479 0.0209516812479 0.0445202382313 0.0445202382313 0.0445202382313 0.0229997688576 0.0229997688576 0.0229997688576 0.0222488297729 0.0222488297729 0.0222488297729 0.0220357015879 0.0220357015879 0.0220357015879 0.0224693218957 0.0224693218957 0.0224693218957 0.0221310676261 0.0221310676261 0.0221310676261 0.0378081001612 0.0378081001612 0.0378081001612 
60 0.0209413960785 0.0209413960785 0.0209413960785 0.0445177430127 0.0445177430127 0.0445177430127 0.023016079067 0.023016079067 0.023016079067 0.0222356233719 0.0222356233719 0.0222356233719 0.0220825021517 0.0220825021517 0.0220825021517 0.0224878230289 0.0224878230289 0.0224878230289 0.0220851190883 0.0220851190883 0.0220851190883 0.0377428593233 0.0377428593233 0.0377428593233 
65 0.0209513769529 0.0209513769529 0.0209513769529 0.0445117179726 0.0445117179726 0.0445117179726 0.0230149227462 0.0230149227462 0.0230149227462 0.0222426221559 0.0222426221559 0.0222426221559 0.0220919352952 0.0220919352952 0.0220919352952 0.0224790593342 0.0224790593342 0.0224790593342 0.0220971083094 0.0220971083094 0.0220971083094 0.0377692721253 0.0377692721253 0.0377692721253 
