dedos01 1529531321 0.02 0.03 0.02 1/409 131184
dedos01 1529531327 0.01 0.03 0.02 3/413 131356
dedos01 1529531332 0.01 0.03 0.02 2/409 131539
dedos01 1529531337 0.24 0.08 0.03 2/415 131705
dedos01 1529531343 0.22 0.08 0.03 2/415 131893
dedos01 1529531348 0.21 0.07 0.03 1/413 132074
dedos01 1529531353 0.19 0.07 0.03 4/420 132186
dedos01 1529531358 0.17 0.07 0.03 3/418 132397
dedos01 1529531364 0.16 0.07 0.03 3/418 132569
dedos01 1529531369 0.15 0.07 0.03 3/418 132768
dedos01 1529531374 0.13 0.07 0.03 3/425 132902
dedos01 1529531379 0.12 0.07 0.03 3/417 133141
dedos01 1529531385 0.11 0.06 0.03 4/415 133320
dedos01 1529531390 0.10 0.06 0.03 3/422 133462
