# Generated by DoSarray v0.2 on 2018-06-20 17:49
# machine_name sequence : ['dedos01', 'dedos02', 'dedos03', 'dedos04', 'dedos05', 'dedos06', 'dedos07', 'dedos08']
# time, (min, avg, max)+
0 0.02 0.02 0.02 0.07 0.07 0.07 0.08 0.08 0.08 0.07 0.07 0.07 0.2 0.2 0.2 0.09 0.09 0.09 0.05 0.05 0.05 0.03 0.03 0.03 
5 0.01 0.01 0.01 0.07 0.07 0.07 0.07 0.07 0.07 0.07 0.07 0.07 0.18 0.18 0.18 0.08 0.08 0.08 0.05 0.05 0.05 0.03 0.03 0.03 
10 0.01 0.01 0.01 0.06 0.06 0.06 0.07 0.07 0.07 0.06 0.06 0.06 0.17 0.17 0.17 0.07 0.07 0.07 0.04 0.04 0.04 0.03 0.03 0.03 
15 0.24 0.24 0.24 0.06 0.06 0.06 0.06 0.06 0.06 0.37 0.37 0.37 0.15 0.15 0.15 0.07 0.07 0.07 0.04 0.04 0.04 0.02 0.02 0.02 
20 0.22 0.22 0.22 0.05 0.05 0.05 0.06 0.06 0.06 0.34 0.34 0.34 0.14 0.14 0.14 0.3 0.3 0.3 0.04 0.04 0.04 0.02 0.02 0.02 
25 0.21 0.21 0.21 0.36 0.36 0.36 0.05 0.05 0.05 0.31 0.31 0.31 0.13 0.13 0.13 0.59 0.59 0.59 0.03 0.03 0.03 0.02 0.02 0.02 
30 0.19 0.19 0.19 0.33 0.33 0.33 0.05 0.05 0.05 0.28 0.28 0.28 0.12 0.12 0.12 0.55 0.55 0.55 0.03 0.03 0.03 0.02 0.02 0.02 
35 0.17 0.17 0.17 0.3 0.3 0.3 0.04 0.04 0.04 0.26 0.26 0.26 0.11 0.11 0.11 0.5 0.5 0.5 0.03 0.03 0.03 0.02 0.02 0.02 
40 0.16 0.16 0.16 0.28 0.28 0.28 0.04 0.04 0.04 0.24 0.24 0.24 0.1 0.1 0.1 0.46 0.46 0.46 0.02 0.02 0.02 0.17 0.17 0.17 
45 0.15 0.15 0.15 0.26 0.26 0.26 0.04 0.04 0.04 0.22 0.22 0.22 0.09 0.09 0.09 0.43 0.43 0.43 0.02 0.02 0.02 0.48 0.48 0.48 
50 0.13 0.13 0.13 0.23 0.23 0.23 0.03 0.03 0.03 0.2 0.2 0.2 0.08 0.08 0.08 0.39 0.39 0.39 0.02 0.02 0.02 0.44 0.44 0.44 
55 0.12 0.12 0.12 0.3 0.3 0.3 0.42 0.42 0.42 0.19 0.19 0.19 0.08 0.08 0.08 0.36 0.36 0.36 0.02 0.02 0.02 0.41 0.41 0.41 
60 0.11 0.11 0.11 0.27 0.27 0.27 0.39 0.39 0.39 0.17 0.17 0.17 0.07 0.07 0.07 0.33 0.33 0.33 0.17 0.17 0.17 0.37 0.37 0.37 
65 0.1 0.1 0.1 0.25 0.25 0.25 0.36 0.36 0.36 0.16 0.16 0.16 0.07 0.07 0.07 0.3 0.3 0.3 0.16 0.16 0.16 0.34 0.34 0.34 
