# Generated by DoSarray v0.2 on 2018-06-09 18:39
0 0 0.0
0 1 0.0
0 2 0.0
0 3 0.0
0 4 3.0
0 5 45.0
0 6 35.0
0 7 15.0
0 8 2.0
0 9 0.0
0 10 0.0
1 0 0.0
1 1 0.0
1 2 0.0
1 3 0.0
1 4 0.0
1 5 2.0
1 6 28.000000000000004
1 7 34.0
1 8 28.000000000000004
1 9 9.0
1 10 0.0
2 0 0.0
2 1 0.0
2 2 0.0
2 3 0.0
2 4 0.0
2 5 2.0
2 6 23.0
2 7 38.0
2 8 23.0
2 9 11.0
2 10 0.0
3 0 0.0
3 1 0.0
3 2 0.0
3 3 0.0
3 4 0.0
3 5 3.0
3 6 23.0
3 7 42.0
3 8 20.0
3 9 11.0
3 10 0.0
4 0 0.0
4 1 0.0
4 2 0.0
4 3 0.0
4 4 0.0
4 5 2.0
4 6 11.0
4 7 42.0
4 8 25.0
4 9 15.0
4 10 0.0
5 0 0.0
5 1 0.0
5 2 0.0
5 3 0.0
5 4 0.0
5 5 9.0
5 6 28.999999999999996
5 7 28.999999999999996
5 8 22.0
5 9 11.0
5 10 0.0
6 0 0.0
6 1 0.0
6 2 0.0
6 3 0.0
6 4 0.0
6 5 2.0
6 6 17.0
6 7 28.000000000000004
6 8 25.0
6 9 26.0
6 10 0.0
7 0 0.0
7 1 0.0
7 2 0.0
7 3 0.0
7 4 0.0
7 5 5.0
7 6 12.0
7 7 35.0
7 8 28.000000000000004
7 9 18.0
7 10 0.0
8 0 0.0
8 1 0.0
8 2 0.0
8 3 0.0
8 4 0.0
8 5 5.0
8 6 17.0
8 7 42.0
8 8 17.0
8 9 12.0
8 10 0.0
9 0 0.0
9 1 0.0
9 2 0.0
9 3 0.0
9 4 0.0
9 5 3.0
9 6 17.0
9 7 35.0
9 8 28.000000000000004
9 9 14.000000000000002
9 10 2.0
10 0 0.0
10 1 0.0
10 2 0.0
10 3 0.0
10 4 3.0
10 5 5.0
10 6 12.0
10 7 8.0
10 8 8.0
10 9 8.0
10 10 2.0
28 0 0.0
28 1 0.0
28 2 0.0
28 3 0.0
28 4 0.0
28 5 0.0
28 6 0.0
28 7 2.0
28 8 0.0
28 9 0.0
28 10 0.0
29 0 0.0
29 1 0.0
29 2 0.0
29 3 0.0
29 4 0.0
29 5 0.0
29 6 2.0
29 7 0.0
29 8 0.0
29 9 0.0
29 10 0.0
30 0 0.0
30 1 0.0
30 2 0.0
30 3 0.0
30 4 0.0
30 5 6.0
30 6 5.0
30 7 14.000000000000002
30 8 23.0
30 9 5.0
30 10 2.0
31 0 0.0
31 1 0.0
31 2 0.0
31 3 0.0
31 4 0.0
31 5 6.0
31 6 22.0
31 7 38.0
31 8 25.0
31 9 9.0
31 10 0.0
32 0 0.0
32 1 0.0
32 2 0.0
32 3 0.0
32 4 0.0
32 5 6.0
32 6 17.0
32 7 38.0
32 8 28.999999999999996
32 9 8.0
32 10 0.0
33 0 0.0
33 1 0.0
33 2 0.0
33 3 0.0
33 4 0.0
33 5 0.0
33 6 26.0
33 7 35.0
33 8 23.0
33 9 15.0
33 10 0.0
34 0 0.0
34 1 0.0
34 2 0.0
34 3 0.0
34 4 0.0
34 5 0.0
34 6 18.0
34 7 43.0
34 8 34.0
34 9 3.0
34 10 0.0
35 0 0.0
35 1 0.0
35 2 0.0
35 3 0.0
35 4 0.0
35 5 3.0
35 6 20.0
35 7 40.0
35 8 28.000000000000004
35 9 9.0
35 10 0.0
36 0 0.0
36 1 0.0
36 2 0.0
36 3 0.0
36 4 0.0
36 5 5.0
36 6 17.0
36 7 40.0
36 8 26.0
36 9 11.0
36 10 0.0
37 0 0.0
37 1 0.0
37 2 0.0
37 3 0.0
37 4 0.0
37 5 6.0
37 6 20.0
37 7 45.0
37 8 22.0
37 9 8.0
37 10 0.0
38 0 0.0
38 1 0.0
38 2 0.0
38 3 0.0
38 4 2.0
38 5 18.0
38 6 26.0
38 7 32.0
38 8 15.0
38 9 5.0
38 10 0.0
39 0 0.0
39 1 0.0
39 2 0.0
39 3 0.0
39 4 0.0
39 5 5.0
39 6 9.0
39 7 38.0
39 8 28.999999999999996
39 9 12.0
39 10 3.0
40 0 0.0
40 1 0.0
40 2 0.0
40 3 0.0
40 4 0.0
40 5 3.0
40 6 17.0
40 7 37.0
40 8 26.0
40 9 12.0
40 10 0.0
41 0 0.0
41 1 0.0
41 2 0.0
41 3 0.0
41 4 0.0
41 5 2.0
41 6 17.0
41 7 25.0
41 8 37.0
41 9 14.000000000000002
41 10 2.0
42 0 0.0
42 1 0.0
42 2 0.0
42 3 0.0
42 4 0.0
42 5 0.0
42 6 22.0
42 7 38.0
42 8 25.0
42 9 11.0
42 10 2.0
43 0 0.0
43 1 0.0
43 2 0.0
43 3 0.0
43 4 0.0
43 5 11.0
43 6 23.0
43 7 32.0
43 8 9.0
43 9 12.0
43 10 2.0
44 0 0.0
44 1 0.0
44 2 0.0
44 3 0.0
44 4 0.0
44 5 0.0
44 6 6.0
44 7 40.0
44 8 31.0
44 9 12.0
44 10 2.0
45 0 0.0
45 1 0.0
45 2 0.0
45 3 0.0
45 4 0.0
45 5 0.0
45 6 18.0
45 7 34.0
45 8 28.999999999999996
45 9 11.0
45 10 2.0
46 0 0.0
46 1 0.0
46 2 0.0
46 3 0.0
46 4 0.0
46 5 2.0
46 6 15.0
46 7 28.999999999999996
46 8 23.0
46 9 20.0
46 10 0.0
47 0 0.0
47 1 0.0
47 2 0.0
47 3 0.0
47 4 0.0
47 5 3.0
47 6 12.0
47 7 37.0
47 8 17.0
47 9 12.0
47 10 0.0
48 0 0.0
48 1 0.0
48 2 0.0
48 3 0.0
48 4 0.0
48 5 3.0
48 6 8.0
48 7 37.0
48 8 20.0
48 9 18.0
48 10 0.0
49 0 0.0
49 1 0.0
49 2 0.0
49 3 0.0
49 4 0.0
49 5 0.0
49 6 14.000000000000002
49 7 28.999999999999996
49 8 32.0
49 9 11.0
49 10 3.0
50 0 0.0
50 1 0.0
50 2 0.0
50 3 0.0
50 4 0.0
50 5 0.0
50 6 14.000000000000002
50 7 43.0
50 8 11.0
50 9 17.0
50 10 0.0
51 0 0.0
51 1 0.0
51 2 0.0
51 3 0.0
51 4 0.0
51 5 2.0
51 6 18.0
51 7 23.0
51 8 26.0
51 9 12.0
51 10 2.0
52 0 0.0
52 1 0.0
52 2 0.0
52 3 0.0
52 4 0.0
52 5 0.0
52 6 18.0
52 7 34.0
52 8 14.000000000000002
52 9 17.0
52 10 2.0
53 0 0.0
53 1 0.0
53 2 0.0
53 3 0.0
53 4 0.0
53 5 2.0
53 6 25.0
53 7 22.0
53 8 17.0
53 9 23.0
53 10 2.0
54 0 0.0
54 1 0.0
54 2 0.0
54 3 0.0
54 4 0.0
54 5 2.0
54 6 14.000000000000002
54 7 35.0
54 8 23.0
54 9 6.0
54 10 0.0
55 0 0.0
55 1 0.0
55 2 0.0
55 3 0.0
55 4 0.0
55 5 2.0
55 6 17.0
55 7 26.0
55 8 20.0
55 9 14.000000000000002
55 10 2.0
56 0 0.0
56 1 0.0
56 2 0.0
56 3 0.0
56 4 0.0
56 5 2.0
56 6 20.0
56 7 22.0
56 8 25.0
56 9 14.000000000000002
56 10 0.0
57 0 0.0
57 1 0.0
57 2 0.0
57 3 0.0
57 4 0.0
57 5 0.0
57 6 15.0
57 7 28.000000000000004
57 8 25.0
57 9 14.000000000000002
57 10 2.0
58 0 0.0
58 1 0.0
58 2 0.0
58 3 0.0
58 4 0.0
58 5 3.0
58 6 8.0
58 7 35.0
58 8 23.0
58 9 15.0
58 10 3.0
59 0 0.0
59 1 0.0
59 2 0.0
59 3 0.0
59 4 0.0
59 5 0.0
59 6 20.0
59 7 37.0
59 8 17.0
59 9 9.0
59 10 3.0
60 0 0.0
60 1 0.0
60 2 0.0
60 3 0.0
60 4 0.0
60 5 2.0
60 6 11.0
60 7 42.0
60 8 25.0
60 9 5.0
60 10 0.0
61 0 0.0
61 1 0.0
61 2 0.0
61 3 0.0
61 4 0.0
61 5 8.0
61 6 8.0
61 7 26.0
61 8 35.0
61 9 8.0
61 10 0.0
62 0 0.0
62 1 0.0
62 2 0.0
62 3 0.0
62 4 0.0
62 5 8.0
62 6 15.0
62 7 25.0
62 8 22.0
62 9 12.0
62 10 2.0
63 0 0.0
63 1 0.0
63 2 0.0
63 3 0.0
63 4 0.0
63 5 3.0
63 6 12.0
63 7 31.0
63 8 17.0
63 9 15.0
63 10 2.0
