PING 192.168.0.2:8016 (http://192.168.0.2):
connected to 192.168.0.2:8016 (248 bytes), seq=0 time=0.60 ms 200 OK
connected to 192.168.0.2:8016 (248 bytes), seq=1 time=0.79 ms 200 OK
connected to 192.168.0.2:8016 (248 bytes), seq=2 time=0.94 ms 200 OK
connected to 192.168.0.2:8016 (248 bytes), seq=3 time=0.81 ms 200 OK
connected to 192.168.0.2:8016 (248 bytes), seq=4 time=0.78 ms 200 OK
connected to 192.168.0.2:8016 (248 bytes), seq=5 time=0.71 ms 200 OK
connected to 192.168.0.2:8016 (248 bytes), seq=6 time=0.84 ms 200 OK
connected to 192.168.0.2:8016 (248 bytes), seq=7 time=0.79 ms 200 OK
connected to 192.168.0.2:8016 (248 bytes), seq=8 time=0.79 ms 200 OK
connected to 192.168.0.2:8016 (248 bytes), seq=9 time=0.79 ms 200 OK
timeout while receiving reply-headers from host
connect time out
connect time out
timeout while receiving reply-headers from host
timeout while receiving reply-headers from host
timeout while receiving reply-headers from host
timeout while receiving reply-headers from host
timeout while receiving reply-headers from host
timeout while receiving reply-headers from host
timeout while receiving reply-headers from host
connect time out
timeout while receiving reply-headers from host
connect time out
connect time out
connect time out
connect time out
connect time out
connect time out
connected to 192.168.0.2:8016 (248 bytes), seq=28 time=0.70 ms 200 OK
connected to 192.168.0.2:8016 (248 bytes), seq=29 time=0.68 ms 200 OK
connected to 192.168.0.2:8016 (248 bytes), seq=30 time=0.60 ms 200 OK
connected to 192.168.0.2:8016 (248 bytes), seq=31 time=0.59 ms 200 OK
connected to 192.168.0.2:8016 (248 bytes), seq=32 time=0.73 ms 200 OK
connected to 192.168.0.2:8016 (248 bytes), seq=33 time=0.61 ms 200 OK
connected to 192.168.0.2:8016 (248 bytes), seq=34 time=0.70 ms 200 OK
connected to 192.168.0.2:8016 (248 bytes), seq=35 time=0.64 ms 200 OK
connected to 192.168.0.2:8016 (248 bytes), seq=36 time=0.66 ms 200 OK
connected to 192.168.0.2:8016 (248 bytes), seq=37 time=0.77 ms 200 OK
connected to 192.168.0.2:8016 (248 bytes), seq=38 time=0.96 ms 200 OK
connected to 192.168.0.2:8016 (248 bytes), seq=39 time=0.85 ms 200 OK
connected to 192.168.0.2:8016 (248 bytes), seq=40 time=0.82 ms 200 OK
connected to 192.168.0.2:8016 (248 bytes), seq=41 time=0.88 ms 200 OK
connected to 192.168.0.2:8016 (248 bytes), seq=42 time=0.85 ms 200 OK
connected to 192.168.0.2:8016 (248 bytes), seq=43 time=0.93 ms 200 OK
connected to 192.168.0.2:8016 (248 bytes), seq=44 time=0.83 ms 200 OK
connected to 192.168.0.2:8016 (248 bytes), seq=45 time=0.96 ms 200 OK
connected to 192.168.0.2:8016 (248 bytes), seq=46 time=0.98 ms 200 OK
connected to 192.168.0.2:8016 (248 bytes), seq=47 time=0.80 ms 200 OK
connected to 192.168.0.2:8016 (248 bytes), seq=48 time=0.78 ms 200 OK
connected to 192.168.0.2:8016 (248 bytes), seq=49 time=0.86 ms 200 OK
connected to 192.168.0.2:8016 (248 bytes), seq=50 time=0.88 ms 200 OK
connected to 192.168.0.2:8016 (248 bytes), seq=51 time=0.92 ms 200 OK
connected to 192.168.0.2:8016 (248 bytes), seq=52 time=0.79 ms 200 OK
connected to 192.168.0.2:8016 (248 bytes), seq=53 time=0.93 ms 200 OK
connected to 192.168.0.2:8016 (248 bytes), seq=54 time=0.82 ms 200 OK
connected to 192.168.0.2:8016 (248 bytes), seq=55 time=0.91 ms 200 OK
connected to 192.168.0.2:8016 (248 bytes), seq=56 time=0.96 ms 200 OK
connected to 192.168.0.2:8016 (248 bytes), seq=57 time=0.91 ms 200 OK
connected to 192.168.0.2:8016 (248 bytes), seq=58 time=0.77 ms 200 OK
connected to 192.168.0.2:8016 (248 bytes), seq=59 time=0.83 ms 200 OK
connected to 192.168.0.2:8016 (248 bytes), seq=60 time=0.82 ms 200 OK
connected to 192.168.0.2:8016 (248 bytes), seq=61 time=0.84 ms 200 OK
connected to 192.168.0.2:8016 (248 bytes), seq=62 time=0.69 ms 200 OK
