Inter-|   Receive                                                |  Transmit
 face |bytes    packets errs drop fifo frame compressed multicast|bytes    packets errs drop fifo colls carrier compressed
   em1: 5869488684152 9888991360    0    0    0     0          0     48678 6431822683130 9891590227    0    0    0     0       0          0
    lo:  127570     667    0    0    0     0          0         0   127570     667    0    0    0     0       0          0
vethee25d29: 2095044   26645    0    0    0     0          0         0  2402163   20821    0    0    0     0       0          0
veth7bd2cdb: 2114266   26882    0    0    0     0          0         0  2428988   21046    0    0    0     0       0          0
vethdb02192: 2132406   27172    0    0    0     0          0         0  2443325   21172    0    0    0     0       0          0
vethb915b96: 2115462   26903    0    0    0     0          0         0  2433381   21077    0    0    0     0       0          0
   em4:       0       0    0    0    0     0          0         0        0       0    0    0    0     0       0          0
vethb3d5a39: 106519440 1237709    0    0    0     0          0         0 148727209  816875    0    0    0     0       0          0
vetheb66d86: 2084112   26509    0    0    0     0          0         0  2378974   20612    0    0    0     0       0          0
docker_bridge: 893014615 8508224    0    0    0     0          0         0 628600297 6054524    0    0    0     0       0          0
veth419517c: 2120506   27018    0    0    0     0          0         0  2436257   21117    0    0    0     0       0          0
   em3: 27656681917 446131883    0    0    0     0          0     47472 11206565477 14125363    0    0    0     0       0          0
vethfadc82b: 2098668   26692    0    0    0     0          0         0  2408777   20865    0    0    0     0       0          0
veth2d04129: 2100702   26693    0    0    0     0          0         0  2401096   20804    0    0    0     0       0          0
veth5c5e650: 2131784   27184    0    0    0     0          0         0  2452717   21250    0    0    0     0       0          0
docker0:       0       0    0    0    0     0          0         0        0       0    0    0    0     0       0          0
   em2:       0       0    0    0    0     0          0         0        0       0    0    0    0     0       0          0
Inter-|   Receive                                                |  Transmit
 face |bytes    packets errs drop fifo frame compressed multicast|bytes    packets errs drop fifo colls carrier compressed
   em1: 5869488718505 9888991631    0    0    0     0          0     48678 6431822706775 9891590513    0    0    0     0       0          0
    lo:  127570     667    0    0    0     0          0         0   127570     667    0    0    0     0       0          0
vethee25d29: 2097238   26673    0    0    0     0          0         0  2405466   20847    0    0    0     0       0          0
veth7bd2cdb: 2116460   26910    0    0    0     0          0         0  2432292   21072    0    0    0     0       0          0
vethdb02192: 2134600   27200    0    0    0     0          0         0  2446629   21198    0    0    0     0       0          0
vethb915b96: 2117656   26931    0    0    0     0          0         0  2436684   21103    0    0    0     0       0          0
   em4:       0       0    0    0    0     0          0         0        0       0    0    0    0     0       0          0
vethb3d5a39: 106519440 1237709    0    0    0     0          0         0 148727209  816875    0    0    0     0       0          0
vetheb66d86: 2086306   26537    0    0    0     0          0         0  2382277   20638    0    0    0     0       0          0
docker_bridge: 893030677 8508473    0    0    0     0          0         0 628630029 6054758    0    0    0     0       0          0
veth419517c: 2122700   27046    0    0    0     0          0         0  2439562   21143    0    0    0     0       0          0
   em3: 27656709682 446132163    0    0    0     0          0     47472 11206581052 14125434    0    0    0     0       0          0
vethfadc82b: 2100796   26719    0    0    0     0          0         0  2412080   20891    0    0    0     0       0          0
veth2d04129: 2102830   26720    0    0    0     0          0         0  2404399   20830    0    0    0     0       0          0
veth5c5e650: 2133912   27211    0    0    0     0          0         0  2456021   21276    0    0    0     0       0          0
docker0:       0       0    0    0    0     0          0         0        0       0    0    0    0     0       0          0
   em2:       0       0    0    0    0     0          0         0        0       0    0    0    0     0       0          0
Inter-|   Receive                                                |  Transmit
 face |bytes    packets errs drop fifo frame compressed multicast|bytes    packets errs drop fifo colls carrier compressed
   em1: 5869488808609 9888992720    0    0    0     0          0     48678 6431822868244 9891591873    0    0    0     0       0          0
    lo:  127570     667    0    0    0     0          0         0   127570     667    0    0    0     0       0          0
vethee25d29: 2099456   26701    0    0    0     0          0         0  2408727   20872    0    0    0     0       0          0
veth7bd2cdb: 2118546   26936    0    0    0     0          0         0  2435553   21097    0    0    0     0       0          0
vethdb02192: 2136818   27228    0    0    0     0          0         0  2449893   21223    0    0    0     0       0          0
vethb915b96: 2119742   26957    0    0    0     0          0         0  2439946   21128    0    0    0     0       0          0
   em4:       0       0    0    0    0     0          0         0        0       0    0    0    0     0       0          0
vethb3d5a39: 106657754 1238787    0    0    0     0          0         0 148783509  817697    0    0    0     0       0          0
vetheb66d86: 2088326   26562    0    0    0     0          0         0  2385540   20663    0    0    0     0       0          0
docker_bridge: 893169709 8509791    0    0    0     0          0         0 628715688 6055805    0    0    0     0       0          0
veth419517c: 2124786   27072    0    0    0     0          0         0  2442824   21168    0    0    0     0       0          0
   em3: 27656738569 446132467    0    0    0     0          0     47472 11206604489 14125506    0    0    0     0       0          0
vethfadc82b: 2102948   26746    0    0    0     0          0         0  2415341   20916    0    0    0     0       0          0
veth2d04129: 2104982   26747    0    0    0     0          0         0  2407661   20855    0    0    0     0       0          0
veth5c5e650: 2136064   27238    0    0    0     0          0         0  2459284   21301    0    0    0     0       0          0
docker0:       0       0    0    0    0     0          0         0        0       0    0    0    0     0       0          0
   em2:       0       0    0    0    0     0          0         0        0       0    0    0    0     0       0          0
Inter-|   Receive                                                |  Transmit
 face |bytes    packets errs drop fifo frame compressed multicast|bytes    packets errs drop fifo colls carrier compressed
   em1: 5869488901773 9888993863    0    0    0     0          0     48678 6431822950653 9891593036    0    0    0     0       0          0
    lo:  127570     667    0    0    0     0          0         0   127570     667    0    0    0     0       0          0
vethee25d29: 2101674   26729    0    0    0     0          0         0  2411994   20897    0    0    0     0       0          0
veth7bd2cdb: 2120632   26962    0    0    0     0          0         0  2438822   21122    0    0    0     0       0          0
vethdb02192: 2139506   27262    0    0    0     0          0         0  2453812   21253    0    0    0     0       0          0
vethb915b96: 2122364   26990    0    0    0     0          0         0  2443866   21158    0    0    0     0       0          0
   em4:       0       0    0    0    0     0          0         0        0       0    0    0    0     0       0          0
vethb3d5a39: 106715148 1239644    0    0    0     0          0         0 148840047  818554    0    0    0     0       0          0
vetheb66d86: 2090412   26588    0    0    0     0          0         0  2388808   20688    0    0    0     0       0          0
docker_bridge: 893232845 8510918    0    0    0     0          0         0 628804895 6056912    0    0    0     0       0          0
veth419517c: 2127210   27102    0    0    0     0          0         0  2446745   21198    0    0    0     0       0          0
   em3: 27656772048 446132800    0    0    0     0          0     47473 11206628300 14125583    0    0    0     0       0          0
vethfadc82b: 2105570   26779    0    0    0     0          0         0  2419260   20946    0    0    0     0       0          0
veth2d04129: 2107068   26773    0    0    0     0          0         0  2410928   20880    0    0    0     0       0          0
veth5c5e650: 2138752   27272    0    0    0     0          0         0  2463203   21331    0    0    0     0       0          0
docker0:       0       0    0    0    0     0          0         0        0       0    0    0    0     0       0          0
   em2:       0       0    0    0    0     0          0         0        0       0    0    0    0     0       0          0
Inter-|   Receive                                                |  Transmit
 face |bytes    packets errs drop fifo frame compressed multicast|bytes    packets errs drop fifo colls carrier compressed
   em1: 5869488997014 9888995035    0    0    0     0          0     48678 6431823035333 9891594228    0    0    0     0       0          0
    lo:  127570     667    0    0    0     0          0         0   127570     667    0    0    0     0       0          0
vethee25d29: 2104230   26761    0    0    0     0          0         0  2415912   20927    0    0    0     0       0          0
veth7bd2cdb: 2123122   26993    0    0    0     0          0         0  2442744   21152    0    0    0     0       0          0
vethdb02192: 2141724   27290    0    0    0     0          0         0  2457080   21278    0    0    0     0       0          0
vethb915b96: 2124648   27019    0    0    0     0          0         0  2447131   21183    0    0    0     0       0          0
   em4:       0       0    0    0    0     0          0         0        0       0    0    0    0     0       0          0
vethb3d5a39: 106774041 1240523    0    0    0     0          0         0 148898061  819433    0    0    0     0       0          0
vetheb66d86: 2093034   26621    0    0    0     0          0         0  2392730   20718    0    0    0     0       0          0
docker_bridge: 893296838 8512062    0    0    0     0          0         0 628894925 6058036    0    0    0     0       0          0
veth419517c: 2129428   27130    0    0    0     0          0         0  2450011   21223    0    0    0     0       0          0
   em3: 27656804157 446133104    0    0    0     0          0     47473 11206653409 14125672    0    0    0     0       0          0
vethfadc82b: 2107656   26805    0    0    0     0          0         0  2422525   20971    0    0    0     0       0          0
veth2d04129: 2109624   26805    0    0    0     0          0         0  2414850   20910    0    0    0     0       0          0
veth5c5e650: 2140838   27298    0    0    0     0          0         0  2466471   21356    0    0    0     0       0          0
docker0:       0       0    0    0    0     0          0         0        0       0    0    0    0     0       0          0
   em2:       0       0    0    0    0     0          0         0        0       0    0    0    0     0       0          0
Inter-|   Receive                                                |  Transmit
 face |bytes    packets errs drop fifo frame compressed multicast|bytes    packets errs drop fifo colls carrier compressed
   em1: 5869489087102 9888996157    0    0    0     0          0     48678 6431823115491 9891595363    0    0    0     0       0          0
    lo:  127570     667    0    0    0     0          0         0   127570     667    0    0    0     0       0          0
vethee25d29: 2106316   26787    0    0    0     0          0         0  2419179   20952    0    0    0     0       0          0
veth7bd2cdb: 2125340   27021    0    0    0     0          0         0  2446011   21177    0    0    0     0       0          0
vethdb02192: 2143810   27316    0    0    0     0          0         0  2460348   21303    0    0    0     0       0          0
vethb915b96: 2126734   27045    0    0    0     0          0         0  2450398   21208    0    0    0     0       0          0
   em4:       0       0    0    0    0     0          0         0        0       0    0    0    0     0       0          0
vethb3d5a39: 106831862 1241386    0    0    0     0          0         0 148955019  820296    0    0    0     0       0          0
vetheb66d86: 2095186   26648    0    0    0     0          0         0  2395995   20743    0    0    0     0       0          0
docker_bridge: 893358283 8513163    0    0    0     0          0         0 628981286 6059124    0    0    0     0       0          0
veth419517c: 2131514   27156    0    0    0     0          0         0  2453279   21248    0    0    0     0       0          0
   em3: 27656832948 446133383    0    0    0     0          0     47473 11206681294 14125748    0    0    0     0       0          0
vethfadc82b: 2109742   26831    0    0    0     0          0         0  2425792   20996    0    0    0     0       0          0
veth2d04129: 2111710   26831    0    0    0     0          0         0  2418116   20935    0    0    0     0       0          0
veth5c5e650: 2142990   27325    0    0    0     0          0         0  2469739   21381    0    0    0     0       0          0
docker0:       0       0    0    0    0     0          0         0        0       0    0    0    0     0       0          0
   em2:       0       0    0    0    0     0          0         0        0       0    0    0    0     0       0          0
Inter-|   Receive                                                |  Transmit
 face |bytes    packets errs drop fifo frame compressed multicast|bytes    packets errs drop fifo colls carrier compressed
   em1: 5869489181628 9888997336    0    0    0     0          0     48678 6431823200322 9891596559    0    0    0     0       0          0
    lo:  127570     667    0    0    0     0          0         0   127570     667    0    0    0     0       0          0
vethee25d29: 2108534   26815    0    0    0     0          0         0  2422444   20977    0    0    0     0       0          0
veth7bd2cdb: 2127426   27047    0    0    0     0          0         0  2449277   21202    0    0    0     0       0          0
vethdb02192: 2145896   27342    0    0    0     0          0         0  2463614   21328    0    0    0     0       0          0
vethb915b96: 2128886   27072    0    0    0     0          0         0  2453663   21233    0    0    0     0       0          0
   em4:       0       0    0    0    0     0          0         0        0       0    0    0    0     0       0          0
vethb3d5a39: 106892296 1242288    0    0    0     0          0         0 149014551  821198    0    0    0     0       0          0
vetheb66d86: 2097272   26674    0    0    0     0          0         0  2399260   20768    0    0    0     0       0          0
docker_bridge: 893421951 8514306    0    0    0     0          0         0 629070209 6060251    0    0    0     0       0          0
veth419517c: 2133666   27183    0    0    0     0          0         0  2456544   21273    0    0    0     0       0          0
   em3: 27656865129 446133687    0    0    0     0          0     47473 11206706981 14125839    0    0    0     0       0          0
vethfadc82b: 2111762   26856    0    0    0     0          0         0  2429058   21021    0    0    0     0       0          0
veth2d04129: 2113928   26859    0    0    0     0          0         0  2421383   20960    0    0    0     0       0          0
veth5c5e650: 2145208   27353    0    0    0     0          0         0  2473005   21406    0    0    0     0       0          0
docker0:       0       0    0    0    0     0          0         0        0       0    0    0    0     0       0          0
   em2:       0       0    0    0    0     0          0         0        0       0    0    0    0     0       0          0
Inter-|   Receive                                                |  Transmit
 face |bytes    packets errs drop fifo frame compressed multicast|bytes    packets errs drop fifo colls carrier compressed
   em1: 5869489312783 9888998586    0    0    0     0          0     48678 6431823294777 9891597846    0    0    0     0       0          0
    lo:  127570     667    0    0    0     0          0         0   127570     667    0    0    0     0       0          0
vethee25d29: 2110752   26843    0    0    0     0          0         0  2425709   21002    0    0    0     0       0          0
veth7bd2cdb: 2129512   27073    0    0    0     0          0         0  2452543   21227    0    0    0     0       0          0
vethdb02192: 2148518   27375    0    0    0     0          0         0  2467531   21358    0    0    0     0       0          0
vethb915b96: 2131508   27105    0    0    0     0          0         0  2457581   21263    0    0    0     0       0          0
   em4:       0       0    0    0    0     0          0         0        0       0    0    0    0     0       0          0
vethb3d5a39: 106961342 1243264    0    0    0     0          0         0 149108703  822160    0    0    0     0       0          0
vetheb66d86: 2099424   26701    0    0    0     0          0         0  2402525   20793    0    0    0     0       0          0
docker_bridge: 893495229 8515555    0    0    0     0          0         0 629197015 6061463    0    0    0     0       0          0
veth419517c: 2136156   27214    0    0    0     0          0         0  2460462   21303    0    0    0     0       0          0
   em3: 27656888266 446133918    0    0    0     0          0     47473 11206733888 14125907    0    0    0     0       0          0
vethfadc82b: 2114582   26892    0    0    0     0          0         0  2432977   21051    0    0    0     0       0          0
veth2d04129: 2116080   26886    0    0    0     0          0         0  2424651   20985    0    0    0     0       0          0
veth5c5e650: 2147764   27385    0    0    0     0          0         0  2476923   21436    0    0    0     0       0          0
docker0:       0       0    0    0    0     0          0         0        0       0    0    0    0     0       0          0
   em2:       0       0    0    0    0     0          0         0        0       0    0    0    0     0       0          0
Inter-|   Receive                                                |  Transmit
 face |bytes    packets errs drop fifo frame compressed multicast|bytes    packets errs drop fifo colls carrier compressed
   em1: 5869489412807 9888999820    0    0    0     0          0     48678 6431823398054 9891599141    0    0    0     0       0          0
    lo:  127570     667    0    0    0     0          0         0   127570     667    0    0    0     0       0          0
vethee25d29: 2113350   26876    0    0    0     0          0         0  2429673   21033    0    0    0     0       0          0
veth7bd2cdb: 2132176   27107    0    0    0     0          0         0  2456504   21258    0    0    0     0       0          0
vethdb02192: 2150778   27404    0    0    0     0          0         0  2470839   21384    0    0    0     0       0          0
vethb915b96: 2133768   27134    0    0    0     0          0         0  2460890   21289    0    0    0     0       0          0
   em4:       0       0    0    0    0     0          0         0        0       0    0    0    0     0       0          0
vethb3d5a39: 107038998 1244248    0    0    0     0          0         0 149171258  823099    0    0    0     0       0          0
vetheb66d86: 2102022   26734    0    0    0     0          0         0  2406488   20824    0    0    0     0       0          0
docker_bridge: 893576559 8516809    0    0    0     0          0         0 629291968 6062656    0    0    0     0       0          0
veth419517c: 2138350   27242    0    0    0     0          0         0  2463773   21329    0    0    0     0       0          0
   em3: 27656914694 446134191    0    0    0     0          0     47473 11206758155 14125985    0    0    0     0       0          0
vethfadc82b: 2116644   26918    0    0    0     0          0         0  2436285   21077    0    0    0     0       0          0
veth2d04129: 2118612   26918    0    0    0     0          0         0  2428615   21016    0    0    0     0       0          0
veth5c5e650: 2149826   27411    0    0    0     0          0         0  2480233   21462    0    0    0     0       0          0
docker0:       0       0    0    0    0     0          0         0        0       0    0    0    0     0       0          0
   em2:       0       0    0    0    0     0          0         0        0       0    0    0    0     0       0          0
Inter-|   Receive                                                |  Transmit
 face |bytes    packets errs drop fifo frame compressed multicast|bytes    packets errs drop fifo colls carrier compressed
   em1: 5869489502331 9889000931    0    0    0     0          0     48678 6431823478127 9891600273    0    0    0     0       0          0
    lo:  127570     667    0    0    0     0          0         0   127570     667    0    0    0     0       0          0
vethee25d29: 2115568   26904    0    0    0     0          0         0  2432940   21058    0    0    0     0       0          0
veth7bd2cdb: 2134328   27134    0    0    0     0          0         0  2459772   21283    0    0    0     0       0          0
vethdb02192: 2153062   27433    0    0    0     0          0         0  2474106   21409    0    0    0     0       0          0
vethb915b96: 2135854   27160    0    0    0     0          0         0  2464157   21314    0    0    0     0       0          0
   em4:       0       0    0    0    0     0          0         0        0       0    0    0    0     0       0          0
vethb3d5a39: 107095814 1245096    0    0    0     0          0         0 149227226  823947    0    0    0     0       0          0
vetheb66d86: 2104306   26763    0    0    0     0          0         0  2409755   20849    0    0    0     0       0          0
docker_bridge: 893637625 8517903    0    0    0     0          0         0 629377341 6063729    0    0    0     0       0          0
veth419517c: 2140436   27268    0    0    0     0          0         0  2467041   21354    0    0    0     0       0          0
   em3: 27656946783 446134500    0    0    0     0          0     47473 11206786642 14126068    0    0    0     0       0          0
vethfadc82b: 2118730   26944    0    0    0     0          0         0  2439551   21102    0    0    0     0       0          0
veth2d04129: 2120830   26946    0    0    0     0          0         0  2431883   21041    0    0    0     0       0          0
veth5c5e650: 2151978   27438    0    0    0     0          0         0  2483500   21487    0    0    0     0       0          0
docker0:       0       0    0    0    0     0          0         0        0       0    0    0    0     0       0          0
   em2:       0       0    0    0    0     0          0         0        0       0    0    0    0     0       0          0
Inter-|   Receive                                                |  Transmit
 face |bytes    packets errs drop fifo frame compressed multicast|bytes    packets errs drop fifo colls carrier compressed
   em1: 5869489730745 9889002056    0    0    0     0          0     48678 6431823570236 9891601673    0    0    0     0       0          0
    lo:  127570     667    0    0    0     0          0         0   127570     667    0    0    0     0       0          0
vethee25d29: 2117588   26929    0    0    0     0          0         0  2436205   21083    0    0    0     0       0          0
veth7bd2cdb: 2136480   27161    0    0    0     0          0         0  2463039   21308    0    0    0     0       0          0
vethdb02192: 2155214   27460    0    0    0     0          0         0  2477371   21434    0    0    0     0       0          0
vethb915b96: 2138138   27189    0    0    0     0          0         0  2467423   21339    0    0    0     0       0          0
   em4:       0       0    0    0    0     0          0         0        0       0    0    0    0     0       0          0
vethb3d5a39: 107164122 1246208    0    0    0     0          0         0 149421356  824803    0    0    0     0       0          0
vetheb66d86: 2106458   26790    0    0    0     0          0         0  2413020   20874    0    0    0     0       0          0
docker_bridge: 893706331 8519258    0    0    0     0          0         0 629600798 6064809    0    0    0     0       0          0
veth419517c: 2142654   27296    0    0    0     0          0         0  2470306   21379    0    0    0     0       0          0
   em3: 27656978822 446134827    0    0    0     0          0     47473 11206807219 14126149    0    0    0     0       0          0
vethfadc82b: 2120882   26971    0    0    0     0          0         0  2442817   21127    0    0    0     0       0          0
veth2d04129: 2122982   26973    0    0    0     0          0         0  2435084   21065    0    0    0     0       0          0
veth5c5e650: 2154064   27464    0    0    0     0          0         0  2486767   21512    0    0    0     0       0          0
docker0:       0       0    0    0    0     0          0         0        0       0    0    0    0     0       0          0
   em2:       0       0    0    0    0     0          0         0        0       0    0    0    0     0       0          0
Inter-|   Receive                                                |  Transmit
 face |bytes    packets errs drop fifo frame compressed multicast|bytes    packets errs drop fifo colls carrier compressed
   em1: 5869489767964 9889002348    0    0    0     0          0     48678 6431823595839 9891601985    0    0    0     0       0          0
    lo:  127570     667    0    0    0     0          0         0   127570     667    0    0    0     0       0          0
vethee25d29: 2119674   26955    0    0    0     0          0         0  2439467   21108    0    0    0     0       0          0
veth7bd2cdb: 2138698   27189    0    0    0     0          0         0  2466303   21333    0    0    0     0       0          0
vethdb02192: 2157770   27492    0    0    0     0          0         0  2481289   21464    0    0    0     0       0          0
vethb915b96: 2140760   27222    0    0    0     0          0         0  2471341   21369    0    0    0     0       0          0
   em4:       0       0    0    0    0     0          0         0        0       0    0    0    0     0       0          0
vethb3d5a39: 107164122 1246208    0    0    0     0          0         0 149421356  824803    0    0    0     0       0          0
vetheb66d86: 2108544   26816    0    0    0     0          0         0  2416284   20899    0    0    0     0       0          0
docker_bridge: 893724071 8519528    0    0    0     0          0         0 629633442 6065059    0    0    0     0       0          0
veth419517c: 2145342   27330    0    0    0     0          0         0  2474223   21409    0    0    0     0       0          0
   em3: 27657009661 446135137    0    0    0     0          0     47473 11206822768 14126221    0    0    0     0       0          0
vethfadc82b: 2123438   27003    0    0    0     0          0         0  2446735   21157    0    0    0     0       0          0
veth2d04129: 2125134   27000    0    0    0     0          0         0  2438350   21090    0    0    0     0       0          0
veth5c5e650: 2156620   27496    0    0    0     0          0         0  2490684   21542    0    0    0     0       0          0
docker0:       0       0    0    0    0     0          0         0        0       0    0    0    0     0       0          0
   em2:       0       0    0    0    0     0          0         0        0       0    0    0    0     0       0          0
Inter-|   Receive                                                |  Transmit
 face |bytes    packets errs drop fifo frame compressed multicast|bytes    packets errs drop fifo colls carrier compressed
   em1: 5869489804538 9889002635    0    0    0     0          0     48678 6431823620906 9891602290    0    0    0     0       0          0
    lo:  127570     667    0    0    0     0          0         0   127570     667    0    0    0     0       0          0
vethee25d29: 2122230   26987    0    0    0     0          0         0  2443384   21138    0    0    0     0       0          0
veth7bd2cdb: 2141254   27221    0    0    0     0          0         0  2470221   21363    0    0    0     0       0          0
vethdb02192: 2160054   27521    0    0    0     0          0         0  2484555   21489    0    0    0     0       0          0
vethb915b96: 2142912   27249    0    0    0     0          0         0  2474606   21394    0    0    0     0       0          0
   em4:       0       0    0    0    0     0          0         0        0       0    0    0    0     0       0          0
vethb3d5a39: 107164122 1246208    0    0    0     0          0         0 149421356  824803    0    0    0     0       0          0
vetheb66d86: 2111100   26848    0    0    0     0          0         0  2420202   20929    0    0    0     0       0          0
docker_bridge: 893741373 8519791    0    0    0     0          0         0 629665441 6065304    0    0    0     0       0          0
veth419517c: 2147428   27356    0    0    0     0          0         0  2477489   21434    0    0    0     0       0          0
   em3: 27657036618 446135430    0    0    0     0          0     47473 11206837287 14126282    0    0    0     0       0          0
vethfadc82b: 2125458   27028    0    0    0     0          0         0  2450000   21182    0    0    0     0       0          0
veth2d04129: 2127690   27032    0    0    0     0          0         0  2442269   21120    0    0    0     0       0          0
veth5c5e650: 2158838   27524    0    0    0     0          0         0  2493949   21567    0    0    0     0       0          0
docker0:       0       0    0    0    0     0          0         0        0       0    0    0    0     0       0          0
   em2:       0       0    0    0    0     0          0         0        0       0    0    0    0     0       0          0
Inter-|   Receive                                                |  Transmit
 face |bytes    packets errs drop fifo frame compressed multicast|bytes    packets errs drop fifo colls carrier compressed
   em1: 5869489814988 9889002722    0    0    0     0          0     48678 6431823628823 9891602380    0    0    0     0       0          0
    lo:  127570     667    0    0    0     0          0         0   127570     667    0    0    0     0       0          0
vethee25d29: 2122700   26993    0    0    0     0          0         0  2444037   21143    0    0    0     0       0          0
veth7bd2cdb: 2141658   27226    0    0    0     0          0         0  2470873   21368    0    0    0     0       0          0
vethdb02192: 2160458   27526    0    0    0     0          0         0  2485208   21494    0    0    0     0       0          0
vethb915b96: 2143316   27254    0    0    0     0          0         0  2475259   21399    0    0    0     0       0          0
   em4:       0       0    0    0    0     0          0         0        0       0    0    0    0     0       0          0
vethb3d5a39: 107164122 1246208    0    0    0     0          0         0 149421356  824803    0    0    0     0       0          0
vetheb66d86: 2111504   26853    0    0    0     0          0         0  2420855   20934    0    0    0     0       0          0
docker_bridge: 893744535 8519839    0    0    0     0          0         0 629671316 6065349    0    0    0     0       0          0
veth419517c: 2147898   27362    0    0    0     0          0         0  2478142   21439    0    0    0     0       0          0
   em3: 27657063785 446135702    0    0    0     0          0     47473 11206852608 14126352    0    0    0     0       0          0
vethfadc82b: 2125862   27033    0    0    0     0          0         0  2450653   21187    0    0    0     0       0          0
veth2d04129: 2128094   27037    0    0    0     0          0         0  2442922   21125    0    0    0     0       0          0
veth5c5e650: 2159308   27530    0    0    0     0          0         0  2494601   21572    0    0    0     0       0          0
docker0:       0       0    0    0    0     0          0         0        0       0    0    0    0     0       0          0
   em2:       0       0    0    0    0     0          0         0        0       0    0    0    0     0       0          0
