dedos03 1528582300 MemTotal: 65725704 kB MemFree: 1855700 kB MemAvailable: 64196772 kB
dedos03 1528582305 MemTotal: 65725704 kB MemFree: 1848300 kB MemAvailable: 64189376 kB
dedos03 1528582310 MemTotal: 65725704 kB MemFree: 1738380 kB MemAvailable: 64079392 kB
dedos03 1528582316 MemTotal: 65725704 kB MemFree: 1740992 kB MemAvailable: 64082136 kB
dedos03 1528582321 MemTotal: 65725704 kB MemFree: 1738752 kB MemAvailable: 64079896 kB
dedos03 1528582326 MemTotal: 65725704 kB MemFree: 1739200 kB MemAvailable: 64080412 kB
dedos03 1528582331 MemTotal: 65725704 kB MemFree: 1741496 kB MemAvailable: 64082772 kB
dedos03 1528582337 MemTotal: 65725704 kB MemFree: 1740292 kB MemAvailable: 64081568 kB
dedos03 1528582342 MemTotal: 65725704 kB MemFree: 1739548 kB MemAvailable: 64080832 kB
dedos03 1528582347 MemTotal: 65725704 kB MemFree: 1738680 kB MemAvailable: 64079964 kB
dedos03 1528582353 MemTotal: 65725704 kB MemFree: 1868176 kB MemAvailable: 64209432 kB
dedos03 1528582358 MemTotal: 65725704 kB MemFree: 1872628 kB MemAvailable: 64213916 kB
dedos03 1528582363 MemTotal: 65725704 kB MemFree: 1857296 kB MemAvailable: 64198528 kB
dedos03 1528582368 MemTotal: 65725704 kB MemFree: 1947856 kB MemAvailable: 64288800 kB
