# Generated by DoSarray v0.2 on 2018-06-09 18:12
# machine_name sequence : ['dedos01', 'dedos02', 'dedos03', 'dedos04', 'dedos05', 'dedos06', 'dedos07', 'dedos08']
# time, (min, avg, max)+
0 0.59 0.59 0.59 0.51 0.51 0.51 0.3 0.3 0.3 0.15 0.15 0.15 0.78 0.78 0.78 0.34 0.34 0.34 0.11 0.11 0.11 0.1 0.1 0.1 
5 0.7 0.7 0.7 0.47 0.47 0.47 0.28 0.28 0.28 0.13 0.13 0.13 0.71 0.71 0.71 0.31 0.31 0.31 0.1 0.1 0.1 0.09 0.09 0.09 
10 0.72 0.72 0.72 0.43 0.43 0.43 0.26 0.26 0.26 0.12 0.12 0.12 0.82 0.82 0.82 0.29 0.29 0.29 0.09 0.09 0.09 0.08 0.08 0.08 
15 0.67 0.67 0.67 0.4 0.4 0.4 0.54 0.54 0.54 0.11 0.11 0.11 0.75 0.75 0.75 0.26 0.26 0.26 0.08 0.08 0.08 0.07 0.07 0.07 
20 0.61 0.61 0.61 0.36 0.36 0.36 0.81 0.81 0.81 0.1 0.1 0.1 0.69 0.69 0.69 0.24 0.24 0.24 0.08 0.08 0.08 0.07 0.07 0.07 
25 0.56 0.56 0.56 0.34 0.34 0.34 0.83 0.83 0.83 0.1 0.1 0.1 0.64 0.64 0.64 0.22 0.22 0.22 0.07 0.07 0.07 0.06 0.06 0.06 
30 0.52 0.52 0.52 0.31 0.31 0.31 0.76 0.76 0.76 0.09 0.09 0.09 0.58 0.58 0.58 0.21 0.21 0.21 0.06 0.06 0.06 0.06 0.06 0.06 
35 0.48 0.48 0.48 0.28 0.28 0.28 0.7 0.7 0.7 0.08 0.08 0.08 0.54 0.54 0.54 0.19 0.19 0.19 0.06 0.06 0.06 0.05 0.05 0.05 
40 0.44 0.44 0.44 0.26 0.26 0.26 0.64 0.64 0.64 0.07 0.07 0.07 0.49 0.49 0.49 0.17 0.17 0.17 0.05 0.05 0.05 0.05 0.05 0.05 
45 0.4 0.4 0.4 0.24 0.24 0.24 0.59 0.59 0.59 0.07 0.07 0.07 0.45 0.45 0.45 0.16 0.16 0.16 0.05 0.05 0.05 0.04 0.04 0.04 
50 0.37 0.37 0.37 0.22 0.22 0.22 0.55 0.55 0.55 0.06 0.06 0.06 0.42 0.42 0.42 0.15 0.15 0.15 0.2 0.2 0.2 0.04 0.04 0.04 
55 0.34 0.34 0.34 0.2 0.2 0.2 0.5 0.5 0.5 0.06 0.06 0.06 0.38 0.38 0.38 0.13 0.13 0.13 0.51 0.51 0.51 0.04 0.04 0.04 
60 0.31 0.31 0.31 0.18 0.18 0.18 0.46 0.46 0.46 0.05 0.05 0.05 0.35 0.35 0.35 0.12 0.12 0.12 0.47 0.47 0.47 0.27 0.27 0.27 
65 0.29 0.29 0.29 0.17 0.17 0.17 0.42 0.42 0.42 0.05 0.05 0.05 0.32 0.32 0.32 0.26 0.26 0.26 0.43 0.43 0.43 0.41 0.41 0.41 
