# Generated by DoSarray v0.2 on 2018-06-09 18:12
# machine_name sequence : ['dedos01', 'dedos02', 'dedos03', 'dedos04', 'dedos05', 'dedos06', 'dedos07', 'dedos08']
# time, (min, avg, max)+
0 0 0.0 0 0 0.0 0 0 0.0 0 0 0.0 0 0 0.0 0 0 0.0 0 0 0.0 0 0 0.0 0 
5 2205 2205.0 2205 270 270.0 270 271 271.0 271 275 275.0 275 271 271.0 271 261 261.0 261 293 293.0 293 276 276.0 276 
10 9565 9565.0 9565 1371 1371.0 1371 1340 1340.0 1340 1371 1371.0 1371 1360 1360.0 1360 1360 1360.0 1360 585 585.0 585 588 588.0 588 
15 15740 15740.0 15740 2489 2489.0 2489 2459 2459.0 2459 2522 2522.0 2522 2503 2503.0 2503 2488 2488.0 2488 922 922.0 922 909 909.0 909 
20 22326 22326.0 22326 3624 3624.0 3624 3632 3632.0 3632 3671 3671.0 3671 3675 3675.0 3675 3663 3663.0 3663 1217 1217.0 1217 1215 1215.0 1215 
25 28842 28842.0 28842 4762 4762.0 4762 4766 4766.0 4766 4815 4815.0 4815 4797 4797.0 4797 4769 4769.0 4769 1513 1513.0 1513 1515 1515.0 1515 
30 35258 35258.0 35258 5923 5923.0 5923 5860 5860.0 5860 5963 5963.0 5963 5976 5976.0 5976 5931 5931.0 5931 1801 1801.0 1801 1807 1807.0 1807 
35 42736 42736.0 42736 7395 7395.0 7395 7176 7176.0 7176 7467 7467.0 7467 7226 7226.0 7226 7157 7157.0 7157 2127 2127.0 2127 2140 2140.0 2140 
40 50221 50221.0 50221 8737 8737.0 8737 8432 8432.0 8432 8787 8787.0 8787 8460 8460.0 8460 8394 8394.0 8394 2439 2439.0 2439 2439 2439.0 2439 
45 56692 56692.0 56692 9873 9873.0 9873 9568 9568.0 9568 9923 9923.0 9923 9571 9571.0 9571 9514 9514.0 9514 2731 2731.0 2731 2739 2739.0 2739 
50 64493 64493.0 64493 11018 11018.0 11018 10671 10671.0 10671 11014 11014.0 11014 10696 10696.0 10696 10635 10635.0 10635 3022 3022.0 3022 3026 3026.0 3026 
55 66529 66529.0 66529 11323 11323.0 11323 10953 10953.0 10953 11334 11334.0 11334 10988 10988.0 10988 10931 10931.0 10931 3344 3344.0 3344 3360 3360.0 3360 
60 68924 68924.0 68924 11600 11600.0 11600 11260 11260.0 11260 11599 11599.0 11599 11275 11275.0 11275 11225 11225.0 11225 3660 3660.0 3660 3660 3660.0 3660 
65 69604 69604.0 69604 11698 11698.0 11698 11341 11341.0 11341 11682 11682.0 11682 11362 11362.0 11362 11304 11304.0 11304 3745 3745.0 3745 3748 3748.0 3748 
