# Generated by DoSarray v0.2 on 2018-06-14 16:35
0 100.0
1 100.0
2 100.0
3 100.0
4 100.0
5 100.0
6 100.0
7 100.0
8 100.0
9 100.0
10 68.0
11 31.0
12 31.0
13 31.0
14 31.0
15 31.0
16 31.0
17 31.0
18 31.0
19 31.0
20 31.0
21 31.0
22 31.0
23 31.0
24 31.0
25 31.0
26 31.0
27 31.0
28 31.0
29 31.0
30 31.0
31 31.0
32 31.0
33 31.0
34 31.0
35 31.0
36 31.0
37 31.0
38 31.0
39 31.0
40 31.0
41 31.0
42 31.0
43 31.0
44 31.0
45 31.0
46 31.0
47 31.0
48 31.0
49 31.0
50 31.0
51 31.0
52 72.0
53 86.0
54 86.0
55 86.0
56 86.0
57 86.0
58 86.0
59 86.0
60 86.0
61 86.0
62 86.0
63 86.0
