Inter-|   Receive                                                |  Transmit
 face |bytes    packets errs drop fifo frame compressed multicast|bytes    packets errs drop fifo colls carrier compressed
   em1: 744542355063 753483242    0 83798    0     0          0     67404 289673222664 470570989    0    0    0     0       0          0
    lo: 2015115613 10585773    0    0    0     0          0         0 2015115613 10585773    0    0    0     0       0          0
   em4: 931806880 15483486    0    0    0     0          0      3636   196542    2397    0    0    0     0       0          0
docker_bridge:       0       0    0    0    0     0          0         0      648       8    0    0    0     0       0          0
   em3: 64109105329 633706472    0    7   24     0          0     69682 128946865272 97145993    0    0    0     0       0          0
docker0:       0       0    0    0    0     0          0         0        0       0    0    0    0     0       0          0
   em2:       0       0    0    0    0     0          0         0        0       0    0    0    0     0       0          0
Inter-|   Receive                                                |  Transmit
 face |bytes    packets errs drop fifo frame compressed multicast|bytes    packets errs drop fifo colls carrier compressed
   em1: 744542569321 753485875    0 83798    0     0          0     67404 289673487860 470573292    0    0    0     0       0          0
    lo: 2015120983 10585833    0    0    0     0          0         0 2015120983 10585833    0    0    0     0       0          0
   em4: 931806880 15483486    0    0    0     0          0      3636   196542    2397    0    0    0     0       0          0
docker_bridge:       0       0    0    0    0     0          0         0      648       8    0    0    0     0       0          0
   em3: 64109140216 633706850    0    7   24     0          0     69682 128946877971 97146052    0    0    0     0       0          0
docker0:       0       0    0    0    0     0          0         0        0       0    0    0    0     0       0          0
   em2:       0       0    0    0    0     0          0         0        0       0    0    0    0     0       0          0
Inter-|   Receive                                                |  Transmit
 face |bytes    packets errs drop fifo frame compressed multicast|bytes    packets errs drop fifo colls carrier compressed
   em1: 744543143110 753493280    0 83798    0     0          0     67404 289673988039 470580359    0    0    0     0       0          0
    lo: 2015129169 10585925    0    0    0     0          0         0 2015129169 10585925    0    0    0     0       0          0
   em4: 931806880 15483486    0    0    0     0          0      3636   196542    2397    0    0    0     0       0          0
docker_bridge:       0       0    0    0    0     0          0         0      648       8    0    0    0     0       0          0
   em3: 64109183361 633707347    0    7   24     0          0     69682 128946893122 97146135    0    0    0     0       0          0
docker0:       0       0    0    0    0     0          0         0        0       0    0    0    0     0       0          0
   em2:       0       0    0    0    0     0          0         0        0       0    0    0    0     0       0          0
Inter-|   Receive                                                |  Transmit
 face |bytes    packets errs drop fifo frame compressed multicast|bytes    packets errs drop fifo colls carrier compressed
   em1: 744543230641 753494328    0 83798    0     0          0     67404 289674085676 470581320    0    0    0     0       0          0
    lo: 2015138267 10586029    0    0    0     0          0         0 2015138267 10586029    0    0    0     0       0          0
   em4: 931806880 15483486    0    0    0     0          0      3636   196542    2397    0    0    0     0       0          0
docker_bridge:       0       0    0    0    0     0          0         0      648       8    0    0    0     0       0          0
   em3: 64109222256 633707792    0    7   24     0          0     69682 128946908019 97146211    0    0    0     0       0          0
docker0:       0       0    0    0    0     0          0         0        0       0    0    0    0     0       0          0
   em2:       0       0    0    0    0     0          0         0        0       0    0    0    0     0       0          0
Inter-|   Receive                                                |  Transmit
 face |bytes    packets errs drop fifo frame compressed multicast|bytes    packets errs drop fifo colls carrier compressed
   em1: 744543341266 753495661    0 83798    0     0          0     67404 289674207345 470582534    0    0    0     0       0          0
    lo: 2015144341 10586097    0    0    0     0          0         0 2015144341 10586097    0    0    0     0       0          0
   em4: 931806880 15483486    0    0    0     0          0      3636   196542    2397    0    0    0     0       0          0
docker_bridge:       0       0    0    0    0     0          0         0      648       8    0    0    0     0       0          0
   em3: 64109254185 633708159    0    7   24     0          0     69682 128946921172 97146273    0    0    0     0       0          0
docker0:       0       0    0    0    0     0          0         0        0       0    0    0    0     0       0          0
   em2:       0       0    0    0    0     0          0         0        0       0    0    0    0     0       0          0
Inter-|   Receive                                                |  Transmit
 face |bytes    packets errs drop fifo frame compressed multicast|bytes    packets errs drop fifo colls carrier compressed
   em1: 744543429234 753496736    0 83798    0     0          0     67407 289674304425 470583504    0    0    0     0       0          0
    lo: 2015151823 10586181    0    0    0     0          0         0 2015151823 10586181    0    0    0     0       0          0
   em4: 931806880 15483486    0    0    0     0          0      3636   196542    2397    0    0    0     0       0          0
docker_bridge:       0       0    0    0    0     0          0         0      648       8    0    0    0     0       0          0
   em3: 64109290484 633708550    0    7   24     0          0     69682 128946935217 97146343    0    0    0     0       0          0
docker0:       0       0    0    0    0     0          0         0        0       0    0    0    0     0       0          0
   em2:       0       0    0    0    0     0          0         0        0       0    0    0    0     0       0          0
Inter-|   Receive                                                |  Transmit
 face |bytes    packets errs drop fifo frame compressed multicast|bytes    packets errs drop fifo colls carrier compressed
   em1: 744543526631 753497939    0 83798    0     0          0     67407 289674431752 470584608    0    0    0     0       0          0
    lo: 2015157897 10586249    0    0    0     0          0         0 2015157897 10586249    0    0    0     0       0          0
   em4: 931806880 15483486    0    0    0     0          0      3636   196542    2397    0    0    0     0       0          0
docker_bridge:       0       0    0    0    0     0          0         0      648       8    0    0    0     0       0          0
   em3: 64109327423 633709003    0    7   24     0          0     69683 128946948070 97146403    0    0    0     0       0          0
docker0:       0       0    0    0    0     0          0         0        0       0    0    0    0     0       0          0
   em2:       0       0    0    0    0     0          0         0        0       0    0    0    0     0       0          0
Inter-|   Receive                                                |  Transmit
 face |bytes    packets errs drop fifo frame compressed multicast|bytes    packets errs drop fifo colls carrier compressed
   em1: 744543637099 753499262    0 83798    0     0          0     67407 289674552744 470585819    0    0    0     0       0          0
    lo: 2015166787 10586349    0    0    0     0          0         0 2015166787 10586349    0    0    0     0       0          0
   em4: 931806880 15483486    0    0    0     0          0      3636   196542    2397    0    0    0     0       0          0
docker_bridge:       0       0    0    0    0     0          0         0      648       8    0    0    0     0       0          0
   em3: 64109362268 633709378    0    7   24     0          0     69683 128946962969 97146478    0    0    0     0       0          0
docker0:       0       0    0    0    0     0          0         0        0       0    0    0    0     0       0          0
   em2:       0       0    0    0    0     0          0         0        0       0    0    0    0     0       0          0
Inter-|   Receive                                                |  Transmit
 face |bytes    packets errs drop fifo frame compressed multicast|bytes    packets errs drop fifo colls carrier compressed
   em1: 744543727506 753500368    0 83798    0     0          0     67407 289674653047 470586816    0    0    0     0       0          0
    lo: 2015174269 10586433    0    0    0     0          0         0 2015174269 10586433    0    0    0     0       0          0
   em4: 931806880 15483486    0    0    0     0          0      3636   196542    2397    0    0    0     0       0          0
docker_bridge:       0       0    0    0    0     0          0         0      648       8    0    0    0     0       0          0
   em3: 64109400035 633709791    0    7   24     0          0     69683 128946977278 97146550    0    0    0     0       0          0
docker0:       0       0    0    0    0     0          0         0        0       0    0    0    0     0       0          0
   em2:       0       0    0    0    0     0          0         0        0       0    0    0    0     0       0          0
Inter-|   Receive                                                |  Transmit
 face |bytes    packets errs drop fifo frame compressed multicast|bytes    packets errs drop fifo colls carrier compressed
   em1: 744543820767 753501502    0 83798    0     0          0     67407 289674756582 470587848    0    0    0     0       0          0
    lo: 2015181959 10586521    0    0    0     0          0         0 2015181959 10586521    0    0    0     0       0          0
   em4: 931806880 15483486    0    0    0     0          0      3636   196542    2397    0    0    0     0       0          0
docker_bridge:       0       0    0    0    0     0          0         0      648       8    0    0    0     0       0          0
   em3: 64109436154 633710180    0    7   24     0          0     69683 128946991323 97146620    0    0    0     0       0          0
docker0:       0       0    0    0    0     0          0         0        0       0    0    0    0     0       0          0
   em2:       0       0    0    0    0     0          0         0        0       0    0    0    0     0       0          0
Inter-|   Receive                                                |  Transmit
 face |bytes    packets errs drop fifo frame compressed multicast|bytes    packets errs drop fifo colls carrier compressed
   em1: 744543966474 753503299    0 83798    0     0          0     67407 289674927145 470589386    0    0    0     0       0          0
    lo: 2015189441 10586605    0    0    0     0          0         0 2015189441 10586605    0    0    0     0       0          0
   em4: 931806880 15483486    0    0    0     0          0      3636   196542    2397    0    0    0     0       0          0
docker_bridge:       0       0    0    0    0     0          0         0      648       8    0    0    0     0       0          0
   em3: 64109470885 633710578    0    7   24     0          0     69683 128947005326 97146689    0    0    0     0       0          0
docker0:       0       0    0    0    0     0          0         0        0       0    0    0    0     0       0          0
   em2:       0       0    0    0    0     0          0         0        0       0    0    0    0     0       0          0
Inter-|   Receive                                                |  Transmit
 face |bytes    packets errs drop fifo frame compressed multicast|bytes    packets errs drop fifo colls carrier compressed
   em1: 744544163054 753505749    0 83798    0     0          0     67407 289675171507 470591502    0    0    0     0       0          0
    lo: 2015195133 10586669    0    0    0     0          0         0 2015195133 10586669    0    0    0     0       0          0
   em4: 931806880 15483486    0    0    0     0          0      3636   196542    2397    0    0    0     0       0          0
docker_bridge:       0       0    0    0    0     0          0         0      648       8    0    0    0     0       0          0
   em3: 64109502171 633710979    0    7   24     0          0     69683 128947015294 97146736    0    0    0     0       0          0
docker0:       0       0    0    0    0     0          0         0        0       0    0    0    0     0       0          0
   em2:       0       0    0    0    0     0          0         0        0       0    0    0    0     0       0          0
Inter-|   Receive                                                |  Transmit
 face |bytes    packets errs drop fifo frame compressed multicast|bytes    packets errs drop fifo colls carrier compressed
   em1: 744544355792 753508103    0 83798    0     0          0     67407 289675408397 470593560    0    0    0     0       0          0
    lo: 2015204405 10586773    0    0    0     0          0         0 2015204405 10586773    0    0    0     0       0          0
   em4: 931806880 15483486    0    0    0     0          0      3636   196542    2397    0    0    0     0       0          0
docker_bridge:       0       0    0    0    0     0          0         0      648       8    0    0    0     0       0          0
   em3: 64109544627 633711467    0    7   24     0          0     69683 128947032552 97146817    0    0    0     0       0          0
docker0:       0       0    0    0    0     0          0         0        0       0    0    0    0     0       0          0
   em2:       0       0    0    0    0     0          0         0        0       0    0    0    0     0       0          0
Inter-|   Receive                                                |  Transmit
 face |bytes    packets errs drop fifo frame compressed multicast|bytes    packets errs drop fifo colls carrier compressed
   em1: 744544414677 753508782    0 83798    0     0          0     67407 289675478516 470594183    0    0    0     0       0          0
    lo: 2015211887 10586857    0    0    0     0          0         0 2015211887 10586857    0    0    0     0       0          0
   em4: 931806880 15483486    0    0    0     0          0      3636   196542    2397    0    0    0     0       0          0
docker_bridge:       0       0    0    0    0     0          0         0      648       8    0    0    0     0       0          0
   em3: 64109583202 633711891    0    7   24     0          0     69683 128947046857 97146891    0    0    0     0       0          0
docker0:       0       0    0    0    0     0          0         0        0       0    0    0    0     0       0          0
   em2:       0       0    0    0    0     0          0         0        0       0    0    0    0     0       0          0
