# Generated by DoSarray v0.2 on 2018-06-20 17:28
# machine_name sequence : ['dedos01', 'dedos02', 'dedos03', 'dedos04', 'dedos05', 'dedos06', 'dedos07', 'dedos08']
# time, (min, avg, max)+
0 0 0.0 0 0 0.0 0 0 0.0 0 0 0.0 0 0 0.0 0 0 0.0 0 0 0.0 0 0 0.0 0 
5 2633 2633.0 2633 273 273.0 273 267 267.0 267 259 259.0 259 272 272.0 272 271 271.0 271 296 296.0 296 341 341.0 341 
10 10038 10038.0 10038 1569 1569.0 1569 1544 1544.0 1544 1539 1539.0 1539 1550 1550.0 1550 1543 1543.0 1543 630 630.0 630 684 684.0 684 
15 11086 11086.0 11086 1660 1660.0 1660 1630 1630.0 1630 1627 1627.0 1627 1642 1642.0 1642 1635 1635.0 1635 931 931.0 931 923 923.0 923 
20 12419 12419.0 12419 1757 1757.0 1757 1721 1721.0 1721 1715 1715.0 1715 1737 1737.0 1737 1731 1731.0 1731 1231 1231.0 1231 1277 1277.0 1277 
25 13494 13494.0 13494 1856 1856.0 1856 1811 1811.0 1811 1811 1811.0 1811 1823 1823.0 1823 1821 1821.0 1821 1514 1514.0 1514 1582 1582.0 1582 
30 14697 14697.0 14697 1991 1991.0 1991 1928 1928.0 1928 1912 1912.0 1912 1948 1948.0 1948 1938 1938.0 1938 1870 1870.0 1870 1887 1887.0 1887 
35 16020 16020.0 16020 2076 2076.0 2076 2014 2014.0 2014 2017 2017.0 2017 2033 2033.0 2033 2027 2027.0 2027 2156 2156.0 2156 2161 2161.0 2161 
40 17126 17126.0 17126 2167 2167.0 2167 2108 2108.0 2108 2107 2107.0 2107 2125 2125.0 2125 2109 2109.0 2109 2461 2461.0 2461 2504 2504.0 2504 
45 18260 18260.0 18260 2265 2265.0 2265 2189 2189.0 2189 2194 2194.0 2194 2220 2220.0 2220 2200 2200.0 2200 2770 2770.0 2770 2797 2797.0 2797 
50 20057 20057.0 20057 2463 2463.0 2463 2428 2428.0 2428 2388 2388.0 2388 2411 2411.0 2411 2420 2420.0 2420 3091 3091.0 3091 3145 3145.0 3145 
55 22507 22507.0 22507 2763 2763.0 2763 2697 2697.0 2697 2705 2705.0 2705 2721 2721.0 2721 2709 2709.0 2709 3375 3375.0 3375 3433 3433.0 3433 
60 24861 24861.0 24861 3037 3037.0 3037 2970 2970.0 2970 2970 2970.0 2970 2994 2994.0 2994 2980 2980.0 2980 3681 3681.0 3681 3727 3727.0 3727 
65 25540 25540.0 25540 3129 3129.0 3129 3058 3058.0 3058 3057 3057.0 3057 3069 3069.0 3069 3065 3065.0 3065 3773 3773.0 3773 3815 3815.0 3815 
