dedos07 1528495870 0.74 0.21 0.06 3/656 98589
dedos07 1528495875 0.68 0.20 0.06 3/658 98768
dedos07 1528495880 0.63 0.20 0.06 3/658 98973
dedos07 1528495886 0.58 0.20 0.06 3/659 99190
dedos07 1528495891 0.53 0.19 0.06 3/665 99403
dedos07 1528495896 0.49 0.19 0.06 2/653 99675
dedos07 1528495901 0.45 0.19 0.06 1/651 99903
dedos07 1528495907 0.41 0.18 0.06 2/659 100100
dedos07 1528495912 0.38 0.18 0.06 2/656 100324
dedos07 1528495917 0.35 0.18 0.06 1/652 100553
dedos07 1528495922 0.32 0.17 0.06 1/652 100769
dedos07 1528495927 0.29 0.17 0.06 1/652 100985
dedos07 1528495933 0.27 0.17 0.06 2/658 101188
dedos07 1528495938 0.47 0.21 0.07 1/472 101436
