# Generated by DoSarray v0.2 on 2018-06-08 18:12
# machine_name sequence : ['dedos01', 'dedos02', 'dedos03', 'dedos04', 'dedos05', 'dedos06', 'dedos07', 'dedos08']
# time, (min, avg, max)+
0 0 0.0 0 0 0.0 0 0 0.0 0 0 0.0 0 0 0.0 0 0 0.0 0 0 0.0 0 0 0.0 0 
5 2234 2234.0 2234 269 269.0 269 275 275.0 275 270 270.0 270 277 277.0 277 272 272.0 272 290 290.0 290 284 284.0 284 
10 24575 24575.0 24575 6081 6081.0 6081 7181 7181.0 7181 1596 1596.0 1596 7276 7276.0 7276 7863 7863.0 7863 590 590.0 590 574 574.0 574 
15 295822 295822.0 295822 58012 58012.0 58012 59554 59554.0 59554 2618 2618.0 2618 58129 58129.0 58129 73439 73439.0 73439 824 824.0 824 811 811.0 811 
20 514109 514109.0 514109 109863 109863.0 109863 111491 111491.0 111491 3752 3752.0 3752 60397 60397.0 60397 140131 140131.0 140131 1091 1091.0 1091 1081 1081.0 1081 
25 735160 735160.0 735160 162876 162876.0 162876 161871 161871.0 161871 4829 4829.0 4829 62552 62552.0 62552 208409 208409.0 208409 1342 1342.0 1342 1328 1328.0 1328 
30 851130 851130.0 851130 197624 197624.0 197624 163160 163160.0 163160 5662 5662.0 5662 64077 64077.0 64077 253908 253908.0 253908 1599 1599.0 1599 1593 1593.0 1593 
35 853190 853190.0 853190 197895 197895.0 197895 163423 163423.0 163423 5927 5927.0 5927 64344 64344.0 64344 254177 254177.0 254177 1882 1882.0 1882 1879 1879.0 1879 
40 855227 855227.0 855227 198211 198211.0 198211 163730 163730.0 163730 6234 6234.0 6234 64653 64653.0 64653 254489 254489.0 254489 2220 2220.0 2220 2221 2221.0 2221 
45 857589 857589.0 857589 198481 198481.0 198481 164010 164010.0 164010 6496 6496.0 6496 64925 64925.0 64925 254759 254759.0 254759 2516 2516.0 2516 2525 2525.0 2525 
50 859672 859672.0 859672 198751 198751.0 198751 164269 164269.0 164269 6767 6767.0 6767 65189 65189.0 65189 255018 255018.0 255018 2806 2806.0 2806 2813 2813.0 2813 
55 861682 861682.0 861682 199022 199022.0 199022 164536 164536.0 164536 7032 7032.0 7032 65458 65458.0 65458 255277 255277.0 255277 3106 3106.0 3106 3102 3102.0 3102 
60 863728 863728.0 863728 199335 199335.0 199335 164811 164811.0 164811 7312 7312.0 7312 65746 65746.0 65746 255557 255557.0 255557 3436 3436.0 3436 3422 3422.0 3422 
65 864743 864743.0 864743 199427 199427.0 199427 164937 164937.0 164937 7433 7433.0 7433 65867 65867.0 65867 255685 255685.0 255685 3536 3536.0 3536 3540 3540.0 3540 
