# Generated by DoSarray v0.2 on 2018-06-09 17:39
# machine_name sequence : ['dedos01', 'dedos02', 'dedos03', 'dedos04', 'dedos05', 'dedos06', 'dedos07', 'dedos08']
# time, (min, avg, max)+
0 0.0223785202818 0.0223785202818 0.0223785202818 0.0349009878997 0.0349009878997 0.0349009878997 0.0231898923441 0.0231898923441 0.0231898923441 0.022390387785 0.022390387785 0.022390387785 0.0222669657521 0.0222669657521 0.0222669657521 0.0225962128911 0.0225962128911 0.0225962128911 0.0220240775207 0.0220240775207 0.0220240775207 0.0220882228968 0.0220882228968 0.0220882228968 
5 0.0223915441058 0.0223915441058 0.0223915441058 0.0350328084732 0.0350328084732 0.0350328084732 0.0232572632467 0.0232572632467 0.0232572632467 0.0223909963749 0.0223909963749 0.0223909963749 0.0222801112941 0.0222801112941 0.0222801112941 0.0226075935223 0.0226075935223 0.0226075935223 0.0220218257381 0.0220218257381 0.0220218257381 0.0221116536082 0.0221116536082 0.0221116536082 
10 0.0224088889181 0.0224088889181 0.0224088889181 0.0350605601729 0.0350605601729 0.0350605601729 0.023248560411 0.023248560411 0.023248560411 0.0223948913503 0.0223948913503 0.0223948913503 0.022280415589 0.022280415589 0.022280415589 0.022609662728 0.022609662728 0.022609662728 0.0220632707106 0.0220632707106 0.0220632707106 0.0221502990672 0.0221502990672 0.0221502990672 
15 0.0223950739272 0.0223950739272 0.0223950739272 0.0350434587966 0.0350434587966 0.0350434587966 0.0232364494719 0.0232364494719 0.0232364494719 0.022390387785 0.022390387785 0.022390387785 0.0222922222332 0.0222922222332 0.0222922222332 0.0226020553542 0.0226020553542 0.0226020553542 0.022022008315 0.022022008315 0.022022008315 0.0221585150309 0.0221585150309 0.0221585150309 
20 0.0224051156607 0.0224051156607 0.0224051156607 0.0350455280023 0.0350455280023 0.0350455280023 0.0232076631693 0.0232076631693 0.0232076631693 0.0224661572282 0.0224661572282 0.0224661572282 0.0222970300934 0.0222970300934 0.0222970300934 0.0226186698586 0.0226186698586 0.0226186698586 0.0220016205532 0.0220016205532 0.0220016205532 0.0221465866687 0.0221465866687 0.0221465866687 
25 0.0223920309777 0.0223920309777 0.0223920309777 0.0350096211978 0.0350096211978 0.0350096211978 0.0232082109003 0.0232082109003 0.0232082109003 0.0224278769232 0.0224278769232 0.0224278769232 0.0223228951644 0.0223228951644 0.0223228951644 0.0225889098122 0.0225889098122 0.0225889098122 0.0219976647188 0.0219976647188 0.0219976647188 0.0221287549845 0.0221287549845 0.0221287549845 
30 0.0225332238358 0.0225332238358 0.0225332238358 0.0350204540981 0.0350204540981 0.0350204540981 0.0232582369905 0.0232582369905 0.0232582369905 0.0224048113657 0.0224048113657 0.0224048113657 0.0223035420054 0.0223035420054 0.0223035420054 0.0226125839595 0.0226125839595 0.0226125839595 0.0219719822248 0.0219719822248 0.0219719822248 0.0221953347202 0.0221953347202 0.0221953347202 
35 0.0224474735181 0.0224474735181 0.0224474735181 0.0350038395937 0.0350038395937 0.0350038395937 0.023235475728 0.023235475728 0.023235475728 0.022371034626 0.022371034626 0.022371034626 0.0222840671284 0.0222840671284 0.0222840671284 0.0225785637838 0.0225785637838 0.0225785637838 0.0219746600204 0.0219746600204 0.0219746600204 0.0220784245993 0.0220784245993 0.0220784245993 
40 0.0224127838935 0.0224127838935 0.0224127838935 0.0350556305947 0.0350556305947 0.0350556305947 0.0232562286438 0.0232562286438 0.0232562286438 0.0224119927266 0.0224119927266 0.0224119927266 0.0222799895761 0.0222799895761 0.0222799895761 0.0225334672718 0.0225334672718 0.0225334672718 0.0220048460797 0.0220048460797 0.0220048460797 0.0221398313208 0.0221398313208 0.0221398313208 
45 0.0224178351897 0.0224178351897 0.0224178351897 0.0350376163335 0.0350376163335 0.0350376163335 0.0232582369905 0.0232582369905 0.0232582369905 0.0224198435364 0.0224198435364 0.0224198435364 0.0223023248256 0.0223023248256 0.0223023248256 0.022590553005 0.022590553005 0.022590553005 0.0220438566927 0.0220438566927 0.0220438566927 0.0221778073309 0.0221778073309 0.0221778073309 
50 0.0224154008301 0.0224154008301 0.0224154008301 0.035047414631 0.035047414631 0.035047414631 0.0232803896631 0.0232803896631 0.0232803896631 0.0224077325973 0.0224077325973 0.0224077325973 0.0224810068219 0.0224810068219 0.0224810068219 0.0226139228573 0.0226139228573 0.0226139228573 0.0220059415415 0.0220059415415 0.0220059415415 0.0221086106586 0.0221086106586 0.0221086106586 
55 0.0224199652544 0.0224199652544 0.0224199652544 0.0350611687628 0.0350611687628 0.0350611687628 0.0232375449337 0.0232375449337 0.0232375449337 0.0223864319506 0.0223864319506 0.0223864319506 0.0223093236095 0.0223093236095 0.0223093236095 0.0226078369583 0.0226078369583 0.0226078369583 0.021970339032 0.021970339032 0.021970339032 0.0221943001173 0.0221943001173 0.0221943001173 
60 0.0223861885146 0.0223861885146 0.0223861885146 0.0350189934824 0.0350189934824 0.0350189934824 0.0232817285609 0.0232817285609 0.0232817285609 0.0223877708484 0.0223877708484 0.0223877708484 0.0222860754751 0.0222860754751 0.0222860754751 0.0225922570567 0.0225922570567 0.0225922570567 0.0220400225763 0.0220400225763 0.0220400225763 0.0221302764593 0.0221302764593 0.0221302764593 
65 0.0223631229572 0.0223631229572 0.0223631229572 0.0337021875034 0.0337021875034 0.0337021875034 0.0217627490152 0.0217627490152 0.0217627490152 0.0210999946079 0.0210999946079 0.0210999946079 0.0208971515923 0.0208971515923 0.0208971515923 0.0212069847133 0.0212069847133 0.0212069847133 0.0206114794906 0.0206114794906 0.0206114794906 0.0207196259168 0.0207196259168 0.0207196259168 
