# Generated by DoSarray v0.2 on 2018-06-08 17:43
# machine_name sequence : ['dedos01', 'dedos02', 'dedos03', 'dedos04', 'dedos05', 'dedos06', 'dedos07', 'dedos08']
# time, (min, avg, max)+
0 0.020969999804 0.020969999804 0.020969999804 0.0351517877998 0.0351517877998 0.0351517877998 0.0231189916201 0.0231189916201 0.0231189916201 0.0224179569077 0.0224179569077 0.0224179569077 0.022144882617 0.022144882617 0.022144882617 0.0226497079438 0.0226497079438 0.0226497079438 0.0220640618775 0.0220640618775 0.0220640618775 0.0221695305082 0.0221695305082 0.0221695305082 
5 0.0209648267898 0.0209648267898 0.0209648267898 0.0351730275875 0.0351730275875 0.0351730275875 0.0231441263832 0.0231441263832 0.0231441263832 0.0224409616061 0.0224409616061 0.0224409616061 0.0221423873984 0.0221423873984 0.0221423873984 0.0226447783656 0.0226447783656 0.0226447783656 0.0220526203873 0.0220526203873 0.0220526203873 0.0222062893385 0.0222062893385 0.0222062893385 
10 0.0210096190069 0.0210096190069 0.0210096190069 0.0358324956093 0.0358324956093 0.0358324956093 0.0240218956042 0.0240218956042 0.0240218956042 0.0231530117958 0.0231530117958 0.0231530117958 0.0227864580956 0.0227864580956 0.0227864580956 0.0232799027912 0.0232799027912 0.0232799027912 0.0220957694116 0.0220957694116 0.0220957694116 0.022183467217 0.022183467217 0.022183467217 
15 0.0211685218313 0.0211685218313 0.0211685218313 0.0358366340207 0.0358366340207 0.0358366340207 0.0238558114189 0.0238558114189 0.0238558114189 0.0231667050687 0.0231667050687 0.0231667050687 0.0227989950477 0.0227989950477 0.0227989950477 0.0233049766953 0.0233049766953 0.0233049766953 0.0220628446977 0.0220628446977 0.0220628446977 0.0222343453331 0.0222343453331 0.0222343453331 
20 0.0211887270161 0.0211887270161 0.0211887270161 0.035879661327 0.035879661327 0.035879661327 0.0238457088265 0.0238457088265 0.0238457088265 0.0231787551488 0.0231787551488 0.0231787551488 0.0228473779452 0.0228473779452 0.0228473779452 0.0233138621079 0.0233138621079 0.0233138621079 0.0220433089617 0.0220433089617 0.0220433089617 0.0221487167334 0.0221487167334 0.0221487167334 
25 0.0211940217483 0.0211940217483 0.0211940217483 0.0357950064711 0.0357950064711 0.0357950064711 0.0238326241435 0.0238326241435 0.0238326241435 0.0231812503674 0.0231812503674 0.0231812503674 0.0228066632805 0.0228066632805 0.0228066632805 0.0232693741858 0.0232693741858 0.0232693741858 0.0220199999684 0.0220199999684 0.0220199999684 0.0221625925833 0.0221625925833 0.0221625925833 
30 0.0212018725581 0.0212018725581 0.0212018725581 0.0358093691929 0.0358093691929 0.0358093691929 0.0238570285987 0.0238570285987 0.0238570285987 0.0233423441155 0.0233423441155 0.0233423441155 0.0228041680619 0.0228041680619 0.0228041680619 0.0232889707807 0.0232889707807 0.0232889707807 0.0220169570188 0.0220169570188 0.0220169570188 0.0222148095972 0.0222148095972 0.0222148095972 
35 0.0212373533496 0.0212373533496 0.0212373533496 0.0360781224953 0.0360781224953 0.0360781224953 0.0239014556619 0.0239014556619 0.0239014556619 0.0231981083078 0.0231981083078 0.0231981083078 0.0228474996631 0.0228474996631 0.0228474996631 0.0233083847987 0.0233083847987 0.0233083847987 0.0220408746021 0.0220408746021 0.0220408746021 0.0221892488211 0.0221892488211 0.0221892488211 
40 0.0212114882786 0.0212114882786 0.0212114882786 0.0358805133529 0.0358805133529 0.0358805133529 0.0238845977215 0.0238845977215 0.0238845977215 0.023203585617 0.023203585617 0.023203585617 0.0228379448016 0.0228379448016 0.0228379448016 0.0232685221599 0.0232685221599 0.0232685221599 0.0220403877302 0.0220403877302 0.0220403877302 0.0221593061978 0.0221593061978 0.0221593061978 
45 0.0212308414376 0.0212308414376 0.0212308414376 0.0358858080851 0.0358858080851 0.0358858080851 0.0238524641744 0.0238524641744 0.0238524641744 0.0231910486649 0.0231910486649 0.0231910486649 0.0228577239736 0.0228577239736 0.0228577239736 0.0232828240227 0.0232828240227 0.0232828240227 0.0220648530444 0.0220648530444 0.0220648530444 0.0222174873928 0.0222174873928 0.0222174873928 
50 0.021131458706 0.021131458706 0.021131458706 0.0349834518319 0.0349834518319 0.0349834518319 0.0229208956058 0.0229208956058 0.0229208956058 0.0222792592682 0.0222792592682 0.0222792592682 0.0220086193371 0.0220086193371 0.0220086193371 0.0225412572226 0.0225412572226 0.0225412572226 0.0220392922684 0.0220392922684 0.0220392922684 0.0221994731315 0.0221994731315 0.0221994731315 
55 0.0209459605028 0.0209459605028 0.0209459605028 0.0349923981035 0.0349923981035 0.0349923981035 0.0229769467361 0.0229769467361 0.0229769467361 0.0222817544868 0.0222817544868 0.0222817544868 0.0219755120462 0.0219755120462 0.0219755120462 0.0225588454709 0.0225588454709 0.0225588454709 0.0220367361908 0.0220367361908 0.0220367361908 0.0221904660009 0.0221904660009 0.0221904660009 
60 0.020931415204 0.020931415204 0.020931415204 0.0349689673921 0.0349689673921 0.0349689673921 0.0229940481124 0.0229940481124 0.0229940481124 0.0223209476767 0.0223209476767 0.0223209476767 0.0219934654485 0.0219934654485 0.0219934654485 0.0225465519548 0.0225465519548 0.0225465519548 0.0220655833523 0.0220655833523 0.0220655833523 0.0221489601694 0.0221489601694 0.0221489601694 
65 0.0209224080734 0.0209224080734 0.0209224080734 0.0349770616379 0.0349770616379 0.0349770616379 0.0229359886354 0.0229359886354 0.0229359886354 0.0223435263622 0.0223435263622 0.0223435263622 0.0219983341677 0.0219983341677 0.0219983341677 0.0225340758617 0.0225340758617 0.0225340758617 0.0220582802734 0.0220582802734 0.0220582802734 0.02215133367 0.02215133367 0.02215133367 
