# Generated by DoSarray v0.2 on 2018-06-20 19:04
0 100.0
1 100.0
2 100.0
3 100.0
4 100.0
5 100.0
6 100.0
7 100.0
8 100.0
9 100.0
10 56.0
11 60.0
12 99.0
13 0.0
14 0.0
15 0.0
16 0.0
17 0.0
18 0.0
19 0.0
20 1.0
21 96.0
22 100.0
23 100.0
24 100.0
25 100.0
26 100.0
27 100.0
28 99.0
29 0.0
30 0.0
31 0.0
32 0.0
33 0.0
34 16.0
35 100.0
36 100.0
37 100.0
38 100.0
39 100.0
40 100.0
41 100.0
42 100.0
43 100.0
44 100.0
45 100.0
46 100.0
47 100.0
48 100.0
49 100.0
50 100.0
51 100.0
52 100.0
53 100.0
54 100.0
55 100.0
56 100.0
57 100.0
58 100.0
59 100.0
60 100.0
61 100.0
62 100.0
63 100.0
