   em1: 898124907 9505298    0    0    0     0          0     42909 1826679448 10490149    0    0    0     0       0          0
   em1: 898155002 9505557    0    0    0     0          0     42910 1826703017 10490441    0    0    0     0       0          0
   em1: 898205409 9506121    0    0    0     0          0     42912 1826790860 10491297    0    0    0     0       0          0
   em1: 898285210 9507194    0    0    0     0          0     42912 1826949176 10492833    0    0    0     0       0          0
   em1: 898343933 9508054    0    0    0     0          0     42912 1827013025 10493756    0    0    0     0       0          0
   em1: 898404500 9508936    0    0    0     0          0     42912 1827078286 10494704    0    0    0     0       0          0
   em1: 898505947 9509990    0    0    0     0          0     42912 1827153429 10495789    0    0    0     0       0          0
   em1: 898673492 9511488    0    0    0     0          0     42912 1827287239 10497400    0    0    0     0       0          0
   em1: 898753197 9512620    0    0    0     0          0     42912 1827404771 10498711    0    0    0     0       0          0
   em1: 898807780 9513420    0    0    0     0          0     42912 1827467522 10499590    0    0    0     0       0          0
   em1: 898975399 9514409    0    0    0     0          0     42913 1827549779 10500852    0    0    0     0       0          0
   em1: 899014410 9514740    0    0    0     0          0     42915 1827579614 10501214    0    0    0     0       0          0
   em1: 899044587 9514997    0    0    0     0          0     42915 1827603275 10501508    0    0    0     0       0          0
   em1: 899077654 9515283    0    0    0     0          0     42915 1827629348 10501825    0    0    0     0       0          0
