# Generated by DoSarray v0.2 on 2018-06-20 19:03
# machine_name sequence : ['dedos01', 'dedos02', 'dedos03', 'dedos04', 'dedos05', 'dedos06', 'dedos07', 'dedos08']
# time, (min, avg, max)+
0 0 0.0 0 0 0.0 0 0 0.0 0 0 0.0 0 0 0.0 0 0 0.0 0 0 0.0 0 0 0.0 0 
5 2665 2665.0 2665 266 266.0 266 259 259.0 259 295 295.0 295 286 286.0 286 291 291.0 291 295 295.0 295 302 302.0 302 
10 5842 5842.0 5842 850 850.0 850 823 823.0 823 613 613.0 613 574 574.0 574 615 615.0 615 566 566.0 566 560 560.0 560 
15 10002 10002.0 10002 1949 1949.0 1949 1896 1896.0 1896 775 775.0 775 735 735.0 735 775 775.0 775 732 732.0 732 705 705.0 705 
20 12407 12407.0 12407 2795 2795.0 2795 2756 2756.0 2756 823 823.0 823 777 777.0 777 813 813.0 813 776 776.0 776 750 750.0 750 
25 14818 14818.0 14818 3660 3660.0 3660 3638 3638.0 3638 867 867.0 867 830 830.0 830 871 871.0 871 816 816.0 816 796 796.0 796 
30 17878 17878.0 17878 4709 4709.0 4709 4692 4692.0 4692 1045 1045.0 1045 975 975.0 975 1034 1034.0 1034 965 965.0 965 938 938.0 938 
35 22721 22721.0 22721 6275 6275.0 6275 6190 6190.0 6190 1346 1346.0 1346 1273 1273.0 1273 1349 1349.0 1349 1266 1266.0 1266 1254 1254.0 1254 
40 26567 26567.0 26567 7410 7410.0 7410 7322 7322.0 7322 1477 1477.0 1477 1410 1410.0 1410 1478 1478.0 1478 1392 1392.0 1392 1372 1372.0 1372 
45 28912 28912.0 28912 8259 8259.0 8259 8122 8122.0 8122 1516 1516.0 1516 1450 1450.0 1450 1531 1531.0 1531 1426 1426.0 1426 1404 1404.0 1404 
50 32649 32649.0 32649 9310 9310.0 9310 9111 9111.0 9111 1711 1711.0 1711 1619 1619.0 1619 1722 1722.0 1722 1606 1606.0 1606 1575 1575.0 1575 
55 34939 34939.0 34939 9638 9638.0 9638 9442 9442.0 9442 2043 2043.0 2043 1955 1955.0 1955 2047 2047.0 2047 1959 1959.0 1959 1931 1931.0 1931 
60 37522 37522.0 37522 9919 9919.0 9919 9699 9699.0 9699 2333 2333.0 2333 2262 2262.0 2262 2341 2341.0 2341 2249 2249.0 2249 2215 2215.0 2215 
65 39830 39830.0 39830 10185 10185.0 10185 9985 9985.0 9985 2637 2637.0 2637 2556 2556.0 2556 2639 2639.0 2639 2544 2544.0 2544 2520 2520.0 2520 
