dedos02 1529531157 0.91 1.16 0.67 1/681 87308
dedos02 1529531162 0.84 1.14 0.66 2/687 87519
dedos02 1529531167 0.77 1.12 0.66 2/945 87993
dedos02 1529531173 0.71 1.10 0.66 2/946 88210
dedos02 1529531178 0.65 1.08 0.65 3/950 88374
dedos02 1529531183 0.71 1.08 0.66 3/951 88537
dedos02 1529531189 0.65 1.06 0.65 2/949 88853
dedos02 1529531194 0.60 1.04 0.65 3/952 89071
dedos02 1529531199 0.55 1.02 0.64 2/948 89329
dedos02 1529531205 0.51 1.01 0.64 1/945 89574
dedos02 1529531210 0.47 0.99 0.64 2/670 89856
dedos02 1529531215 0.43 0.97 0.63 2/670 90069
dedos02 1529531221 0.39 0.96 0.63 2/490 90282
dedos02 1529531226 0.36 0.94 0.63 5/491 90495
