# Generated by DoSarray v0.2 on 2018-06-09 16:19
# machine_name sequence : ['dedos01', 'dedos02', 'dedos03', 'dedos04', 'dedos05', 'dedos06', 'dedos07', 'dedos08']
# time, (min, avg, max)+
0 0.0 0.0 0.0 0.04 0.04 0.04 0.0 0.0 0.0 0.0 0.0 0.0 0.0 0.0 0.0 0.0 0.0 0.0 0.4 0.4 0.4 0.07 0.07 0.07 
5 0.0 0.0 0.0 0.28 0.28 0.28 0.0 0.0 0.0 0.08 0.08 0.08 0.0 0.0 0.0 0.08 0.08 0.08 0.37 0.37 0.37 0.22 0.22 0.22 
10 0.0 0.0 0.0 0.25 0.25 0.25 0.0 0.0 0.0 0.07 0.07 0.07 0.0 0.0 0.0 0.31 0.31 0.31 0.42 0.42 0.42 0.36 0.36 0.36 
15 0.0 0.0 0.0 0.39 0.39 0.39 0.0 0.0 0.0 0.07 0.07 0.07 0.08 0.08 0.08 0.6 0.6 0.6 0.39 0.39 0.39 0.33 0.33 0.33 
20 0.0 0.0 0.0 0.44 0.44 0.44 0.08 0.08 0.08 0.06 0.06 0.06 0.07 0.07 0.07 0.64 0.64 0.64 0.35 0.35 0.35 0.3 0.3 0.3 
25 0.0 0.0 0.0 0.49 0.49 0.49 0.15 0.15 0.15 0.14 0.14 0.14 0.15 0.15 0.15 0.66 0.66 0.66 0.33 0.33 0.33 0.36 0.36 0.36 
30 0.08 0.08 0.08 0.53 0.53 0.53 0.22 0.22 0.22 0.59 0.59 0.59 0.14 0.14 0.14 0.69 0.69 0.69 0.3 0.3 0.3 0.33 0.33 0.33 
35 0.07 0.07 0.07 0.57 0.57 0.57 0.28 0.28 0.28 0.62 0.62 0.62 0.2 0.2 0.2 0.72 0.72 0.72 0.27 0.27 0.27 0.3 0.3 0.3 
40 0.07 0.07 0.07 0.95 0.95 0.95 0.34 0.34 0.34 0.65 0.65 0.65 0.27 0.27 0.27 0.66 0.66 0.66 0.25 0.25 0.25 0.28 0.28 0.28 
45 0.06 0.06 0.06 1.2 1.2 1.2 0.39 0.39 0.39 0.6 0.6 0.6 0.54 0.54 0.54 0.69 0.69 0.69 0.23 0.23 0.23 0.26 0.26 0.26 
50 0.06 0.06 0.06 1.1 1.1 1.1 0.44 0.44 0.44 0.63 0.63 0.63 0.58 0.58 0.58 0.71 0.71 0.71 0.21 0.21 0.21 0.24 0.24 0.24 
55 0.05 0.05 0.05 1.01 1.01 1.01 0.41 0.41 0.41 0.58 0.58 0.58 0.53 0.53 0.53 0.65 0.65 0.65 0.2 0.2 0.2 0.22 0.22 0.22 
60 0.05 0.05 0.05 0.93 0.93 0.93 0.37 0.37 0.37 0.54 0.54 0.54 0.49 0.49 0.49 0.6 0.6 0.6 0.18 0.18 0.18 0.2 0.2 0.2 
65 0.04 0.04 0.04 0.86 0.86 0.86 0.34 0.34 0.34 0.49 0.49 0.49 0.45 0.45 0.45 0.55 0.55 0.55 0.16 0.16 0.16 0.18 0.18 0.18 
