# Generated by DoSarray v0.2 on 2018-06-09 16:19
# machine_name sequence : ['dedos01', 'dedos02', 'dedos03', 'dedos04', 'dedos05', 'dedos06', 'dedos07', 'dedos08']
# time, (min, avg, max)+
0 0 0.0 0 0 0.0 0 0 0.0 0 0 0.0 0 0 0.0 0 0 0.0 0 0 0.0 0 0 0.0 0 
5 1729 1729.0 1729 230 230.0 230 265 265.0 265 226 226.0 226 255 255.0 255 258 258.0 258 256 256.0 256 296 296.0 296 
10 6894 6894.0 6894 498 498.0 498 4543 4543.0 4543 493 493.0 493 538 538.0 538 560 560.0 560 608 608.0 608 608 608.0 608 
15 8519 8519.0 8519 682 682.0 682 4662 4662.0 4662 686 686.0 686 1521 1521.0 1521 1560 1560.0 1560 730 730.0 730 742 742.0 742 
20 8849 8849.0 8849 833 833.0 833 4770 4770.0 4770 829 829.0 829 1673 1673.0 1673 1795 1795.0 1795 848 848.0 848 834 834.0 834 
25 9193 9193.0 9193 990 990.0 990 4849 4849.0 4849 986 986.0 986 1810 1810.0 1810 2047 2047.0 2047 959 959.0 959 921 921.0 921 
30 9507 9507.0 9507 1129 1129.0 1129 4947 4947.0 4947 1132 1132.0 1132 1993 1993.0 1993 2349 2349.0 2349 1086 1086.0 1086 1028 1028.0 1028 
35 9967 9967.0 9967 1284 1284.0 1284 5036 5036.0 5036 1291 1291.0 1291 2169 2169.0 2169 2622 2622.0 2622 1218 1218.0 1218 1120 1120.0 1120 
40 10315 10315.0 10315 1456 1456.0 1456 5120 5120.0 5120 1456 1456.0 1456 2314 2314.0 2314 2889 2889.0 2889 1331 1331.0 1331 1208 1208.0 1208 
45 10666 10666.0 10666 1607 1607.0 1607 5203 5203.0 5203 1611 1611.0 1611 2452 2452.0 2452 3200 3200.0 3200 1433 1433.0 1433 1293 1293.0 1293 
50 13624 13624.0 13624 1818 1818.0 1818 7403 7403.0 7403 1800 1800.0 1800 3174 3174.0 3174 4544 4544.0 4544 1661 1661.0 1661 1524 1524.0 1524 
55 15639 15639.0 15639 2077 2077.0 2077 7678 7678.0 7678 2081 2081.0 2081 3487 3487.0 3487 4830 4830.0 4830 1969 1969.0 1969 1820 1820.0 1820 
60 17688 17688.0 17688 2382 2382.0 2382 7939 7939.0 7939 2387 2387.0 2387 3744 3744.0 3744 5095 5095.0 5095 2270 2270.0 2270 2128 2128.0 2128 
65 19678 19678.0 19678 2666 2666.0 2666 8238 8238.0 8238 2663 2663.0 2663 4008 4008.0 4008 5371 5371.0 5371 2579 2579.0 2579 2417 2417.0 2417 
