Inter-|   Receive                                                |  Transmit
 face |bytes    packets errs drop fifo frame compressed multicast|bytes    packets errs drop fifo colls carrier compressed
   em1: 5869328345735 9888090699    0    0    0     0          0     42218 6431719024208 9890343462    0    0    0     0       0          0
    lo:  127570     667    0    0    0     0          0         0   127570     667    0    0    0     0       0          0
vethee25d29: 1535804   19574    0    0    0     0          0         0  1714488   14852    0    0    0     0       0          0
veth7bd2cdb: 1554730   19812    0    0    0     0          0         0  1739872   15068    0    0    0     0       0          0
vethdb02192: 1571718   20073    0    0    0     0          0         0  1754886   15201    0    0    0     0       0          0
vethb915b96: 1566118   19947    0    0    0     0          0         0  1748458   15145    0    0    0     0       0          0
   em4:       0       0    0    0    0     0          0         0        0       0    0    0    0     0       0          0
vethb3d5a39: 12955826  118360    0    0    0     0          0         0  6794888   55770    0    0    0     0       0          0
vetheb66d86: 1531070   19525    0    0    0     0          0         0  1701372   14744    0    0    0     0       0          0
docker_bridge: 811006839 7325586    0    0    0     0          0         0 480496862 5239917    0    0    0     0       0          0
veth419517c: 1563738   19945    0    0    0     0          0         0  1745572   15118    0    0    0     0       0          0
   em3: 27046045213 436388825    0    0    0     0          0     46510 11198307793 14089241    0    0    0     0       0          0
vethfadc82b: 1553932   19790    0    0    0     0          0         0  1730662   14989    0    0    0     0       0          0
veth2d04129: 1542702   19647    0    0    0     0          0         0  1718174   14887    0    0    0     0       0          0
veth5c5e650: 1572044   20096    0    0    0     0          0         0  1761080   15258    0    0    0     0       0          0
docker0:       0       0    0    0    0     0          0         0        0       0    0    0    0     0       0          0
   em2:       0       0    0    0    0     0          0         0        0       0    0    0    0     0       0          0
Inter-|   Receive                                                |  Transmit
 face |bytes    packets errs drop fifo frame compressed multicast|bytes    packets errs drop fifo colls carrier compressed
   em1: 5869328378180 9888090981    0    0    0     0          0     42218 6431719050651 9890343792    0    0    0     0       0          0
    lo:  127570     667    0    0    0     0          0         0   127570     667    0    0    0     0       0          0
vethee25d29: 1538666   19611    0    0    0     0          0         0  1718022   14883    0    0    0     0       0          0
veth7bd2cdb: 1557122   19843    0    0    0     0          0         0  1742824   15094    0    0    0     0       0          0
vethdb02192: 1574110   20104    0    0    0     0          0         0  1757838   15227    0    0    0     0       0          0
vethb915b96: 1568444   19977    0    0    0     0          0         0  1751410   15171    0    0    0     0       0          0
   em4:       0       0    0    0    0     0          0         0        0       0    0    0    0     0       0          0
vethb3d5a39: 12955826  118360    0    0    0     0          0         0  6794888   55770    0    0    0     0       0          0
vetheb66d86: 1533932   19562    0    0    0     0          0         0  1704906   14775    0    0    0     0       0          0
docker_bridge: 811025901 7325887    0    0    0     0          0         0 480525692 5240170    0    0    0     0       0          0
veth419517c: 1566130   19976    0    0    0     0          0         0  1748524   15144    0    0    0     0       0          0
   em3: 27046111013 436389755    0    0    0     0          0     46510 11198323683 14089314    0    0    0     0       0          0
vethfadc82b: 1556794   19827    0    0    0     0          0         0  1734196   15020    0    0    0     0       0          0
veth2d04129: 1545564   19684    0    0    0     0          0         0  1721642   14917    0    0    0     0       0          0
veth5c5e650: 1574370   20126    0    0    0     0          0         0  1764032   15284    0    0    0     0       0          0
docker0:       0       0    0    0    0     0          0         0        0       0    0    0    0     0       0          0
   em2:       0       0    0    0    0     0          0         0        0       0    0    0    0     0       0          0
Inter-|   Receive                                                |  Transmit
 face |bytes    packets errs drop fifo frame compressed multicast|bytes    packets errs drop fifo colls carrier compressed
   em1: 5869328414815 9888091340    0    0    0     0          0     42218 6431719098930 9890344267    0    0    0     0       0          0
    lo:  127570     667    0    0    0     0          0         0   127570     667    0    0    0     0       0          0
vethee25d29: 1540620   19636    0    0    0     0          0         0  1720350   14903    0    0    0     0       0          0
veth7bd2cdb: 1559472   19873    0    0    0     0          0         0  1745734   15119    0    0    0     0       0          0
vethdb02192: 1576460   20134    0    0    0     0          0         0  1760748   15252    0    0    0     0       0          0
vethb915b96: 1570728   20006    0    0    0     0          0         0  1754320   15196    0    0    0     0       0          0
   em4:       0       0    0    0    0     0          0         0        0       0    0    0    0     0       0          0
vethb3d5a39: 12979734  118534    0    0    0     0          0         0  6801962   55871    0    0    0     0       0          0
vetheb66d86: 1535886   19587    0    0    0     0          0         0  1707234   14795    0    0    0     0       0          0
docker_bridge: 811063557 7326312    0    0    0     0          0         0 480556768 5240478    0    0    0     0       0          0
veth419517c: 1568480   20006    0    0    0     0          0         0  1751434   15169    0    0    0     0       0          0
   em3: 27046210821 436391249    0    0    0     0          0     46510 11198343046 14089395    0    0    0     0       0          0
vethfadc82b: 1558946   19854    0    0    0     0          0         0  1736664   15042    0    0    0     0       0          0
veth2d04129: 1547518   19709    0    0    0     0          0         0  1723970   14937    0    0    0     0       0          0
veth5c5e650: 1576720   20156    0    0    0     0          0         0  1766942   15309    0    0    0     0       0          0
docker0:       0       0    0    0    0     0          0         0        0       0    0    0    0     0       0          0
   em2:       0       0    0    0    0     0          0         0        0       0    0    0    0     0       0          0
Inter-|   Receive                                                |  Transmit
 face |bytes    packets errs drop fifo frame compressed multicast|bytes    packets errs drop fifo colls carrier compressed
   em1: 5869328435352 9888091564    0    0    0     0          0     42218 6431719142603 9890344672    0    0    0     0       0          0
    lo:  127570     667    0    0    0     0          0         0   127570     667    0    0    0     0       0          0
vethee25d29: 1541386   19646    0    0    0     0          0         0  1720932   14908    0    0    0     0       0          0
veth7bd2cdb: 1560610   19888    0    0    0     0          0         0  1746898   15129    0    0    0     0       0          0
vethdb02192: 1577544   20148    0    0    0     0          0         0  1761846   15261    0    0    0     0       0          0
vethb915b96: 1571494   20016    0    0    0     0          0         0  1754902   15201    0    0    0     0       0          0
   em4:       0       0    0    0    0     0          0         0        0       0    0    0    0     0       0          0
vethb3d5a39: 13011596  118793    0    0    0     0          0         0  6810330   55991    0    0    0     0       0          0
vetheb66d86: 1536652   19597    0    0    0     0          0         0  1707816   14800    0    0    0     0       0          0
docker_bridge: 811098575 7326680    0    0    0     0          0         0 480573012 5240664    0    0    0     0       0          0
veth419517c: 1569618   20021    0    0    0     0          0         0  1752598   15179    0    0    0     0       0          0
   em3: 27046243408 436391614    0    0    0     0          0     46510 11198358069 14089462    0    0    0     0       0          0
vethfadc82b: 1559692   19864    0    0    0     0          0         0  1737622   15049    0    0    0     0       0          0
veth2d04129: 1548284   19719    0    0    0     0          0         0  1724552   14942    0    0    0     0       0          0
veth5c5e650: 1577858   20171    0    0    0     0          0         0  1768106   15319    0    0    0     0       0          0
docker0:       0       0    0    0    0     0          0         0        0       0    0    0    0     0       0          0
   em2:       0       0    0    0    0     0          0         0        0       0    0    0    0     0       0          0
Inter-|   Receive                                                |  Transmit
 face |bytes    packets errs drop fifo frame compressed multicast|bytes    packets errs drop fifo colls carrier compressed
   em1: 5869328440095 9888091607    0    0    0     0          0     42218 6431719152518 9890344795    0    0    0     0       0          0
    lo:  127570     667    0    0    0     0          0         0   127570     667    0    0    0     0       0          0
vethee25d29: 1541756   19651    0    0    0     0          0         0  1720932   14908    0    0    0     0       0          0
veth7bd2cdb: 1560906   19892    0    0    0     0          0         0  1746898   15129    0    0    0     0       0          0
vethdb02192: 1577840   20152    0    0    0     0          0         0  1761846   15261    0    0    0     0       0          0
vethb915b96: 1571864   20021    0    0    0     0          0         0  1754902   15201    0    0    0     0       0          0
   em4:       0       0    0    0    0     0          0         0        0       0    0    0    0     0       0          0
vethb3d5a39: 13014556  118833    0    0    0     0          0         0  6810330   55991    0    0    0     0       0          0
vetheb66d86: 1537022   19602    0    0    0     0          0         0  1707816   14800    0    0    0     0       0          0
docker_bridge: 811103435 7326761    0    0    0     0          0         0 480573012 5240664    0    0    0     0       0          0
veth419517c: 1569914   20025    0    0    0     0          0         0  1752598   15179    0    0    0     0       0          0
   em3: 27046266031 436391831    0    0    0     0          0     46510 11198373436 14089535    0    0    0     0       0          0
vethfadc82b: 1560062   19869    0    0    0     0          0         0  1737622   15049    0    0    0     0       0          0
veth2d04129: 1548654   19724    0    0    0     0          0         0  1724552   14942    0    0    0     0       0          0
veth5c5e650: 1578154   20175    0    0    0     0          0         0  1768106   15319    0    0    0     0       0          0
docker0:       0       0    0    0    0     0          0         0        0       0    0    0    0     0       0          0
   em2:       0       0    0    0    0     0          0         0        0       0    0    0    0     0       0          0
Inter-|   Receive                                                |  Transmit
 face |bytes    packets errs drop fifo frame compressed multicast|bytes    packets errs drop fifo colls carrier compressed
   em1: 5869328444924 9888091651    0    0    0     0          0     42219 6431719164209 9890344942    0    0    0     0       0          0
    lo:  127570     667    0    0    0     0          0         0   127570     667    0    0    0     0       0          0
vethee25d29: 1542126   19656    0    0    0     0          0         0  1720932   14908    0    0    0     0       0          0
veth7bd2cdb: 1561276   19897    0    0    0     0          0         0  1746898   15129    0    0    0     0       0          0
vethdb02192: 1578210   20157    0    0    0     0          0         0  1761846   15261    0    0    0     0       0          0
vethb915b96: 1572234   20026    0    0    0     0          0         0  1754902   15201    0    0    0     0       0          0
   em4:       0       0    0    0    0     0          0         0        0       0    0    0    0     0       0          0
vethb3d5a39: 13018996  118893    0    0    0     0          0         0  6810330   55991    0    0    0     0       0          0
vetheb66d86: 1537392   19607    0    0    0     0          0         0  1707816   14800    0    0    0     0       0          0
docker_bridge: 811109735 7326866    0    0    0     0          0         0 480573012 5240664    0    0    0     0       0          0
veth419517c: 1570284   20030    0    0    0     0          0         0  1752598   15179    0    0    0     0       0          0
   em3: 27046285792 436392003    0    0    0     0          0     46510 11198389443 14089606    0    0    0     0       0          0
vethfadc82b: 1560432   19874    0    0    0     0          0         0  1737622   15049    0    0    0     0       0          0
veth2d04129: 1549024   19729    0    0    0     0          0         0  1724552   14942    0    0    0     0       0          0
veth5c5e650: 1578524   20180    0    0    0     0          0         0  1768106   15319    0    0    0     0       0          0
docker0:       0       0    0    0    0     0          0         0        0       0    0    0    0     0       0          0
   em2:       0       0    0    0    0     0          0         0        0       0    0    0    0     0       0          0
Inter-|   Receive                                                |  Transmit
 face |bytes    packets errs drop fifo frame compressed multicast|bytes    packets errs drop fifo colls carrier compressed
   em1: 5869328450589 9888091702    0    0    0     0          0     42221 6431719176422 9890345095    0    0    0     0       0          0
    lo:  127570     667    0    0    0     0          0         0   127570     667    0    0    0     0       0          0
vethee25d29: 1542496   19661    0    0    0     0          0         0  1720932   14908    0    0    0     0       0          0
veth7bd2cdb: 1561646   19902    0    0    0     0          0         0  1746898   15129    0    0    0     0       0          0
vethdb02192: 1578580   20162    0    0    0     0          0         0  1761846   15261    0    0    0     0       0          0
vethb915b96: 1572604   20031    0    0    0     0          0         0  1754902   15201    0    0    0     0       0          0
   em4:       0       0    0    0    0     0          0         0        0       0    0    0    0     0       0          0
vethb3d5a39: 13023436  118953    0    0    0     0          0         0  6810330   55991    0    0    0     0       0          0
vetheb66d86: 1537762   19612    0    0    0     0          0         0  1707816   14800    0    0    0     0       0          0
docker_bridge: 811116035 7326971    0    0    0     0          0         0 480573012 5240664    0    0    0     0       0          0
veth419517c: 1570654   20035    0    0    0     0          0         0  1752598   15179    0    0    0     0       0          0
   em3: 27046307941 436392215    0    0    0     0          0     46510 11198403802 14089669    0    0    0     0       0          0
vethfadc82b: 1560802   19879    0    0    0     0          0         0  1737622   15049    0    0    0     0       0          0
veth2d04129: 1549394   19734    0    0    0     0          0         0  1724552   14942    0    0    0     0       0          0
veth5c5e650: 1578894   20185    0    0    0     0          0         0  1768106   15319    0    0    0     0       0          0
docker0:       0       0    0    0    0     0          0         0        0       0    0    0    0     0       0          0
   em2:       0       0    0    0    0     0          0         0        0       0    0    0    0     0       0          0
Inter-|   Receive                                                |  Transmit
 face |bytes    packets errs drop fifo frame compressed multicast|bytes    packets errs drop fifo colls carrier compressed
   em1: 5869328489075 9888091917    0    0    0     0          0     42221 6431719205471 9890345430    0    0    0     0       0          0
    lo:  127570     667    0    0    0     0          0         0   127570     667    0    0    0     0       0          0
vethee25d29: 1542866   19666    0    0    0     0          0         0  1720932   14908    0    0    0     0       0          0
veth7bd2cdb: 1562676   19915    0    0    0     0          0         0  1747686   15137    0    0    0     0       0          0
vethdb02192: 1579808   20177    0    0    0     0          0         0  1762774   15271    0    0    0     0       0          0
vethb915b96: 1572974   20036    0    0    0     0          0         0  1754902   15201    0    0    0     0       0          0
   em4:       0       0    0    0    0     0          0         0        0       0    0    0    0     0       0          0
vethb3d5a39: 13042000  119163    0    0    0     0          0         0  6839817   56123    0    0    0     0       0          0
vetheb66d86: 1538132   19617    0    0    0     0          0         0  1707816   14800    0    0    0     0       0          0
docker_bridge: 811137061 7327264    0    0    0     0          0         0 480606071 5240834    0    0    0     0       0          0
veth419517c: 1571882   20050    0    0    0     0          0         0  1753526   15189    0    0    0     0       0          0
   em3: 27046329196 436392412    0    0    0     0          0     46510 11198418985 14089736    0    0    0     0       0          0
vethfadc82b: 1561172   19884    0    0    0     0          0         0  1737622   15049    0    0    0     0       0          0
veth2d04129: 1549764   19739    0    0    0     0          0         0  1724552   14942    0    0    0     0       0          0
veth5c5e650: 1580122   20200    0    0    0     0          0         0  1769034   15329    0    0    0     0       0          0
docker0:       0       0    0    0    0     0          0         0        0       0    0    0    0     0       0          0
   em2:       0       0    0    0    0     0          0         0        0       0    0    0    0     0       0          0
Inter-|   Receive                                                |  Transmit
 face |bytes    packets errs drop fifo frame compressed multicast|bytes    packets errs drop fifo colls carrier compressed
   em1: 5869328494534 9888091970    0    0    0     0          0     42221 6431719227294 9890345645    0    0    0     0       0          0
    lo:  127570     667    0    0    0     0          0         0   127570     667    0    0    0     0       0          0
vethee25d29: 1543310   19672    0    0    0     0          0         0  1720932   14908    0    0    0     0       0          0
veth7bd2cdb: 1563938   19928    0    0    0     0          0         0  1747802   15139    0    0    0     0       0          0
vethdb02192: 1580212   20183    0    0    0     0          0         0  1762882   15273    0    0    0     0       0          0
vethb915b96: 1573418   20042    0    0    0     0          0         0  1754902   15201    0    0    0     0       0          0
   em4:       0       0    0    0    0     0          0         0        0       0    0    0    0     0       0          0
vethb3d5a39: 13055376  119279    0    0    0     0          0         0  6840261   56129    0    0    0     0       0          0
vetheb66d86: 1538576   19623    0    0    0     0          0         0  1707816   14800    0    0    0     0       0          0
docker_bridge: 811152653 7327441    0    0    0     0          0         0 480606955 5240848    0    0    0     0       0          0
veth419517c: 1572286   20056    0    0    0     0          0         0  1753634   15191    0    0    0     0       0          0
   em3: 27046352239 436392639    0    0    0     0          0     46510 11198434698 14089808    0    0    0     0       0          0
vethfadc82b: 1561616   19890    0    0    0     0          0         0  1737622   15049    0    0    0     0       0          0
veth2d04129: 1550208   19745    0    0    0     0          0         0  1724552   14942    0    0    0     0       0          0
veth5c5e650: 1580526   20206    0    0    0     0          0         0  1769142   15331    0    0    0     0       0          0
docker0:       0       0    0    0    0     0          0         0        0       0    0    0    0     0       0          0
   em2:       0       0    0    0    0     0          0         0        0       0    0    0    0     0       0          0
Inter-|   Receive                                                |  Transmit
 face |bytes    packets errs drop fifo frame compressed multicast|bytes    packets errs drop fifo colls carrier compressed
   em1: 5869328502735 9888092067    0    0    0     0          0     42221 6431719261705 9890345915    0    0    0     0       0          0
    lo:  127570     667    0    0    0     0          0         0   127570     667    0    0    0     0       0          0
vethee25d29: 1543606   19676    0    0    0     0          0         0  1720932   14908    0    0    0     0       0          0
veth7bd2cdb: 1564440   19934    0    0    0     0          0         0  1747802   15139    0    0    0     0       0          0
vethdb02192: 1580582   20188    0    0    0     0          0         0  1762882   15273    0    0    0     0       0          0
vethb915b96: 1573714   20046    0    0    0     0          0         0  1754902   15201    0    0    0     0       0          0
   em4:       0       0    0    0    0     0          0         0        0       0    0    0    0     0       0          0
vethb3d5a39: 13082816  119467    0    0    0     0          0         0  6843575   56184    0    0    0     0       0          0
vetheb66d86: 1538872   19627    0    0    0     0          0         0  1707816   14800    0    0    0     0       0          0
docker_bridge: 811179979 7327670    0    0    0     0          0         0 480610269 5240903    0    0    0     0       0          0
veth419517c: 1572656   20061    0    0    0     0          0         0  1753634   15191    0    0    0     0       0          0
   em3: 27046374326 436392848    0    0    0     0          0     46510 11198450571 14089880    0    0    0     0       0          0
vethfadc82b: 1561912   19894    0    0    0     0          0         0  1737622   15049    0    0    0     0       0          0
veth2d04129: 1550504   19749    0    0    0     0          0         0  1724552   14942    0    0    0     0       0          0
veth5c5e650: 1580896   20211    0    0    0     0          0         0  1769142   15331    0    0    0     0       0          0
docker0:       0       0    0    0    0     0          0         0        0       0    0    0    0     0       0          0
   em2:       0       0    0    0    0     0          0         0        0       0    0    0    0     0       0          0
Inter-|   Receive                                                |  Transmit
 face |bytes    packets errs drop fifo frame compressed multicast|bytes    packets errs drop fifo colls carrier compressed
   em1: 5869328575814 9888092456    0    0    0     0          0     42221 6431719319302 9890346530    0    0    0     0       0          0
    lo:  127570     667    0    0    0     0          0         0   127570     667    0    0    0     0       0          0
vethee25d29: 1544776   19691    0    0    0     0          0         0  1722096   14918    0    0    0     0       0          0
veth7bd2cdb: 1565950   19954    0    0    0     0          0         0  1749718   15153    0    0    0     0       0          0
vethdb02192: 1581840   20205    0    0    0     0          0         0  1764732   15286    0    0    0     0       0          0
vethb915b96: 1574950   20062    0    0    0     0          0         0  1756066   15211    0    0    0     0       0          0
   em4:       0       0    0    0    0     0          0         0        0       0    0    0    0     0       0          0
vethb3d5a39: 13124920  119887    0    0    0     0          0         0  6898835   56426    0    0    0     0       0          0
vetheb66d86: 1540108   19643    0    0    0     0          0         0  1708980   14810    0    0    0     0       0          0
docker_bridge: 811225633 7328243    0    0    0     0          0         0 480678947 5241250    0    0    0     0       0          0
veth419517c: 1574034   20080    0    0    0     0          0         0  1755550   15205    0    0    0     0       0          0
   em3: 27046395203 436393042    0    0    0     0          0     46510 11198464988 14089942    0    0    0     0       0          0
vethfadc82b: 1563148   19910    0    0    0     0          0         0  1738786   15059    0    0    0     0       0          0
veth2d04129: 1551674   19764    0    0    0     0          0         0  1725716   14952    0    0    0     0       0          0
veth5c5e650: 1582274   20230    0    0    0     0          0         0  1771058   15345    0    0    0     0       0          0
docker0:       0       0    0    0    0     0          0         0        0       0    0    0    0     0       0          0
   em2:       0       0    0    0    0     0          0         0        0       0    0    0    0     0       0          0
Inter-|   Receive                                                |  Transmit
 face |bytes    packets errs drop fifo frame compressed multicast|bytes    packets errs drop fifo colls carrier compressed
   em1: 5869328607443 9888092730    0    0    0     0          0     42221 6431719344577 9890346845    0    0    0     0       0          0
    lo:  127570     667    0    0    0     0          0         0   127570     667    0    0    0     0       0          0
vethee25d29: 1547168   19722    0    0    0     0          0         0  1725048   14944    0    0    0     0       0          0
veth7bd2cdb: 1568300   19984    0    0    0     0          0         0  1752628   15178    0    0    0     0       0          0
vethdb02192: 1584190   20235    0    0    0     0          0         0  1767642   15311    0    0    0     0       0          0
vethb915b96: 1577210   20091    0    0    0     0          0         0  1759018   15237    0    0    0     0       0          0
   em4:       0       0    0    0    0     0          0         0        0       0    0    0    0     0       0          0
vethb3d5a39: 13124920  119887    0    0    0     0          0         0  6898835   56426    0    0    0     0       0          0
vetheb66d86: 1542500   19674    0    0    0     0          0         0  1711932   14836    0    0    0     0       0          0
docker_bridge: 811243039 7328516    0    0    0     0          0         0 480705347 5241480    0    0    0     0       0          0
veth419517c: 1576384   20110    0    0    0     0          0         0  1758460   15230    0    0    0     0       0          0
   em3: 27046420050 436393297    0    0    0     0          0     46510 11198480375 14090011    0    0    0     0       0          0
vethfadc82b: 1565540   19941    0    0    0     0          0         0  1741738   15085    0    0    0     0       0          0
veth2d04129: 1554066   19795    0    0    0     0          0         0  1728668   14978    0    0    0     0       0          0
veth5c5e650: 1584624   20260    0    0    0     0          0         0  1773968   15370    0    0    0     0       0          0
docker0:       0       0    0    0    0     0          0         0        0       0    0    0    0     0       0          0
   em2:       0       0    0    0    0     0          0         0        0       0    0    0    0     0       0          0
Inter-|   Receive                                                |  Transmit
 face |bytes    packets errs drop fifo frame compressed multicast|bytes    packets errs drop fifo colls carrier compressed
   em1: 5869328637626 9888092993    0    0    0     0          0     42221 6431719368612 9890347143    0    0    0     0       0          0
    lo:  127570     667    0    0    0     0          0         0   127570     667    0    0    0     0       0          0
vethee25d29: 1549452   19751    0    0    0     0          0         0  1727958   14969    0    0    0     0       0          0
veth7bd2cdb: 1570650   20014    0    0    0     0          0         0  1755538   15203    0    0    0     0       0          0
vethdb02192: 1586540   20265    0    0    0     0          0         0  1770552   15336    0    0    0     0       0          0
vethb915b96: 1579362   20118    0    0    0     0          0         0  1761928   15262    0    0    0     0       0          0
   em4:       0       0    0    0    0     0          0         0        0       0    0    0    0     0       0          0
vethb3d5a39: 13124920  119887    0    0    0     0          0         0  6898835   56426    0    0    0     0       0          0
vetheb66d86: 1544850   19704    0    0    0     0          0         0  1714842   14861    0    0    0     0       0          0
docker_bridge: 811259889 7328776    0    0    0     0          0         0 480731537 5241705    0    0    0     0       0          0
veth419517c: 1578668   20139    0    0    0     0          0         0  1761370   15255    0    0    0     0       0          0
   em3: 27046446997 436393589    0    0    0     0          0     46510 11198495840 14090079    0    0    0     0       0          0
vethfadc82b: 1567758   19969    0    0    0     0          0         0  1744648   15110    0    0    0     0       0          0
veth2d04129: 1556218   19822    0    0    0     0          0         0  1731578   15003    0    0    0     0       0          0
veth5c5e650: 1586974   20290    0    0    0     0          0         0  1776878   15395    0    0    0     0       0          0
docker0:       0       0    0    0    0     0          0         0        0       0    0    0    0     0       0          0
   em2:       0       0    0    0    0     0          0         0        0       0    0    0    0     0       0          0
Inter-|   Receive                                                |  Transmit
 face |bytes    packets errs drop fifo frame compressed multicast|bytes    packets errs drop fifo colls carrier compressed
   em1: 5869328670881 9888093282    0    0    0     0          0     42221 6431719395421 9890347474    0    0    0     0       0          0
    lo:  127570     667    0    0    0     0          0         0   127570     667    0    0    0     0       0          0
vethee25d29: 1551670   19779    0    0    0     0          0         0  1730868   14994    0    0    0     0       0          0
veth7bd2cdb: 1573042   20045    0    0    0     0          0         0  1758490   15229    0    0    0     0       0          0
vethdb02192: 1589402   20302    0    0    0     0          0         0  1774086   15367    0    0    0     0       0          0
vethb915b96: 1581646   20147    0    0    0     0          0         0  1764772   15286    0    0    0     0       0          0
   em4:       0       0    0    0    0     0          0         0        0       0    0    0    0     0       0          0
vethb3d5a39: 13124920  119887    0    0    0     0          0         0  6898835   56426    0    0    0     0       0          0
vetheb66d86: 1547200   19734    0    0    0     0          0         0  1717752   14886    0    0    0     0       0          0
docker_bridge: 811277883 7329057    0    0    0     0          0         0 480758993 5241943    0    0    0     0       0          0
veth419517c: 1580994   20169    0    0    0     0          0         0  1764322   15281    0    0    0     0       0          0
   em3: 27046476044 436393908    0    0    0     0          0     46510 11198512099 14090156    0    0    0     0       0          0
vethfadc82b: 1570108   19999    0    0    0     0          0         0  1747558   15135    0    0    0     0       0          0
veth2d04129: 1558502   19851    0    0    0     0          0         0  1734554   15029    0    0    0     0       0          0
veth5c5e650: 1589836   20327    0    0    0     0          0         0  1780346   15425    0    0    0     0       0          0
docker0:       0       0    0    0    0     0          0         0        0       0    0    0    0     0       0          0
   em2:       0       0    0    0    0     0          0         0        0       0    0    0    0     0       0          0
