# Generated by DoSarray v0.2 on 2018-06-20 18:31
# machine_name sequence : ['dedos01', 'dedos02', 'dedos03', 'dedos04', 'dedos05', 'dedos06', 'dedos07', 'dedos08']
# time, (min, avg, max)+
0 0 0.0 0 0 0.0 0 0 0.0 0 0 0.0 0 0 0.0 0 0 0.0 0 0 0.0 0 0 0.0 0 
5 2124 2124.0 2124 352 352.0 352 356 356.0 356 323 323.0 323 343 343.0 343 336 336.0 336 336 336.0 336 334 334.0 334 
10 4701 4701.0 4701 878 878.0 878 909 909.0 909 707 707.0 707 683 683.0 683 741 741.0 741 733 733.0 733 717 717.0 717 
15 9006 9006.0 9006 2248 2248.0 2248 2283 2283.0 2283 1036 1036.0 1036 1047 1047.0 1047 1081 1081.0 1081 1094 1094.0 1094 1074 1074.0 1074 
20 13442 13442.0 13442 3868 3868.0 3868 3897 3897.0 3897 1363 1363.0 1363 1431 1431.0 1431 1422 1422.0 1422 1426 1426.0 1426 1424 1424.0 1424 
25 18052 18052.0 18052 5239 5239.0 5239 5258 5258.0 5258 1680 1680.0 1680 1780 1780.0 1780 1775 1775.0 1775 1764 1764.0 1764 1761 1761.0 1761 
30 22246 22246.0 22246 6600 6600.0 6600 6616 6616.0 6616 2019 2019.0 2019 2113 2113.0 2113 2113 2113.0 2113 2128 2128.0 2128 2123 2123.0 2123 
35 26548 26548.0 26548 7980 7980.0 7980 8068 8068.0 8068 2397 2397.0 2397 2464 2464.0 2464 2506 2506.0 2506 2517 2517.0 2517 2516 2516.0 2516 
40 31073 31073.0 31073 9599 9599.0 9599 9695 9695.0 9695 2716 2716.0 2716 2857 2857.0 2857 2842 2842.0 2842 2847 2847.0 2847 2857 2857.0 2857 
45 35658 35658.0 35658 10964 10964.0 10964 11064 11064.0 11064 3040 3040.0 3040 3195 3195.0 3195 3186 3186.0 3186 3197 3197.0 3197 3202 3202.0 3202 
50 38550 38550.0 38550 11696 11696.0 11696 11793 11793.0 11793 3373 3373.0 3373 3548 3548.0 3548 3537 3537.0 3537 3552 3552.0 3552 3550 3550.0 3550 
55 40564 40564.0 40564 11987 11987.0 11987 12089 12089.0 12089 3755 3755.0 3755 3885 3885.0 3885 3935 3935.0 3935 3944 3944.0 3944 3931 3931.0 3931 
60 42746 42746.0 42746 12341 12341.0 12341 12456 12456.0 12456 4082 4082.0 4082 4281 4281.0 4281 4280 4280.0 4280 4288 4288.0 4288 4281 4281.0 4281 
65 43525 43525.0 43525 12435 12435.0 12435 12555 12555.0 12555 4183 4183.0 4183 4383 4383.0 4383 4382 4382.0 4382 4382 4382.0 4382 4379 4379.0 4379 
