# Generated by DoSarray v0.2 on 2018-06-20 17:44
# machine_name sequence : ['dedos01', 'dedos02', 'dedos03', 'dedos04', 'dedos05', 'dedos06', 'dedos07', 'dedos08']
# time, (min, avg, max)+
0 0 0.0 0 0 0.0 0 0 0.0 0 0 0.0 0 0 0.0 0 0 0.0 0 0 0.0 0 0 0.0 0 
5 2128 2128.0 2128 344 344.0 344 351 351.0 351 342 342.0 342 330 330.0 330 329 329.0 329 372 372.0 372 392 392.0 392 
10 4112 4112.0 4112 623 623.0 623 619 619.0 619 593 593.0 593 628 628.0 628 652 652.0 652 735 735.0 735 748 748.0 748 
15 5232 5232.0 5232 717 717.0 717 703 703.0 703 680 680.0 680 721 721.0 721 742 742.0 742 1075 1075.0 1075 1090 1090.0 1090 
20 6328 6328.0 6328 820 820.0 820 801 801.0 801 776 776.0 776 822 822.0 822 830 830.0 830 1406 1406.0 1406 1435 1435.0 1435 
25 7402 7402.0 7402 900 900.0 900 898 898.0 898 877 877.0 877 897 897.0 897 935 935.0 935 1785 1785.0 1785 1823 1823.0 1823 
30 8497 8497.0 8497 982 982.0 982 977 977.0 977 954 954.0 954 1003 1003.0 1003 1009 1009.0 1009 2168 2168.0 2168 2189 2189.0 2189 
35 9499 9499.0 9499 1086 1086.0 1086 1082 1082.0 1082 1042 1042.0 1042 1099 1099.0 1099 1103 1103.0 1103 2535 2535.0 2535 2569 2569.0 2569 
40 10624 10624.0 10624 1175 1175.0 1175 1160 1160.0 1160 1142 1142.0 1142 1174 1174.0 1174 1207 1207.0 1207 2907 2907.0 2907 2932 2932.0 2932 
45 11687 11687.0 11687 1269 1269.0 1269 1270 1270.0 1270 1238 1238.0 1238 1280 1280.0 1280 1282 1282.0 1282 3241 3241.0 3241 3262 3262.0 3262 
50 13280 13280.0 13280 1474 1474.0 1474 1475 1475.0 1475 1445 1445.0 1445 1489 1489.0 1489 1511 1511.0 1511 3578 3578.0 3578 3616 3616.0 3616 
55 15190 15190.0 15190 1811 1811.0 1811 1793 1793.0 1793 1780 1780.0 1780 1816 1816.0 1816 1855 1855.0 1855 3994 3994.0 3994 3995 3995.0 3995 
60 17440 17440.0 17440 2131 2131.0 2131 2129 2129.0 2129 2090 2090.0 2090 2174 2174.0 2174 2185 2185.0 2185 4327 4327.0 4327 4355 4355.0 4355 
65 17791 17791.0 17791 2180 2180.0 2180 2180 2180.0 2180 2132 2132.0 2132 2212 2212.0 2212 2235 2235.0 2235 4369 4369.0 4369 4457 4457.0 4457 
