# Generated by DoSarray v0.2 on 2018-06-14 16:48
# machine_name sequence : ['dedos01', 'dedos02', 'dedos03', 'dedos04', 'dedos05', 'dedos06', 'dedos07', 'dedos08']
# time, (min, avg, max)+
0 0.0207095841834 0.0207095841834 0.0207095841834 0.0338827561284 0.0338827561284 0.0338827561284 0.0230389011885 0.0230389011885 0.0230389011885 0.0223496731203 0.0223496731203 0.0223496731203 0.0221179829432 0.0221179829432 0.0221179829432 0.0193488380132 0.0193488380132 0.0193488380132 0.0220689914558 0.0220689914558 0.0220689914558 0.0221103147104 0.0221103147104 0.0221103147104 
5 0.0207566890421 0.0207566890421 0.0207566890421 0.0338889028865 0.0338889028865 0.0338889028865 0.0230362233929 0.0230362233929 0.0230362233929 0.0223505860051 0.0223505860051 0.0223505860051 0.0221541331836 0.0221541331836 0.0221541331836 0.0193462210766 0.0193462210766 0.0193462210766 0.0220708172255 0.0220708172255 0.0220708172255 0.0220764771116 0.0220764771116 0.0220764771116 
10 0.0208143833651 0.0208143833651 0.0208143833651 0.034569549837 0.034569549837 0.034569549837 0.023706646033 0.023706646033 0.023706646033 0.0230454739595 0.0230454739595 0.0230454739595 0.0227859103647 0.0227859103647 0.0227859103647 0.0200965515714 0.0200965515714 0.0200965515714 0.0220236515078 0.0220236515078 0.0220236515078 0.0221358146274 0.0221358146274 0.0221358146274 
15 0.0208119490055 0.0208119490055 0.0208119490055 0.0345658374386 0.0345658374386 0.0345658374386 0.0236942916579 0.0236942916579 0.0236942916579 0.0230271554033 0.0230271554033 0.0230271554033 0.0227918745458 0.0227918745458 0.0227918745458 0.020099168508 0.020099168508 0.020099168508 0.0220279724961 0.0220279724961 0.0220279724961 0.0221132359419 0.0221132359419 0.0221132359419 
20 0.0208190086484 0.0208190086484 0.0208190086484 0.0345556739872 0.0345556739872 0.0345556739872 0.0237445003252 0.0237445003252 0.0237445003252 0.0230633056437 0.0230633056437 0.0230633056437 0.022790353071 0.022790353071 0.022790353071 0.0200359360168 0.0200359360168 0.0200359360168 0.0220324152024 0.0220324152024 0.0220324152024 0.0221374578202 0.0221374578202 0.0221374578202 
25 0.0208285635099 0.0208285635099 0.0208285635099 0.0345744185562 0.0345744185562 0.0345744185562 0.0237437091583 0.0237437091583 0.0237437091583 0.0230698784147 0.0230698784147 0.0230698784147 0.0227964389701 0.0227964389701 0.0227964389701 0.0200757377966 0.0200757377966 0.0200757377966 0.0220231646359 0.0220231646359 0.0220231646359 0.0221221213545 0.0221221213545 0.0221221213545 
30 0.0208298415487 0.0208298415487 0.0208298415487 0.0345204974906 0.0345204974906 0.0345204974906 0.023719913293 0.023719913293 0.023719913293 0.0230770597756 0.0230770597756 0.0230770597756 0.0227779378369 0.0227779378369 0.0227779378369 0.0200511507644 0.0200511507644 0.0200511507644 0.0220762945346 0.0220762945346 0.0220762945346 0.0221411702186 0.0221411702186 0.0221411702186 
35 0.020815357109 0.020815357109 0.020815357109 0.0345591429496 0.0345591429496 0.0345591429496 0.0237120624832 0.0237120624832 0.0237120624832 0.0230597758223 0.0230597758223 0.0230597758223 0.0227566371902 0.0227566371902 0.0227566371902 0.0200606447669 0.0200606447669 0.0200606447669 0.0220631489927 0.0220631489927 0.0220631489927 0.022067591699 0.022067591699 0.022067591699 
40 0.0208436565396 0.0208436565396 0.0208436565396 0.0345646202588 0.0345646202588 0.0345646202588 0.0237319025141 0.0237319025141 0.0237319025141 0.0230710347355 0.0230710347355 0.0230710347355 0.0228086107682 0.0228086107682 0.0228086107682 0.0201061064329 0.0201061064329 0.0201061064329 0.0220818327028 0.0220818327028 0.0220818327028 0.0221137836728 0.0221137836728 0.0221137836728 
45 0.020841100462 0.020841100462 0.020841100462 0.0345584735007 0.0345584735007 0.0345584735007 0.0236930136191 0.0236930136191 0.0236930136191 0.0230558808469 0.0230558808469 0.0230558808469 0.0227562720363 0.0227562720363 0.0227562720363 0.0200941172117 0.0200941172117 0.0200941172117 0.0220950391037 0.0220950391037 0.0220950391037 0.0220692957507 0.0220692957507 0.0220692957507 
50 0.0208398224232 0.0208398224232 0.0208398224232 0.0337550739662 0.0337550739662 0.0337550739662 0.0229290507105 0.0229290507105 0.0229290507105 0.0222358668079 0.0222358668079 0.0222358668079 0.022048177681 0.022048177681 0.022048177681 0.0192952212425 0.0192952212425 0.0192952212425 0.0220949782447 0.0220949782447 0.0220949782447 0.022125833753 0.022125833753 0.022125833753 
55 0.0208523593753 0.0208523593753 0.0208523593753 0.0337894592959 0.0337894592959 0.0337894592959 0.0229275900947 0.0229275900947 0.0229275900947 0.0221961867461 0.0221961867461 0.0221961867461 0.0220271204703 0.0220271204703 0.0220271204703 0.0192538979879 0.0192538979879 0.0192538979879 0.022080554664 0.022080554664 0.022080554664 0.0220872491529 0.0220872491529 0.0220872491529 
60 0.0208372663456 0.0208372663456 0.0208372663456 0.0337322518447 0.0337322518447 0.0337322518447 0.0229243645682 0.0229243645682 0.0229243645682 0.0223022031076 0.0223022031076 0.0223022031076 0.0220200608273 0.0220200608273 0.0220200608273 0.0192998465258 0.0192998465258 0.0192998465258 0.0220919352952 0.0220919352952 0.0220919352952 0.0221151225706 0.0221151225706 0.0221151225706 
65 0.0208247902525 0.0208247902525 0.0208247902525 0.0326005789151 0.0326005789151 0.0326005789151 0.0217233732483 0.0217233732483 0.0217233732483 0.0209982383757 0.0209982383757 0.0209982383757 0.020686031754 0.020686031754 0.020686031754 0.0182421781287 0.0182421781287 0.0182421781287 0.0207325280228 0.0207325280228 0.0207325280228 0.0207914395257 0.0207914395257 0.0207914395257 
