# Generated by DoSarray v0.2 on 2018-06-20 17:36
# machine_name sequence : ['dedos01', 'dedos02', 'dedos03', 'dedos04', 'dedos05', 'dedos06', 'dedos07', 'dedos08']
# time, (min, avg, max)+
0 0.0207719037897 0.0207719037897 0.0207719037897 0.0239123494212 0.0239123494212 0.0239123494212 0.0226977865463 0.0226977865463 0.0226977865463 0.0218706520055 0.0218706520055 0.0218706520055 0.021531789146 0.021531789146 0.021531789146 0.0203028026904 0.0203028026904 0.0203028026904 0.0216318413265 0.0216318413265 0.0216318413265 0.0219396052418 0.0219396052418 0.0219396052418 
5 0.0207815803692 0.0207815803692 0.0207815803692 0.0244993343852 0.0244993343852 0.0244993343852 0.0230115755017 0.0230115755017 0.0230115755017 0.0222002642984 0.0222002642984 0.0222002642984 0.0219012032188 0.0219012032188 0.0219012032188 0.0206454996663 0.0206454996663 0.0206454996663 0.0221459172198 0.0221459172198 0.0221459172198 0.0219471517566 0.0219471517566 0.0219471517566 
10 0.0207593059787 0.0207593059787 0.0207593059787 0.0244909967035 0.0244909967035 0.0244909967035 0.0230253296336 0.0230253296336 0.0230253296336 0.0222185219956 0.0222185219956 0.0222185219956 0.0218962736405 0.0218962736405 0.0218962736405 0.0207426914743 0.0207426914743 0.0207426914743 0.022125833753 0.022125833753 0.022125833753 0.0220247469696 0.0220247469696 0.0220247469696 
15 0.0207728166746 0.0207728166746 0.0207728166746 0.0245105324395 0.0245105324395 0.0245105324395 0.0230244167487 0.0230244167487 0.0230244167487 0.0222171222388 0.0222171222388 0.0222171222388 0.0218693739667 0.0218693739667 0.0218693739667 0.0206784243802 0.0206784243802 0.0206784243802 0.0221459172198 0.0221459172198 0.0221459172198 0.0219906050759 0.0219906050759 0.0219906050759 
20 0.0207929610005 0.0207929610005 0.0207929610005 0.0244644621836 0.0244644621836 0.0244644621836 0.0230252687746 0.0230252687746 0.0230252687746 0.0222410398221 0.0222410398221 0.0222410398221 0.0219132532989 0.0219132532989 0.0219132532989 0.0207081844266 0.0207081844266 0.0207081844266 0.0221593670568 0.0221593670568 0.0221593670568 0.0219895704731 0.0219895704731 0.0219895704731 
25 0.0208316673185 0.0208316673185 0.0208316673185 0.0244926398963 0.0244926398963 0.0244926398963 0.0230591672324 0.0230591672324 0.0230591672324 0.0222171222388 0.0222171222388 0.0222171222388 0.0218533680522 0.0218533680522 0.0218533680522 0.0206893789985 0.0206893789985 0.0206893789985 0.0221345974476 0.0221345974476 0.0221345974476 0.0220341192542 0.0220341192542 0.0220341192542 
30 0.0208233904957 0.0208233904957 0.0208233904957 0.0245163749026 0.0245163749026 0.0245163749026 0.0230273988393 0.0230273988393 0.0230273988393 0.0221805459855 0.0221805459855 0.0221805459855 0.0219176351462 0.0219176351462 0.0219176351462 0.0206655831332 0.0206655831332 0.0206655831332 0.0220940653599 0.0220940653599 0.0220940653599 0.0220231646359 0.0220231646359 0.0220231646359 
35 0.020783162703 0.020783162703 0.020783162703 0.0245281206878 0.0245281206878 0.0245281206878 0.0230510121276 0.0230510121276 0.0230510121276 0.0221924134886 0.0221924134886 0.0221924134886 0.0218694348257 0.0218694348257 0.0218694348257 0.0206727644941 0.0206727644941 0.0206727644941 0.0221665484176 0.0221665484176 0.0221665484176 0.0220174438907 0.0220174438907 0.0220174438907 
40 0.0207759813421 0.0207759813421 0.0207759813421 0.0245334154199 0.0245334154199 0.0245334154199 0.0230526553204 0.0230526553204 0.0230526553204 0.0222189480085 0.0222189480085 0.0222189480085 0.0219375360361 0.0219375360361 0.0219375360361 0.0206877358058 0.0206877358058 0.0206877358058 0.0221498121952 0.0221498121952 0.0221498121952 0.0220240166617 0.0220240166617 0.0220240166617 
45 0.0207659396086 0.0207659396086 0.0207659396086 0.0244651924915 0.0244651924915 0.0244651924915 0.0229950218563 0.0229950218563 0.0229950218563 0.0222404312322 0.0222404312322 0.0222404312322 0.0219217735576 0.0219217735576 0.0219217735576 0.0206658265692 0.0206658265692 0.0206658265692 0.0221670352896 0.0221670352896 0.0221670352896 0.02199638668 0.02199638668 0.02199638668 
