   em1: 57984133363 41090869    0  903    0     0          0     31453 19509562691 16632485    0    0    0     0       0          0
   em1: 57984167465 41091165    0  903    0     0          0     31453 19509590537 16632829    0    0    0     0       0          0
   em1: 57984197083 41091423    0  903    0     0          0     31453 19509615359 16633137    0    0    0     0       0          0
   em1: 57984215585 41091591    0  903    0     0          0     31453 19509634241 16633358    0    0    0     0       0          0
   em1: 57984221239 41091646    0  903    0     0          0     31453 19509650489 16633522    0    0    0     0       0          0
   em1: 57984227625 41091709    0  903    0     0          0     31453 19509667307 16633694    0    0    0     0       0          0
   em1: 57984232371 41091755    0  903    0     0          0     31453 19509684793 16633863    0    0    0     0       0          0
   em1: 57984265955 41092026    0  903    0     0          0     31453 19509710613 16634181    0    0    0     0       0          0
   em1: 57984290397 41092248    0  903    0     0          0     31453 19509732197 16634443    0    0    0     0       0          0
   em1: 57984295547 41092296    0  903    0     0          0     31453 19509742347 16634555    0    0    0     0       0          0
   em1: 57984325099 41092534    0  903    0     0          0     31453 19509767839 16634870    0    0    0     0       0          0
   em1: 57984358789 41092825    0  903    0     0          0     31453 19509795183 16635210    0    0    0     0       0          0
   em1: 57984394745 41093138    0  903    0     0          0     31453 19509824741 16635573    0    0    0     0       0          0
   em1: 57984429521 41093439    0  903    0     0          0     31453 19509853003 16635923    0    0    0     0       0          0
