Inter-|   Receive                                                |  Transmit
 face |bytes    packets errs drop fifo frame compressed multicast|bytes    packets errs drop fifo colls carrier compressed
vethf703f6b: 1647920   20987    0    0    0     0          0         0  1891088   16358    0    0    0     0       0          0
veth4fbb0dc: 1673706   21229    0    0    0     0          0         0  1900178   16429    0    0    0     0       0          0
veth2dcfe2f: 1651448   21035    0    0    0     0          0         0  1898202   16415    0    0    0     0       0          0
   em1: 7989104331033 13563901304    0    0    0     0          0     49909 8703415618014 13567777084    0    0    0     0       0          0
veth84ab7c7: 1638336   20880    0    0    0     0          0         0  1869390   16159    0    0    0     0       0          0
    lo: 26773039   94210    0    0    0     0          0         0 26773039   94210    0    0    0     0       0          0
vethc05f801: 21987693  211140    0    0    0     0          0         0 15267454  113147    0    0    0     0       0          0
vethf6fb63c: 1654120   21040    0    0    0     0          0         0  1884908   16302    0    0    0     0       0          0
vethb442f28: 1648290   20977    0    0    0     0          0         0  1866430   16121    0    0    0     0       0          0
veth31caeff: 1639628   20822    0    0    0     0          0         0  1849296   15972    0    0    0     0       0          0
   em4:       0       0    0    0    0     0          0         0        0       0    0    0    0     0       0          0
docker_bridge: 1580333260 15693109    0    0    0     0          0         0 1198913172 12969057    0    0    0     0       0          0
   em3: 31774623406 511787435    0    5    0     0          0     58311 34473215120 34074414    0    0    0     0       0          0
veth0be148a: 1650966   21005    0    0    0     0          0         0  1885334   16293    0    0    0     0       0          0
docker0:       0       0    0    0    0     0          0         0        0       0    0    0    0     0       0          0
veth723f28f: 1642170   20899    0    0    0     0          0         0  1859380   16060    0    0    0     0       0          0
   em2:       0       0    0    0    0     0          0         0        0       0    0    0    0     0       0          0
Inter-|   Receive                                                |  Transmit
 face |bytes    packets errs drop fifo frame compressed multicast|bytes    packets errs drop fifo colls carrier compressed
vethf703f6b: 1650246   21017    0    0    0     0          0         0  1894040   16384    0    0    0     0       0          0
veth4fbb0dc: 1676098   21260    0    0    0     0          0         0  1903130   16455    0    0    0     0       0          0
veth2dcfe2f: 1653774   21065    0    0    0     0          0         0  1901154   16441    0    0    0     0       0          0
   em1: 7989104361801 13563901571    0    0    0     0          0     49909 8703415642590 13567777386    0    0    0     0       0          0
veth84ab7c7: 1640728   20911    0    0    0     0          0         0  1872342   16185    0    0    0     0       0          0
    lo: 26773039   94210    0    0    0     0          0         0 26773039   94210    0    0    0     0       0          0
vethc05f801: 21987693  211140    0    0    0     0          0         0 15267454  113147    0    0    0     0       0          0
vethf6fb63c: 1656446   21070    0    0    0     0          0         0  1887860   16328    0    0    0     0       0          0
vethb442f28: 1650484   21005    0    0    0     0          0         0  1869382   16147    0    0    0     0       0          0
veth31caeff: 1641954   20852    0    0    0     0          0         0  1852248   15998    0    0    0     0       0          0
   em4:       0       0    0    0    0     0          0         0        0       0    0    0    0     0       0          0
docker_bridge: 1580350362 15693378    0    0    0     0          0         0 1198939740 12969291    0    0    0     0       0          0
   em3: 31774651841 511787696    0    5    0     0          0     58311 34473229733 34074480    0    0    0     0       0          0
veth0be148a: 1653226   21034    0    0    0     0          0         0  1888286   16319    0    0    0     0       0          0
docker0:       0       0    0    0    0     0          0         0        0       0    0    0    0     0       0          0
veth723f28f: 1644496   20929    0    0    0     0          0         0  1862332   16086    0    0    0     0       0          0
   em2:       0       0    0    0    0     0          0         0        0       0    0    0    0     0       0          0
Inter-|   Receive                                                |  Transmit
 face |bytes    packets errs drop fifo frame compressed multicast|bytes    packets errs drop fifo colls carrier compressed
vethf703f6b: 1652398   21044    0    0    0     0          0         0  1896950   16409    0    0    0     0       0          0
veth4fbb0dc: 1678316   21288    0    0    0     0          0         0  1906040   16480    0    0    0     0       0          0
veth2dcfe2f: 1655926   21092    0    0    0     0          0         0  1904064   16466    0    0    0     0       0          0
   em1: 7989104417473 13563902212    0    0    0     0          0     49909 8703415741243 13567778313    0    0    0     0       0          0
veth84ab7c7: 1643012   20940    0    0    0     0          0         0  1875252   16210    0    0    0     0       0          0
    lo: 26773039   94210    0    0    0     0          0         0 26773039   94210    0    0    0     0       0          0
vethc05f801: 22063090  211783    0    0    0     0          0         0 15293964  113534    0    0    0     0       0          0
vethf6fb63c: 1658730   21099    0    0    0     0          0         0  1890770   16353    0    0    0     0       0          0
vethb442f28: 1652570   21031    0    0    0     0          0         0  1871850   16169    0    0    0     0       0          0
veth31caeff: 1643842   20876    0    0    0     0          0         0  1854576   16018    0    0    0     0       0          0
   em4:       0       0    0    0    0     0          0         0        0       0    0    0    0     0       0          0
docker_bridge: 1580432539 15694263    0    0    0     0          0         0 1198990834 12969890    0    0    0     0       0          0
   em3: 31774677322 511787932    0    5    0     0          0     58311 34473249382 34074553    0    0    0     0       0          0
veth0be148a: 1655510   21063    0    0    0     0          0         0  1891196   16344    0    0    0     0       0          0
docker0:       0       0    0    0    0     0          0         0        0       0    0    0    0     0       0          0
veth723f28f: 1646318   20952    0    0    0     0          0         0  1864660   16106    0    0    0     0       0          0
   em2:       0       0    0    0    0     0          0         0        0       0    0    0    0     0       0          0
Inter-|   Receive                                                |  Transmit
 face |bytes    packets errs drop fifo frame compressed multicast|bytes    packets errs drop fifo colls carrier compressed
vethf703f6b: 1653652   21060    0    0    0     0          0         0  1898320   16422    0    0    0     0       0          0
veth4fbb0dc: 1679504   21303    0    0    0     0          0         0  1907410   16493    0    0    0     0       0          0
veth2dcfe2f: 1657114   21107    0    0    0     0          0         0  1905434   16479    0    0    0     0       0          0
   em1: 7989104491003 13563903212    0    0    0     0          0     49909 8703415881209 13567779711    0    0    0     0       0          0
veth84ab7c7: 1644266   20956    0    0    0     0          0         0  1876622   16223    0    0    0     0       0          0
    lo: 26773039   94210    0    0    0     0          0         0 26773039   94210    0    0    0     0       0          0
vethc05f801: 22187794  212998    0    0    0     0          0         0 15350186  114373    0    0    0     0       0          0
vethf6fb63c: 1659918   21114    0    0    0     0          0         0  1892140   16366    0    0    0     0       0          0
vethb442f28: 1653956   21049    0    0    0     0          0         0  1873662   16185    0    0    0     0       0          0
veth31caeff: 1645128   20892    0    0    0     0          0         0  1855946   16031    0    0    0     0       0          0
   em4:       0       0    0    0    0     0          0         0        0       0    0    0    0     0       0          0
docker_bridge: 1580549463 15695620    0    0    0     0          0         0 1199059828 12970849    0    0    0     0       0          0
   em3: 31774706243 511788223    0    5    0     0          0     58311 34473273361 34074629    0    0    0     0       0          0
veth0be148a: 1656764   21079    0    0    0     0          0         0  1892566   16357    0    0    0     0       0          0
docker0:       0       0    0    0    0     0          0         0        0       0    0    0    0     0       0          0
veth723f28f: 1647538   20967    0    0    0     0          0         0  1866030   16119    0    0    0     0       0          0
   em2:       0       0    0    0    0     0          0         0        0       0    0    0    0     0       0          0
Inter-|   Receive                                                |  Transmit
 face |bytes    packets errs drop fifo frame compressed multicast|bytes    packets errs drop fifo colls carrier compressed
vethf703f6b: 1654096   21066    0    0    0     0          0         0  1898320   16422    0    0    0     0       0          0
veth4fbb0dc: 1679948   21309    0    0    0     0          0         0  1907410   16493    0    0    0     0       0          0
veth2dcfe2f: 1657558   21113    0    0    0     0          0         0  1905434   16479    0    0    0     0       0          0
   em1: 7989104546335 13563904023    0    0    0     0          0     49909 8703415942516 13567780599    0    0    0     0       0          0
veth84ab7c7: 1644710   20962    0    0    0     0          0         0  1876622   16223    0    0    0     0       0          0
    lo: 26773039   94210    0    0    0     0          0         0 26773039   94210    0    0    0     0       0          0
vethc05f801: 22241241  213793    0    0    0     0          0         0 15400940  115142    0    0    0     0       0          0
vethf6fb63c: 1660362   21120    0    0    0     0          0         0  1892140   16366    0    0    0     0       0          0
vethb442f28: 1654326   21054    0    0    0     0          0         0  1873662   16185    0    0    0     0       0          0
veth31caeff: 1645498   20897    0    0    0     0          0         0  1855946   16031    0    0    0     0       0          0
   em4:       0       0    0    0    0     0          0         0        0       0    0    0    0     0       0          0
docker_bridge: 1580594840 15696466    0    0    0     0          0         0 1199110582 12971618    0    0    0     0       0          0
   em3: 31774735192 511788512    0    5    0     0          0     58311 34473297482 34074707    0    0    0     0       0          0
veth0be148a: 1657208   21085    0    0    0     0          0         0  1892566   16357    0    0    0     0       0          0
docker0:       0       0    0    0    0     0          0         0        0       0    0    0    0     0       0          0
veth723f28f: 1647908   20972    0    0    0     0          0         0  1866030   16119    0    0    0     0       0          0
   em2:       0       0    0    0    0     0          0         0        0       0    0    0    0     0       0          0
Inter-|   Receive                                                |  Transmit
 face |bytes    packets errs drop fifo frame compressed multicast|bytes    packets errs drop fifo colls carrier compressed
vethf703f6b: 1654466   21071    0    0    0     0          0         0  1898320   16422    0    0    0     0       0          0
veth4fbb0dc: 1680318   21314    0    0    0     0          0         0  1907410   16493    0    0    0     0       0          0
veth2dcfe2f: 1657928   21118    0    0    0     0          0         0  1905434   16479    0    0    0     0       0          0
   em1: 7989104600083 13563904810    0    0    0     0          0     49909 8703416001771 13567781457    0    0    0     0       0          0
veth84ab7c7: 1645080   20967    0    0    0     0          0         0  1876622   16223    0    0    0     0       0          0
    lo: 26773039   94210    0    0    0     0          0         0 26773039   94210    0    0    0     0       0          0
vethc05f801: 22293080  214564    0    0    0     0          0         0 15450110  115887    0    0    0     0       0          0
vethf6fb63c: 1660732   21125    0    0    0     0          0         0  1892140   16366    0    0    0     0       0          0
vethb442f28: 1654696   21059    0    0    0     0          0         0  1873662   16185    0    0    0     0       0          0
veth31caeff: 1645868   20902    0    0    0     0          0         0  1855946   16031    0    0    0     0       0          0
   em4:       0       0    0    0    0     0          0         0        0       0    0    0    0     0       0          0
docker_bridge: 1580638585 15697282    0    0    0     0          0         0 1199159752 12972363    0    0    0     0       0          0
   em3: 31774761491 511788783    0    5    0     0          0     58311 34473321207 34074779    0    0    0     0       0          0
veth0be148a: 1657578   21090    0    0    0     0          0         0  1892566   16357    0    0    0     0       0          0
docker0:       0       0    0    0    0     0          0         0        0       0    0    0    0     0       0          0
veth723f28f: 1648278   20977    0    0    0     0          0         0  1866030   16119    0    0    0     0       0          0
   em2:       0       0    0    0    0     0          0         0        0       0    0    0    0     0       0          0
Inter-|   Receive                                                |  Transmit
 face |bytes    packets errs drop fifo frame compressed multicast|bytes    packets errs drop fifo colls carrier compressed
vethf703f6b: 1654836   21076    0    0    0     0          0         0  1898320   16422    0    0    0     0       0          0
veth4fbb0dc: 1680688   21319    0    0    0     0          0         0  1907410   16493    0    0    0     0       0          0
veth2dcfe2f: 1658298   21123    0    0    0     0          0         0  1905434   16479    0    0    0     0       0          0
   em1: 7989104706564 13563905840    0    0    0     0          0     49909 8703416075165 13567782533    0    0    0     0       0          0
veth84ab7c7: 1645450   20972    0    0    0     0          0         0  1876622   16223    0    0    0     0       0          0
    lo: 26773039   94210    0    0    0     0          0         0 26773039   94210    0    0    0     0       0          0
vethc05f801: 22359096  215552    0    0    0     0          0         0 15552305  116877    0    0    0     0       0          0
vethf6fb63c: 1661102   21130    0    0    0     0          0         0  1892140   16366    0    0    0     0       0          0
vethb442f28: 1655140   21065    0    0    0     0          0         0  1873662   16185    0    0    0     0       0          0
veth31caeff: 1646312   20908    0    0    0     0          0         0  1855946   16031    0    0    0     0       0          0
   em4:       0       0    0    0    0     0          0         0        0       0    0    0    0     0       0          0
docker_bridge: 1580693649 15698318    0    0    0     0          0         0 1199261947 12973353    0    0    0     0       0          0
   em3: 31774793652 511789105    0    5    0     0          0     58311 34473345108 34074856    0    0    0     0       0          0
veth0be148a: 1657948   21095    0    0    0     0          0         0  1892566   16357    0    0    0     0       0          0
docker0:       0       0    0    0    0     0          0         0        0       0    0    0    0     0       0          0
veth723f28f: 1648722   20983    0    0    0     0          0         0  1866030   16119    0    0    0     0       0          0
   em2:       0       0    0    0    0     0          0         0        0       0    0    0    0     0       0          0
Inter-|   Receive                                                |  Transmit
 face |bytes    packets errs drop fifo frame compressed multicast|bytes    packets errs drop fifo colls carrier compressed
vethf703f6b: 1656338   21096    0    0    0     0          0         0  1900376   16438    0    0    0     0       0          0
veth4fbb0dc: 1682190   21339    0    0    0     0          0         0  1909532   16510    0    0    0     0       0          0
veth2dcfe2f: 1659800   21143    0    0    0     0          0         0  1907556   16496    0    0    0     0       0          0
   em1: 7989104837066 13563907122    0    0    0     0          0     49909 8703416185982 13567783909    0    0    0     0       0          0
veth84ab7c7: 1647348   20997    0    0    0     0          0         0  1879326   16245    0    0    0     0       0          0
    lo: 26773039   94210    0    0    0     0          0         0 26773039   94210    0    0    0     0       0          0
vethc05f801: 22451031  216692    0    0    0     0          0         0 15657537  117956    0    0    0     0       0          0
vethf6fb63c: 1662636   21150    0    0    0     0          0         0  1894262   16383    0    0    0     0       0          0
vethb442f28: 1656806   21087    0    0    0     0          0         0  1875784   16202    0    0    0     0       0          0
veth31caeff: 1647846   20928    0    0    0     0          0         0  1858068   16048    0    0    0     0       0          0
   em4:       0       0    0    0    0     0          0         0        0       0    0    0    0     0       0          0
docker_bridge: 1580781368 15699648    0    0    0     0          0         0 1199386793 12974589    0    0    0     0       0          0
   em3: 31774823733 511789391    0    5    0     0          0     58311 34473374085 34074943    0    0    0     0       0          0
veth0be148a: 1659614   21117    0    0    0     0          0         0  1894688   16374    0    0    0     0       0          0
docker0:       0       0    0    0    0     0          0         0        0       0    0    0    0     0       0          0
veth723f28f: 1650322   21004    0    0    0     0          0         0  1868152   16136    0    0    0     0       0          0
   em2:       0       0    0    0    0     0          0         0        0       0    0    0    0     0       0          0
Inter-|   Receive                                                |  Transmit
 face |bytes    packets errs drop fifo frame compressed multicast|bytes    packets errs drop fifo colls carrier compressed
vethf703f6b: 1658532   21124    0    0    0     0          0         0  1902952   16462    0    0    0     0       0          0
veth4fbb0dc: 1684384   21367    0    0    0     0          0         0  1912108   16534    0    0    0     0       0          0
veth2dcfe2f: 1661994   21171    0    0    0     0          0         0  1910132   16520    0    0    0     0       0          0
   em1: 7989104930036 13563908379    0    0    0     0          0     49909 8703416324498 13567785376    0    0    0     0       0          0
veth84ab7c7: 1649138   21020    0    0    0     0          0         0  1881320   16264    0    0    0     0       0          0
    lo: 26773039   94210    0    0    0     0          0         0 26773039   94210    0    0    0     0       0          0
vethc05f801: 22568715  217907    0    0    0     0          0         0 15726189  118994    0    0    0     0       0          0
vethf6fb63c: 1664426   21173    0    0    0     0          0         0  1896256   16402    0    0    0     0       0          0
vethb442f28: 1658464   21108    0    0    0     0          0         0  1877778   16221    0    0    0     0       0          0
veth31caeff: 1649636   20951    0    0    0     0          0         0  1860062   16067    0    0    0     0       0          0
   em4:       0       0    0    0    0     0          0         0        0       0    0    0    0     0       0          0
docker_bridge: 1580896100 15701082    0    0    0     0          0         0 1199475137 12975813    0    0    0     0       0          0
   em3: 31774856312 511789712    0    5    0     0          0     58311 34473407026 34075030    0    0    0     0       0          0
veth0be148a: 1661404   21140    0    0    0     0          0         0  1896682   16393    0    0    0     0       0          0
docker0:       0       0    0    0    0     0          0         0        0       0    0    0    0     0       0          0
veth723f28f: 1652046   21026    0    0    0     0          0         0  1870146   16155    0    0    0     0       0          0
   em2:       0       0    0    0    0     0          0         0        0       0    0    0    0     0       0          0
Inter-|   Receive                                                |  Transmit
 face |bytes    packets errs drop fifo frame compressed multicast|bytes    packets errs drop fifo colls carrier compressed
vethf703f6b: 1658902   21129    0    0    0     0          0         0  1902952   16462    0    0    0     0       0          0
veth4fbb0dc: 1684754   21372    0    0    0     0          0         0  1912108   16534    0    0    0     0       0          0
veth2dcfe2f: 1662364   21176    0    0    0     0          0         0  1910132   16520    0    0    0     0       0          0
   em1: 7989104984906 13563909183    0    0    0     0          0     49909 8703416390624 13567786263    0    0    0     0       0          0
veth84ab7c7: 1649508   21025    0    0    0     0          0         0  1881320   16264    0    0    0     0       0          0
    lo: 26773039   94210    0    0    0     0          0         0 26773039   94210    0    0    0     0       0          0
vethc05f801: 22627425  218707    0    0    0     0          0         0 15776481  119756    0    0    0     0       0          0
vethf6fb63c: 1664796   21178    0    0    0     0          0         0  1896256   16402    0    0    0     0       0          0
vethb442f28: 1658834   21113    0    0    0     0          0         0  1877778   16221    0    0    0     0       0          0
veth31caeff: 1650006   20956    0    0    0     0          0         0  1860062   16067    0    0    0     0       0          0
   em4:       0       0    0    0    0     0          0         0        0       0    0    0    0     0       0          0
docker_bridge: 1580946310 15701927    0    0    0     0          0         0 1199525429 12976575    0    0    0     0       0          0
   em3: 31774881765 511789973    0    5    0     0          0     58311 34473430731 34075103    0    0    0     0       0          0
veth0be148a: 1661774   21145    0    0    0     0          0         0  1896682   16393    0    0    0     0       0          0
docker0:       0       0    0    0    0     0          0         0        0       0    0    0    0     0       0          0
veth723f28f: 1652416   21031    0    0    0     0          0         0  1870146   16155    0    0    0     0       0          0
   em2:       0       0    0    0    0     0          0         0        0       0    0    0    0     0       0          0
Inter-|   Receive                                                |  Transmit
 face |bytes    packets errs drop fifo frame compressed multicast|bytes    packets errs drop fifo colls carrier compressed
vethf703f6b: 1660370   21148    0    0    0     0          0         0  1905074   16479    0    0    0     0       0          0
veth4fbb0dc: 1686288   21392    0    0    0     0          0         0  1914230   16551    0    0    0     0       0          0
veth2dcfe2f: 1663964   21197    0    0    0     0          0         0  1912254   16537    0    0    0     0       0          0
   em1: 7989105154762 13563910193    0    0    0     0          0     49909 8703416477576 13567787561    0    0    0     0       0          0
veth84ab7c7: 1651248   21048    0    0    0     0          0         0  1883442   16281    0    0    0     0       0          0
    lo: 26773039   94210    0    0    0     0          0         0 26773039   94210    0    0    0     0       0          0
vethc05f801: 22696597  219784    0    0    0     0          0         0 15923983  120582    0    0    0     0       0          0
vethf6fb63c: 1666404   21199    0    0    0     0          0         0  1898378   16419    0    0    0     0       0          0
vethb442f28: 1660038   21129    0    0    0     0          0         0  1879318   16233    0    0    0     0       0          0
veth31caeff: 1651210   20972    0    0    0     0          0         0  1861602   16079    0    0    0     0       0          0
   em4:       0       0    0    0    0     0          0         0        0       0    0    0    0     0       0          0
docker_bridge: 1581011256 15703179    0    0    0     0          0         0 1199690283 12977539    0    0    0     0       0          0
   em3: 31774912742 511790293    0    5    0     0          0     58311 34473451218 34075182    0    0    0     0       0          0
veth0be148a: 1663514   21168    0    0    0     0          0         0  1898804   16410    0    0    0     0       0          0
docker0:       0       0    0    0    0     0          0         0        0       0    0    0    0     0       0          0
veth723f28f: 1653620   21047    0    0    0     0          0         0  1871686   16167    0    0    0     0       0          0
   em2:       0       0    0    0    0     0          0         0        0       0    0    0    0     0       0          0
Inter-|   Receive                                                |  Transmit
 face |bytes    packets errs drop fifo frame compressed multicast|bytes    packets errs drop fifo colls carrier compressed
vethf703f6b: 1662588   21176    0    0    0     0          0         0  1907984   16504    0    0    0     0       0          0
veth4fbb0dc: 1688506   21420    0    0    0     0          0         0  1917074   16575    0    0    0     0       0          0
veth2dcfe2f: 1666248   21226    0    0    0     0          0         0  1915164   16562    0    0    0     0       0          0
   em1: 7989105191204 13563910484    0    0    0     0          0     49909 8703416506329 13567787894    0    0    0     0       0          0
veth84ab7c7: 1653532   21077    0    0    0     0          0         0  1886352   16306    0    0    0     0       0          0
    lo: 26773039   94210    0    0    0     0          0         0 26773039   94210    0    0    0     0       0          0
vethc05f801: 22700480  219811    0    0    0     0          0         0 15928825  120600    0    0    0     0       0          0
vethf6fb63c: 1668622   21227    0    0    0     0          0         0  1901288   16444    0    0    0     0       0          0
vethb442f28: 1662726   21163    0    0    0     0          0         0  1882810   16263    0    0    0     0       0          0
veth31caeff: 1653766   21004    0    0    0     0          0         0  1865094   16109    0    0    0     0       0          0
   em4:       0       0    0    0    0     0          0         0        0       0    0    0    0     0       0          0
docker_bridge: 1581032353 15703476    0    0    0     0          0         0 1199722995 12977796    0    0    0     0       0          0
   em3: 31774937921 511790554    0    5    0     0          0     58311 34473465387 34075240    0    0    0     0       0          0
veth0be148a: 1665732   21196    0    0    0     0          0         0  1901714   16435    0    0    0     0       0          0
docker0:       0       0    0    0    0     0          0         0        0       0    0    0    0     0       0          0
veth723f28f: 1656308   21081    0    0    0     0          0         0  1875178   16197    0    0    0     0       0          0
   em2:       0       0    0    0    0     0          0         0        0       0    0    0    0     0       0          0
Inter-|   Receive                                                |  Transmit
 face |bytes    packets errs drop fifo frame compressed multicast|bytes    packets errs drop fifo colls carrier compressed
vethf703f6b: 1665384   21212    0    0    0     0          0         0  1911386   16533    0    0    0     0       0          0
veth4fbb0dc: 1691302   21456    0    0    0     0          0         0  1920608   16606    0    0    0     0       0          0
veth2dcfe2f: 1669110   21263    0    0    0     0          0         0  1918566   16591    0    0    0     0       0          0
   em1: 7989105223766 13563910766    0    0    0     0          0     49909 8703416532083 13567788210    0    0    0     0       0          0
veth84ab7c7: 1655792   21106    0    0    0     0          0         0  1889304   16332    0    0    0     0       0          0
    lo: 26773039   94210    0    0    0     0          0         0 26773039   94210    0    0    0     0       0          0
vethc05f801: 22700522  219812    0    0    0     0          0         0 15928867  120601    0    0    0     0       0          0
vethf6fb63c: 1670948   21257    0    0    0     0          0         0  1904240   16470    0    0    0     0       0          0
vethb442f28: 1664920   21191    0    0    0     0          0         0  1885762   16289    0    0    0     0       0          0
veth31caeff: 1655894   21031    0    0    0     0          0         0  1868046   16135    0    0    0     0       0          0
   em4:       0       0    0    0    0     0          0         0        0       0    0    0    0     0       0          0
docker_bridge: 1581050277 15703757    0    0    0     0          0         0 1199751153 12978043    0    0    0     0       0          0
   em3: 31774966662 511790822    0    5    0     0          0     58311 34473480720 34075310    0    0    0     0       0          0
veth0be148a: 1668058   21226    0    0    0     0          0         0  1904666   16461    0    0    0     0       0          0
docker0:       0       0    0    0    0     0          0         0        0       0    0    0    0     0       0          0
veth723f28f: 1658436   21108    0    0    0     0          0         0  1878130   16223    0    0    0     0       0          0
   em2:       0       0    0    0    0     0          0         0        0       0    0    0    0     0       0          0
Inter-|   Receive                                                |  Transmit
 face |bytes    packets errs drop fifo frame compressed multicast|bytes    packets errs drop fifo colls carrier compressed
vethf703f6b: 1667734   21242    0    0    0     0          0         0  1914230   16557    0    0    0     0       0          0
veth4fbb0dc: 1693520   21484    0    0    0     0          0         0  1923518   16631    0    0    0     0       0          0
veth2dcfe2f: 1671394   21292    0    0    0     0          0         0  1921542   16617    0    0    0     0       0          0
   em1: 7989105254958 13563911037    0    0    0     0          0     49909 8703416556589 13567788509    0    0    0     0       0          0
veth84ab7c7: 1658076   21135    0    0    0     0          0         0  1892214   16357    0    0    0     0       0          0
    lo: 26773039   94210    0    0    0     0          0         0 26773039   94210    0    0    0     0       0          0
vethc05f801: 22700522  219812    0    0    0     0          0         0 15928867  120601    0    0    0     0       0          0
vethf6fb63c: 1673166   21285    0    0    0     0          0         0  1907150   16495    0    0    0     0       0          0
vethb442f28: 1667138   21219    0    0    0     0          0         0  1888672   16314    0    0    0     0       0          0
veth31caeff: 1658046   21058    0    0    0     0          0         0  1870956   16160    0    0    0     0       0          0
   em4:       0       0    0    0    0     0          0         0        0       0    0    0    0     0       0          0
docker_bridge: 1581066763 15704010    0    0    0     0          0         0 1199777277 12978267    0    0    0     0       0          0
   em3: 31774995855 511791115    0    5    0     0          0     58311 34473496211 34075381    0    0    0     0       0          0
veth0be148a: 1670276   21254    0    0    0     0          0         0  1907576   16486    0    0    0     0       0          0
docker0:       0       0    0    0    0     0          0         0        0       0    0    0    0     0       0          0
veth723f28f: 1660522   21134    0    0    0     0          0         0  1881040   16248    0    0    0     0       0          0
   em2:       0       0    0    0    0     0          0         0        0       0    0    0    0     0       0          0
