Inter-|   Receive                                                |  Transmit
 face |bytes    packets errs drop fifo frame compressed multicast|bytes    packets errs drop fifo colls carrier compressed
veth76538ff: 2482724   31592    0    0    0     0          0         0  2907520   24947    0    0    0     0       0          0
vethf8ca207: 2499342   31733    0    0    0     0          0         0  2903721   24892    0    0    0     0       0          0
veth760c0f4: 2513064   31999    0    0    0     0          0         0  2925821   25090    0    0    0     0       0          0
veth03fd896: 2507864   31933    0    0    0     0          0         0  2928385   25126    0    0    0     0       0          0
   em1: 1222066103299 3910649729    0    0    0     0          0     68072 871695522158 4129826339    0    0    0     0       0          0
    lo: 366728204 4092823    0    0    0     0          0         0 366728204 4092823    0    0    0     0       0          0
vethcf4ec5d: 2491552   31660    0    0    0     0          0         0  2888902   24778    0    0    0     0       0          0
vetha6684fa: 2507830   31870    0    0    0     0          0         0  2927052   25090    0    0    0     0       0          0
vethe418d91: 2529918   32159    0    0    0     0          0         0  2938361   25192    0    0    0     0       0          0
   em4:       0       0    0    0    0     0          0         0        0       0    0    0    0     0       0          0
docker_bridge: 1096624553 12918969    0    0    0     0          0         0 1045226073 10068795    0    0    0     0       0          0
   em3: 52629767929 837476114    0    0    0     0          0    110287 6000577003 5682986    0    0    0     0       0          0
vethb79b412: 2498128   31709    0    0    0     0          0         0  2893894   24813    0    0    0     0       0          0
veth31a4702: 2537510   32209    0    0    0     0          0         0  2940227   25226    0    0    0     0       0          0
vethf5aad1c: 2470034   31421    0    0    0     0          0         0  2879381   24690    0    0    0     0       0          0
docker0:   92981    1361    0    0    0     0          0         0 25539248    2063    0    0    0     0       0          0
   em2:       0       0    0    0    0     0          0         0        0       0    0    0    0     0       0          0
Inter-|   Receive                                                |  Transmit
 face |bytes    packets errs drop fifo frame compressed multicast|bytes    packets errs drop fifo colls carrier compressed
veth76538ff: 2485116   31623    0    0    0     0          0         0  2910472   24973    0    0    0     0       0          0
vethf8ca207: 2501734   31764    0    0    0     0          0         0  2906673   24918    0    0    0     0       0          0
veth760c0f4: 2515456   32030    0    0    0     0          0         0  2928773   25116    0    0    0     0       0          0
veth03fd896: 2510256   31964    0    0    0     0          0         0  2931337   25152    0    0    0     0       0          0
   em1: 1222066136129 3910650013    0    0    0     0          0     68072 871695548960 4129826673    0    0    0     0       0          0
    lo: 366728204 4092823    0    0    0     0          0         0 366728204 4092823    0    0    0     0       0          0
vethcf4ec5d: 2493944   31691    0    0    0     0          0         0  2891854   24804    0    0    0     0       0          0
vetha6684fa: 2510222   31901    0    0    0     0          0         0  2930004   25116    0    0    0     0       0          0
vethe418d91: 2532310   32190    0    0    0     0          0         0  2941313   25218    0    0    0     0       0          0
   em4:       0       0    0    0    0     0          0         0        0       0    0    0    0     0       0          0
docker_bridge: 1096644133 12919279    0    0    0     0          0         0 1045255593 10069055    0    0    0     0       0          0
   em3: 52629801188 837476499    0    0    0     0          0    110287 6000592168 5683054    0    0    0     0       0          0
vethb79b412: 2500520   31740    0    0    0     0          0         0  2896846   24839    0    0    0     0       0          0
veth31a4702: 2539902   32240    0    0    0     0          0         0  2943179   25252    0    0    0     0       0          0
vethf5aad1c: 2472426   31452    0    0    0     0          0         0  2882333   24716    0    0    0     0       0          0
docker0:   92981    1361    0    0    0     0          0         0 25539248    2063    0    0    0     0       0          0
   em2:       0       0    0    0    0     0          0         0        0       0    0    0    0     0       0          0
Inter-|   Receive                                                |  Transmit
 face |bytes    packets errs drop fifo frame compressed multicast|bytes    packets errs drop fifo colls carrier compressed
veth76538ff: 2487466   31653    0    0    0     0          0         0  2913382   24998    0    0    0     0       0          0
vethf8ca207: 2504084   31794    0    0    0     0          0         0  2909583   24943    0    0    0     0       0          0
veth760c0f4: 2517806   32060    0    0    0     0          0         0  2931683   25141    0    0    0     0       0          0
veth03fd896: 2512606   31994    0    0    0     0          0         0  2934247   25177    0    0    0     0       0          0
   em1: 1222066169807 3910650305    0    0    0     0          0     68072 871695576546 4129827015    0    0    0     0       0          0
    lo: 366728204 4092823    0    0    0     0          0         0 366728204 4092823    0    0    0     0       0          0
vethcf4ec5d: 2496294   31721    0    0    0     0          0         0  2894764   24829    0    0    0     0       0          0
vetha6684fa: 2512572   31931    0    0    0     0          0         0  2932914   25141    0    0    0     0       0          0
vethe418d91: 2534660   32220    0    0    0     0          0         0  2944223   25243    0    0    0     0       0          0
   em4:       0       0    0    0    0     0          0         0        0       0    0    0    0     0       0          0
docker_bridge: 1096663433 12919579    0    0    0     0          0         0 1045284693 10069305    0    0    0     0       0          0
   em3: 52629832091 837476829    0    0    0     0          0    110287 6000607551 5683125    0    0    0     0       0          0
vethb79b412: 2502870   31770    0    0    0     0          0         0  2899756   24864    0    0    0     0       0          0
veth31a4702: 2542252   32270    0    0    0     0          0         0  2946089   25277    0    0    0     0       0          0
vethf5aad1c: 2474776   31482    0    0    0     0          0         0  2885243   24741    0    0    0     0       0          0
docker0:   92981    1361    0    0    0     0          0         0 25539248    2063    0    0    0     0       0          0
   em2:       0       0    0    0    0     0          0         0        0       0    0    0    0     0       0          0
Inter-|   Receive                                                |  Transmit
 face |bytes    packets errs drop fifo frame compressed multicast|bytes    packets errs drop fifo colls carrier compressed
veth76538ff: 2490286   31689    0    0    0     0          0         0  2916874   25028    0    0    0     0       0          0
vethf8ca207: 2506904   31830    0    0    0     0          0         0  2913075   24973    0    0    0     0       0          0
veth760c0f4: 2520626   32096    0    0    0     0          0         0  2935175   25171    0    0    0     0       0          0
veth03fd896: 2515426   32030    0    0    0     0          0         0  2937739   25207    0    0    0     0       0          0
   em1: 1222066210153 3910650655    0    0    0     0          0     68072 871695609550 4129827424    0    0    0     0       0          0
    lo: 366728204 4092823    0    0    0     0          0         0 366728204 4092823    0    0    0     0       0          0
vethcf4ec5d: 2499048   31756    0    0    0     0          0         0  2898256   24859    0    0    0     0       0          0
vetha6684fa: 2515392   31967    0    0    0     0          0         0  2936406   25171    0    0    0     0       0          0
vethe418d91: 2537480   32256    0    0    0     0          0         0  2947715   25273    0    0    0     0       0          0
   em4:       0       0    0    0    0     0          0         0        0       0    0    0    0     0       0          0
docker_bridge: 1096686541 12919938    0    0    0     0          0         0 1045319613 10069605    0    0    0     0       0          0
   em3: 52629866604 837477192    0    0    0     0          0    110287 6000623872 5683205    0    0    0     0       0          0
vethb79b412: 2505690   31806    0    0    0     0          0         0  2903248   24894    0    0    0     0       0          0
veth31a4702: 2545072   32306    0    0    0     0          0         0  2949581   25307    0    0    0     0       0          0
vethf5aad1c: 2477596   31518    0    0    0     0          0         0  2888735   24771    0    0    0     0       0          0
docker0:   92981    1361    0    0    0     0          0         0 25539248    2063    0    0    0     0       0          0
   em2:       0       0    0    0    0     0          0         0        0       0    0    0    0     0       0          0
Inter-|   Receive                                                |  Transmit
 face |bytes    packets errs drop fifo frame compressed multicast|bytes    packets errs drop fifo colls carrier compressed
veth76538ff: 2492570   31718    0    0    0     0          0         0  2919784   25053    0    0    0     0       0          0
vethf8ca207: 2509254   31860    0    0    0     0          0         0  2915985   24998    0    0    0     0       0          0
veth760c0f4: 2522976   32126    0    0    0     0          0         0  2938085   25196    0    0    0     0       0          0
veth03fd896: 2517776   32060    0    0    0     0          0         0  2940649   25232    0    0    0     0       0          0
   em1: 1222066243831 3910650947    0    0    0     0          0     68072 871695637070 4129827765    0    0    0     0       0          0
    lo: 366728204 4092823    0    0    0     0          0         0 366728204 4092823    0    0    0     0       0          0
vethcf4ec5d: 2501398   31786    0    0    0     0          0         0  2901166   24884    0    0    0     0       0          0
vetha6684fa: 2517742   31997    0    0    0     0          0         0  2939316   25196    0    0    0     0       0          0
vethe418d91: 2539830   32286    0    0    0     0          0         0  2950625   25298    0    0    0     0       0          0
   em4:       0       0    0    0    0     0          0         0        0       0    0    0    0     0       0          0
docker_bridge: 1096705789 12920237    0    0    0     0          0         0 1045348713 10069855    0    0    0     0       0          0
   em3: 52629896937 837477494    0    0    0     0          0    110287 6000639047 5683274    0    0    0     0       0          0
vethb79b412: 2508040   31836    0    0    0     0          0         0  2906158   24919    0    0    0     0       0          0
veth31a4702: 2547422   32336    0    0    0     0          0         0  2952491   25332    0    0    0     0       0          0
vethf5aad1c: 2479946   31548    0    0    0     0          0         0  2891645   24796    0    0    0     0       0          0
docker0:   92981    1361    0    0    0     0          0         0 25539248    2063    0    0    0     0       0          0
   em2:       0       0    0    0    0     0          0         0        0       0    0    0    0     0       0          0
Inter-|   Receive                                                |  Transmit
 face |bytes    packets errs drop fifo frame compressed multicast|bytes    packets errs drop fifo colls carrier compressed
veth76538ff: 2494920   31748    0    0    0     0          0         0  2922694   25078    0    0    0     0       0          0
vethf8ca207: 2511538   31889    0    0    0     0          0         0  2918895   25023    0    0    0     0       0          0
veth760c0f4: 2525326   32156    0    0    0     0          0         0  2940995   25221    0    0    0     0       0          0
veth03fd896: 2520126   32090    0    0    0     0          0         0  2943559   25257    0    0    0     0       0          0
   em1: 1222066277509 3910651239    0    0    0     0          0     68072 871695664590 4129828106    0    0    0     0       0          0
    lo: 366728204 4092823    0    0    0     0          0         0 366728204 4092823    0    0    0     0       0          0
vethcf4ec5d: 2503748   31816    0    0    0     0          0         0  2904076   24909    0    0    0     0       0          0
vetha6684fa: 2520092   32027    0    0    0     0          0         0  2942226   25221    0    0    0     0       0          0
vethe418d91: 2542180   32316    0    0    0     0          0         0  2953535   25323    0    0    0     0       0          0
   em4:       0       0    0    0    0     0          0         0        0       0    0    0    0     0       0          0
docker_bridge: 1096725037 12920536    0    0    0     0          0         0 1045377813 10070105    0    0    0     0       0          0
   em3: 52629930678 837477862    0    0    0     0          0    110287 6000654332 5683344    0    0    0     0       0          0
vethb79b412: 2510390   31866    0    0    0     0          0         0  2909068   24944    0    0    0     0       0          0
veth31a4702: 2549772   32366    0    0    0     0          0         0  2955401   25357    0    0    0     0       0          0
vethf5aad1c: 2482296   31578    0    0    0     0          0         0  2894555   24821    0    0    0     0       0          0
docker0:   92981    1361    0    0    0     0          0         0 25539248    2063    0    0    0     0       0          0
   em2:       0       0    0    0    0     0          0         0        0       0    0    0    0     0       0          0
Inter-|   Receive                                                |  Transmit
 face |bytes    packets errs drop fifo frame compressed multicast|bytes    packets errs drop fifo colls carrier compressed
veth76538ff: 2497270   31778    0    0    0     0          0         0  2925604   25103    0    0    0     0       0          0
vethf8ca207: 2513888   31919    0    0    0     0          0         0  2921805   25048    0    0    0     0       0          0
veth760c0f4: 2527676   32186    0    0    0     0          0         0  2943905   25246    0    0    0     0       0          0
veth03fd896: 2522476   32120    0    0    0     0          0         0  2946469   25282    0    0    0     0       0          0
   em1: 1222066311671 3910651536    0    0    0     0          0     68072 871695692610 4129828453    0    0    0     0       0          0
    lo: 366728204 4092823    0    0    0     0          0         0 366728204 4092823    0    0    0     0       0          0
vethcf4ec5d: 2506098   31846    0    0    0     0          0         0  2906986   24934    0    0    0     0       0          0
vetha6684fa: 2522442   32057    0    0    0     0          0         0  2945136   25246    0    0    0     0       0          0
vethe418d91: 2544530   32346    0    0    0     0          0         0  2956445   25348    0    0    0     0       0          0
   em4:       0       0    0    0    0     0          0         0        0       0    0    0    0     0       0          0
docker_bridge: 1096744397 12920837    0    0    0     0          0         0 1045406913 10070355    0    0    0     0       0          0
   em3: 52629963685 837478228    0    0    0     0          0    110287 6000670039 5683417    0    0    0     0       0          0
vethb79b412: 2512740   31896    0    0    0     0          0         0  2911978   24969    0    0    0     0       0          0
veth31a4702: 2552122   32396    0    0    0     0          0         0  2958311   25382    0    0    0     0       0          0
vethf5aad1c: 2484646   31608    0    0    0     0          0         0  2897465   24846    0    0    0     0       0          0
docker0:   92981    1361    0    0    0     0          0         0 25539248    2063    0    0    0     0       0          0
   em2:       0       0    0    0    0     0          0         0        0       0    0    0    0     0       0          0
Inter-|   Receive                                                |  Transmit
 face |bytes    packets errs drop fifo frame compressed multicast|bytes    packets errs drop fifo colls carrier compressed
veth76538ff: 2499620   31808    0    0    0     0          0         0  2928514   25128    0    0    0     0       0          0
vethf8ca207: 2516708   31955    0    0    0     0          0         0  2925297   25078    0    0    0     0       0          0
veth760c0f4: 2530496   32222    0    0    0     0          0         0  2947397   25276    0    0    0     0       0          0
veth03fd896: 2524826   32150    0    0    0     0          0         0  2949379   25307    0    0    0     0       0          0
   em1: 1222066347199 3910651843    0    0    0     0          0     68072 871695721434 4129828813    0    0    0     0       0          0
    lo: 366728204 4092823    0    0    0     0          0         0 366728204 4092823    0    0    0     0       0          0
vethcf4ec5d: 2508448   31876    0    0    0     0          0         0  2909896   24959    0    0    0     0       0          0
vetha6684fa: 2525196   32092    0    0    0     0          0         0  2948628   25276    0    0    0     0       0          0
vethe418d91: 2547284   32381    0    0    0     0          0         0  2959937   25378    0    0    0     0       0          0
   em4:       0       0    0    0    0     0          0         0        0       0    0    0    0     0       0          0
docker_bridge: 1096765463 12921164    0    0    0     0          0         0 1045438923 10070630    0    0    0     0       0          0
   em3: 52630003836 837478692    0    0    0     0          0    110287 6000684290 5683480    0    0    0     0       0          0
vethb79b412: 2515090   31926    0    0    0     0          0         0  2914888   24994    0    0    0     0       0          0
veth31a4702: 2554942   32432    0    0    0     0          0         0  2961803   25412    0    0    0     0       0          0
vethf5aad1c: 2486996   31638    0    0    0     0          0         0  2900375   24871    0    0    0     0       0          0
docker0:   92981    1361    0    0    0     0          0         0 25539248    2063    0    0    0     0       0          0
   em2:       0       0    0    0    0     0          0         0        0       0    0    0    0     0       0          0
Inter-|   Receive                                                |  Transmit
 face |bytes    packets errs drop fifo frame compressed multicast|bytes    packets errs drop fifo colls carrier compressed
veth76538ff: 2502440   31844    0    0    0     0          0         0  2932006   25158    0    0    0     0       0          0
vethf8ca207: 2519058   31985    0    0    0     0          0         0  2928207   25103    0    0    0     0       0          0
veth760c0f4: 2532846   32252    0    0    0     0          0         0  2950307   25301    0    0    0     0       0          0
veth03fd896: 2527646   32186    0    0    0     0          0         0  2952871   25337    0    0    0     0       0          0
   em1: 1222066384847 3910652170    0    0    0     0          0     68072 871695752284 4129829194    0    0    0     0       0          0
    lo: 366728204 4092823    0    0    0     0          0         0 366728204 4092823    0    0    0     0       0          0
vethcf4ec5d: 2511202   31911    0    0    0     0          0         0  2913388   24989    0    0    0     0       0          0
vetha6684fa: 2527546   32122    0    0    0     0          0         0  2951538   25301    0    0    0     0       0          0
vethe418d91: 2549634   32411    0    0    0     0          0         0  2962847   25403    0    0    0     0       0          0
   em4:       0       0    0    0    0     0          0         0        0       0    0    0    0     0       0          0
docker_bridge: 1096786641 12921493    0    0    0     0          0         0 1045470933 10070905    0    0    0     0       0          0
   em3: 52630042949 837479157    0    0    0     0          0    110287 6000700973 5683561    0    0    0     0       0          0
vethb79b412: 2517910   31962    0    0    0     0          0         0  2918380   25024    0    0    0     0       0          0
veth31a4702: 2557292   32462    0    0    0     0          0         0  2964713   25437    0    0    0     0       0          0
vethf5aad1c: 2489816   31674    0    0    0     0          0         0  2903867   24901    0    0    0     0       0          0
docker0:   92981    1361    0    0    0     0          0         0 25539248    2063    0    0    0     0       0          0
   em2:       0       0    0    0    0     0          0         0        0       0    0    0    0     0       0          0
Inter-|   Receive                                                |  Transmit
 face |bytes    packets errs drop fifo frame compressed multicast|bytes    packets errs drop fifo colls carrier compressed
veth76538ff: 2505194   31879    0    0    0     0          0         0  2935498   25188    0    0    0     0       0          0
vethf8ca207: 2521878   32021    0    0    0     0          0         0  2931699   25133    0    0    0     0       0          0
veth760c0f4: 2535666   32288    0    0    0     0          0         0  2953799   25331    0    0    0     0       0          0
veth03fd896: 2530466   32222    0    0    0     0          0         0  2956363   25367    0    0    0     0       0          0
   em1: 1222066422915 3910652499    0    0    0     0          0     68072 871695783250 4129829581    0    0    0     0       0          0
    lo: 366728204 4092823    0    0    0     0          0         0 366728204 4092823    0    0    0     0       0          0
vethcf4ec5d: 2513552   31941    0    0    0     0          0         0  2916298   25014    0    0    0     0       0          0
vetha6684fa: 2530366   32158    0    0    0     0          0         0  2955030   25331    0    0    0     0       0          0
vethe418d91: 2552454   32447    0    0    0     0          0         0  2966339   25433    0    0    0     0       0          0
   em4:       0       0    0    0    0     0          0         0        0       0    0    0    0     0       0          0
docker_bridge: 1096809363 12921846    0    0    0     0          0         0 1045505271 10071200    0    0    0     0       0          0
   em3: 52630092398 837479805    0    0    0     0          0    110287 6000715530 5683625    0    0    0     0       0          0
vethb79b412: 2520730   31998    0    0    0     0          0         0  2921872   25054    0    0    0     0       0          0
veth31a4702: 2560112   32498    0    0    0     0          0         0  2968205   25467    0    0    0     0       0          0
vethf5aad1c: 2492636   31710    0    0    0     0          0         0  2907359   24931    0    0    0     0       0          0
docker0:   92981    1361    0    0    0     0          0         0 25539248    2063    0    0    0     0       0          0
   em2:       0       0    0    0    0     0          0         0        0       0    0    0    0     0       0          0
Inter-|   Receive                                                |  Transmit
 face |bytes    packets errs drop fifo frame compressed multicast|bytes    packets errs drop fifo colls carrier compressed
veth76538ff: 2507544   31909    0    0    0     0          0         0  2938408   25213    0    0    0     0       0          0
vethf8ca207: 2524228   32051    0    0    0     0          0         0  2934609   25158    0    0    0     0       0          0
veth760c0f4: 2538016   32318    0    0    0     0          0         0  2956709   25356    0    0    0     0       0          0
veth03fd896: 2532816   32252    0    0    0     0          0         0  2959273   25392    0    0    0     0       0          0
   em1: 1222066455457 3910652782    0    0    0     0          0     68073 871695809928 4129829911    0    0    0     0       0          0
    lo: 366728204 4092823    0    0    0     0          0         0 366728204 4092823    0    0    0     0       0          0
vethcf4ec5d: 2515836   31970    0    0    0     0          0         0  2919208   25039    0    0    0     0       0          0
vetha6684fa: 2532716   32188    0    0    0     0          0         0  2957940   25356    0    0    0     0       0          0
vethe418d91: 2554804   32477    0    0    0     0          0         0  2969249   25458    0    0    0     0       0          0
   em4:       0       0    0    0    0     0          0         0        0       0    0    0    0     0       0          0
docker_bridge: 1096827839 12922133    0    0    0     0          0         0 1045533207 10071440    0    0    0     0       0          0
   em3: 52630123423 837480119    0    0    0     0          0    110287 6000730757 5683694    0    0    0     0       0          0
vethb79b412: 2522610   32022    0    0    0     0          0         0  2924200   25074    0    0    0     0       0          0
veth31a4702: 2562462   32528    0    0    0     0          0         0  2971115   25492    0    0    0     0       0          0
vethf5aad1c: 2494516   31734    0    0    0     0          0         0  2909687   24951    0    0    0     0       0          0
docker0:   92981    1361    0    0    0     0          0         0 25539248    2063    0    0    0     0       0          0
   em2:       0       0    0    0    0     0          0         0        0       0    0    0    0     0       0          0
Inter-|   Receive                                                |  Transmit
 face |bytes    packets errs drop fifo frame compressed multicast|bytes    packets errs drop fifo colls carrier compressed
veth76538ff: 2509936   31940    0    0    0     0          0         0  2941360   25239    0    0    0     0       0          0
vethf8ca207: 2526620   32082    0    0    0     0          0         0  2937561   25184    0    0    0     0       0          0
veth760c0f4: 2540342   32348    0    0    0     0          0         0  2959661   25382    0    0    0     0       0          0
veth03fd896: 2535208   32283    0    0    0     0          0         0  2962225   25418    0    0    0     0       0          0
   em1: 1222066491093 3910653091    0    0    0     0          0     68073 871695838988 4129830271    0    0    0     0       0          0
    lo: 366728204 4092823    0    0    0     0          0         0 366728204 4092823    0    0    0     0       0          0
vethcf4ec5d: 2518698   32007    0    0    0     0          0         0  2922742   25070    0    0    0     0       0          0
vetha6684fa: 2535108   32219    0    0    0     0          0         0  2960892   25382    0    0    0     0       0          0
vethe418d91: 2557196   32508    0    0    0     0          0         0  2972201   25484    0    0    0     0       0          0
   em4:       0       0    0    0    0     0          0         0        0       0    0    0    0     0       0          0
docker_bridge: 1096848473 12922459    0    0    0     0          0         0 1045564473 10071715    0    0    0     0       0          0
   em3: 52630162970 837480570    0    0    0     0          0    110287 6000746464 5683769    0    0    0     0       0          0
vethb79b412: 2525472   32059    0    0    0     0          0         0  2927734   25105    0    0    0     0       0          0
veth31a4702: 2564854   32559    0    0    0     0          0         0  2974067   25518    0    0    0     0       0          0
vethf5aad1c: 2497312   31770    0    0    0     0          0         0  2913221   24982    0    0    0     0       0          0
docker0:   92981    1361    0    0    0     0          0         0 25539248    2063    0    0    0     0       0          0
   em2:       0       0    0    0    0     0          0         0        0       0    0    0    0     0       0          0
Inter-|   Receive                                                |  Transmit
 face |bytes    packets errs drop fifo frame compressed multicast|bytes    packets errs drop fifo colls carrier compressed
veth76538ff: 2512286   31970    0    0    0     0          0         0  2944270   25264    0    0    0     0       0          0
vethf8ca207: 2528970   32112    0    0    0     0          0         0  2940471   25209    0    0    0     0       0          0
veth760c0f4: 2542692   32378    0    0    0     0          0         0  2962571   25407    0    0    0     0       0          0
veth03fd896: 2537558   32313    0    0    0     0          0         0  2965135   25443    0    0    0     0       0          0
   em1: 1222066524771 3910653383    0    0    0     0          0     68073 871695866574 4129830613    0    0    0     0       0          0
    lo: 366728204 4092823    0    0    0     0          0         0 366728204 4092823    0    0    0     0       0          0
vethcf4ec5d: 2521048   32037    0    0    0     0          0         0  2925652   25095    0    0    0     0       0          0
vetha6684fa: 2537458   32249    0    0    0     0          0         0  2963802   25407    0    0    0     0       0          0
vethe418d91: 2559546   32538    0    0    0     0          0         0  2975111   25509    0    0    0     0       0          0
   em4:       0       0    0    0    0     0          0         0        0       0    0    0    0     0       0          0
docker_bridge: 1096867773 12922759    0    0    0     0          0         0 1045593573 10071965    0    0    0     0       0          0
   em3: 52630197514 837480954    0    0    0     0          0    110287 6000761567 5683836    0    0    0     0       0          0
vethb79b412: 2527822   32089    0    0    0     0          0         0  2930644   25130    0    0    0     0       0          0
veth31a4702: 2567204   32589    0    0    0     0          0         0  2976977   25543    0    0    0     0       0          0
vethf5aad1c: 2499662   31800    0    0    0     0          0         0  2916131   25007    0    0    0     0       0          0
docker0:   92981    1361    0    0    0     0          0         0 25539248    2063    0    0    0     0       0          0
   em2:       0       0    0    0    0     0          0         0        0       0    0    0    0     0       0          0
Inter-|   Receive                                                |  Transmit
 face |bytes    packets errs drop fifo frame compressed multicast|bytes    packets errs drop fifo colls carrier compressed
veth76538ff: 2512756   31976    0    0    0     0          0         0  2944852   25269    0    0    0     0       0          0
vethf8ca207: 2529440   32118    0    0    0     0          0         0  2941053   25214    0    0    0     0       0          0
veth760c0f4: 2543162   32384    0    0    0     0          0         0  2963153   25412    0    0    0     0       0          0
veth03fd896: 2538028   32319    0    0    0     0          0         0  2965717   25448    0    0    0     0       0          0
   em1: 1222066535169 3910653475    0    0    0     0          0     68073 871695875360 4129830715    0    0    0     0       0          0
    lo: 366728204 4092823    0    0    0     0          0         0 366728204 4092823    0    0    0     0       0          0
vethcf4ec5d: 2521518   32043    0    0    0     0          0         0  2926234   25100    0    0    0     0       0          0
vetha6684fa: 2537928   32255    0    0    0     0          0         0  2964384   25412    0    0    0     0       0          0
vethe418d91: 2560016   32544    0    0    0     0          0         0  2975693   25514    0    0    0     0       0          0
   em4:       0       0    0    0    0     0          0         0        0       0    0    0    0     0       0          0
docker_bridge: 1096871633 12922819    0    0    0     0          0         0 1045599393 10072015    0    0    0     0       0          0
   em3: 52630227435 837481270    0    0    0     0          0    110287 6000776670 5683903    0    0    0     0       0          0
vethb79b412: 2528292   32095    0    0    0     0          0         0  2931226   25135    0    0    0     0       0          0
veth31a4702: 2567674   32595    0    0    0     0          0         0  2977559   25548    0    0    0     0       0          0
vethf5aad1c: 2500132   31806    0    0    0     0          0         0  2916713   25012    0    0    0     0       0          0
docker0:   92981    1361    0    0    0     0          0         0 25539248    2063    0    0    0     0       0          0
   em2:       0       0    0    0    0     0          0         0        0       0    0    0    0     0       0          0
