PING 192.168.0.2:8013 (http://192.168.0.2):
connected to 192.168.0.2:8013 (248 bytes), seq=0 time=0.42 ms 200 OK
connected to 192.168.0.2:8013 (248 bytes), seq=1 time=0.41 ms 200 OK
connected to 192.168.0.2:8013 (248 bytes), seq=2 time=0.56 ms 200 OK
connected to 192.168.0.2:8013 (248 bytes), seq=3 time=0.65 ms 200 OK
connected to 192.168.0.2:8013 (248 bytes), seq=4 time=0.65 ms 200 OK
connected to 192.168.0.2:8013 (248 bytes), seq=5 time=0.47 ms 200 OK
connected to 192.168.0.2:8013 (248 bytes), seq=6 time=0.68 ms 200 OK
connected to 192.168.0.2:8013 (248 bytes), seq=7 time=0.65 ms 200 OK
connected to 192.168.0.2:8013 (248 bytes), seq=8 time=0.62 ms 200 OK
connected to 192.168.0.2:8013 (248 bytes), seq=9 time=0.52 ms 200 OK
connect time out
connect time out
connect time out
connect time out
connect time out
connect time out
connect time out
connect time out
connect time out
connect time out
connected to 192.168.0.2:8013 (248 bytes), seq=20 time=0.45 ms 200 OK
connected to 192.168.0.2:8013 (248 bytes), seq=21 time=0.57 ms 200 OK
connected to 192.168.0.2:8013 (248 bytes), seq=22 time=0.56 ms 200 OK
connected to 192.168.0.2:8013 (248 bytes), seq=23 time=0.57 ms 200 OK
connected to 192.168.0.2:8013 (248 bytes), seq=24 time=0.45 ms 200 OK
connected to 192.168.0.2:8013 (248 bytes), seq=25 time=0.57 ms 200 OK
timeout while receiving reply-headers from host
connect time out
connect time out
connect time out
connect time out
connect time out
connect time out
connected to 192.168.0.2:8013 (248 bytes), seq=33 time=0.56 ms 200 OK
connected to 192.168.0.2:8013 (248 bytes), seq=34 time=0.46 ms 200 OK
connected to 192.168.0.2:8013 (248 bytes), seq=35 time=0.38 ms 200 OK
connected to 192.168.0.2:8013 (248 bytes), seq=36 time=0.57 ms 200 OK
connected to 192.168.0.2:8013 (248 bytes), seq=37 time=0.68 ms 200 OK
connected to 192.168.0.2:8013 (248 bytes), seq=38 time=0.54 ms 200 OK
connected to 192.168.0.2:8013 (248 bytes), seq=39 time=0.49 ms 200 OK
connected to 192.168.0.2:8013 (248 bytes), seq=40 time=0.60 ms 200 OK
connected to 192.168.0.2:8013 (248 bytes), seq=41 time=0.63 ms 200 OK
connected to 192.168.0.2:8013 (248 bytes), seq=42 time=0.64 ms 200 OK
connected to 192.168.0.2:8013 (248 bytes), seq=43 time=0.61 ms 200 OK
connected to 192.168.0.2:8013 (248 bytes), seq=44 time=0.60 ms 200 OK
connected to 192.168.0.2:8013 (248 bytes), seq=45 time=0.60 ms 200 OK
connected to 192.168.0.2:8013 (248 bytes), seq=46 time=0.50 ms 200 OK
connected to 192.168.0.2:8013 (248 bytes), seq=47 time=0.51 ms 200 OK
connected to 192.168.0.2:8013 (248 bytes), seq=48 time=0.64 ms 200 OK
connected to 192.168.0.2:8013 (248 bytes), seq=49 time=0.52 ms 200 OK
connected to 192.168.0.2:8013 (248 bytes), seq=50 time=0.55 ms 200 OK
connected to 192.168.0.2:8013 (248 bytes), seq=51 time=1.09 ms 200 OK
connected to 192.168.0.2:8013 (248 bytes), seq=52 time=0.65 ms 200 OK
connected to 192.168.0.2:8013 (248 bytes), seq=53 time=0.60 ms 200 OK
connected to 192.168.0.2:8013 (248 bytes), seq=54 time=0.67 ms 200 OK
connected to 192.168.0.2:8013 (248 bytes), seq=55 time=0.45 ms 200 OK
connected to 192.168.0.2:8013 (248 bytes), seq=56 time=0.58 ms 200 OK
connected to 192.168.0.2:8013 (248 bytes), seq=57 time=0.60 ms 200 OK
connected to 192.168.0.2:8013 (248 bytes), seq=58 time=0.52 ms 200 OK
connected to 192.168.0.2:8013 (248 bytes), seq=59 time=0.52 ms 200 OK
connected to 192.168.0.2:8013 (248 bytes), seq=60 time=0.65 ms 200 OK
connected to 192.168.0.2:8013 (248 bytes), seq=61 time=0.52 ms 200 OK
connected to 192.168.0.2:8013 (248 bytes), seq=62 time=0.54 ms 200 OK
connected to 192.168.0.2:8013 (248 bytes), seq=63 time=0.58 ms 200 OK
connected to 192.168.0.2:8013 (248 bytes), seq=64 time=0.60 ms 200 OK
--- http://192.168.0.2 ping statistics ---
65 connects, 48 ok, 26.15% failed, time 81055ms
round-trip min/avg/max = 0.4/0.6/1.1 ms
