dedos08 1528580122 0.00 0.02 0.00 1/655 147898
dedos08 1528580128 0.00 0.02 0.00 2/657 148116
dedos08 1528580133 0.08 0.04 0.01 1/654 148333
dedos08 1528580138 0.08 0.04 0.00 2/660 148525
dedos08 1528580143 0.07 0.03 0.00 2/658 148745
dedos08 1528580149 0.06 0.03 0.00 2/659 148962
dedos08 1528580154 0.29 0.08 0.02 2/658 149180
dedos08 1528580159 0.27 0.08 0.02 2/655 149414
dedos08 1528580164 0.25 0.08 0.02 1/654 149633
dedos08 1528580170 0.23 0.08 0.02 2/661 149826
dedos08 1528580175 0.21 0.08 0.02 2/654 150078
dedos08 1528580180 0.19 0.07 0.02 1/654 150294
dedos08 1528580185 0.18 0.07 0.02 2/659 150482
dedos08 1528580191 0.16 0.07 0.02 1/654 150726
