# Generated by DoSarray v0.2 on 2018-06-09 17:37
# machine_name sequence : ['dedos01', 'dedos02', 'dedos03', 'dedos04', 'dedos05', 'dedos06', 'dedos07', 'dedos08']
# time, (min, avg, max)+
0 0.13 0.13 0.13 0.05 0.05 0.05 0.13 0.13 0.13 0.05 0.05 0.05 0.46 0.46 0.46 0.04 0.04 0.04 0.32 0.32 0.32 0.0 0.0 0.0 
5 0.12 0.12 0.12 0.05 0.05 0.05 0.12 0.12 0.12 0.04 0.04 0.04 0.42 0.42 0.42 0.04 0.04 0.04 0.29 0.29 0.29 0.0 0.0 0.0 
10 0.11 0.11 0.11 0.04 0.04 0.04 0.11 0.11 0.11 0.04 0.04 0.04 0.39 0.39 0.39 0.04 0.04 0.04 0.27 0.27 0.27 0.08 0.08 0.08 
15 0.1 0.1 0.1 0.04 0.04 0.04 0.1 0.1 0.1 0.03 0.03 0.03 0.36 0.36 0.36 0.03 0.03 0.03 0.25 0.25 0.25 0.08 0.08 0.08 
20 0.09 0.09 0.09 0.04 0.04 0.04 0.09 0.09 0.09 0.03 0.03 0.03 0.33 0.33 0.33 0.03 0.03 0.03 0.29 0.29 0.29 0.07 0.07 0.07 
25 0.09 0.09 0.09 0.03 0.03 0.03 0.08 0.08 0.08 0.03 0.03 0.03 0.3 0.3 0.3 0.03 0.03 0.03 0.51 0.51 0.51 0.06 0.06 0.06 
30 0.08 0.08 0.08 0.03 0.03 0.03 0.08 0.08 0.08 0.03 0.03 0.03 0.28 0.28 0.28 0.02 0.02 0.02 0.47 0.47 0.47 0.29 0.29 0.29 
35 0.07 0.07 0.07 0.03 0.03 0.03 0.07 0.07 0.07 0.02 0.02 0.02 0.26 0.26 0.26 0.26 0.26 0.26 0.43 0.43 0.43 0.27 0.27 0.27 
40 0.07 0.07 0.07 0.02 0.02 0.02 0.06 0.06 0.06 0.02 0.02 0.02 0.24 0.24 0.24 0.4 0.4 0.4 0.39 0.39 0.39 0.25 0.25 0.25 
45 0.06 0.06 0.06 0.02 0.02 0.02 0.06 0.06 0.06 0.02 0.02 0.02 0.22 0.22 0.22 0.37 0.37 0.37 0.36 0.36 0.36 0.23 0.23 0.23 
50 0.06 0.06 0.06 0.02 0.02 0.02 0.05 0.05 0.05 0.26 0.26 0.26 0.2 0.2 0.2 0.34 0.34 0.34 0.33 0.33 0.33 0.21 0.21 0.21 
55 0.05 0.05 0.05 0.02 0.02 0.02 0.05 0.05 0.05 0.4 0.4 0.4 0.18 0.18 0.18 0.31 0.31 0.31 0.31 0.31 0.31 0.19 0.19 0.19 
60 0.04 0.04 0.04 0.26 0.26 0.26 0.04 0.04 0.04 0.36 0.36 0.36 0.17 0.17 0.17 0.29 0.29 0.29 0.28 0.28 0.28 0.18 0.18 0.18 
65 0.04 0.04 0.04 0.4 0.4 0.4 0.04 0.04 0.04 0.34 0.34 0.34 0.22 0.22 0.22 0.26 0.26 0.26 0.26 0.26 0.26 0.16 0.16 0.16 
