# Generated by DoSarray v0.2 on 2018-06-09 17:37
# machine_name sequence : ['dedos01', 'dedos02', 'dedos03', 'dedos04', 'dedos05', 'dedos06', 'dedos07', 'dedos08']
# time, (min, avg, max)+
0 0 0.0 0 0 0.0 0 0 0.0 0 0 0.0 0 0 0.0 0 0 0.0 0 0 0.0 0 0 0.0 0 
5 2436 2436.0 2436 276 276.0 276 258 258.0 258 267 267.0 267 267 267.0 267 263 263.0 263 292 292.0 292 293 293.0 293 
10 7449 7449.0 7449 953 953.0 953 931 931.0 931 1032 1032.0 1032 842 842.0 842 528 528.0 528 581 581.0 581 555 555.0 555 
15 11394 11394.0 11394 1432 1432.0 1432 1376 1376.0 1376 1603 1603.0 1603 1211 1211.0 1211 616 616.0 616 627 627.0 627 605 605.0 605 
20 14552 14552.0 14552 1902 1902.0 1902 1847 1847.0 1847 2151 2151.0 2151 1577 1577.0 1577 691 691.0 691 662 662.0 662 650 650.0 650 
25 17820 17820.0 17820 2387 2387.0 2387 2310 2310.0 2310 2754 2754.0 2754 1967 1967.0 1967 772 772.0 772 722 722.0 722 693 693.0 693 
30 21677 21677.0 21677 3211 3211.0 3211 3041 3041.0 3041 3627 3627.0 3627 2543 2543.0 2543 935 935.0 935 849 849.0 849 846 846.0 846 
35 26552 26552.0 26552 4108 4108.0 4108 3873 3873.0 3873 4611 4611.0 4611 3217 3217.0 3217 1216 1216.0 1216 1107 1107.0 1107 1118 1118.0 1118 
40 29699 29699.0 29699 4531 4531.0 4531 4298 4298.0 4298 5127 5127.0 5127 3581 3581.0 3581 1314 1314.0 1314 1162 1162.0 1162 1166 1166.0 1166 
45 32107 32107.0 32107 4965 4965.0 4965 4742 4742.0 4742 5667 5667.0 5667 3930 3930.0 3930 1380 1380.0 1380 1205 1205.0 1205 1214 1214.0 1214 
50 36071 36071.0 36071 5567 5567.0 5567 5362 5362.0 5362 6357 6357.0 6357 4487 4487.0 4487 1616 1616.0 1616 1414 1414.0 1414 1423 1423.0 1423 
55 38334 38334.0 38334 5856 5856.0 5856 5629 5629.0 5629 6645 6645.0 6645 4760 4760.0 4760 1889 1889.0 1889 1724 1724.0 1724 1708 1708.0 1708 
60 40569 40569.0 40569 6158 6158.0 6158 5927 5927.0 5927 6930 6930.0 6930 5050 5050.0 5050 2200 2200.0 2200 2054 2054.0 2054 2048 2048.0 2048 
65 43122 43122.0 43122 6427 6427.0 6427 6200 6200.0 6200 7188 7188.0 7188 5337 5337.0 5337 2485 2485.0 2485 2352 2352.0 2352 2350 2350.0 2350 
