   em1: 1204944279533 3160578809    0 186848    0     0          0   1343422 1277518591097 3189961584    0    0    0     0       0          0
   em1: 1204944315160 3160579090    0 186848    0     0          0   1343425 1277518615830 3189961887    0    0    0     0       0          0
   em1: 1204945190758 3160583786    0 186848    0     0          0   1343428 1277519143416 3189968085    0    0    0     0       0          0
   em1: 1204950104463 3160610356    0 186848    0     0          0   1343431 1277522410412 3190007656    0    0    0     0       0          0
   em1: 1204957652889 3160650997    0 186848    0     0          0   1343433 1277527687289 3190072345    0    0    0     0       0          0
   em1: 1204968048483 3160708252    0 186848    0     0          0   1343436 1277534963073 3190161850    0    0    0     0       0          0
   em1: 1204974967115 3160748398    0 186848    0     0          0   1343438 1277539815449 3190221973    0    0    0     0       0          0
   em1: 1204984599094 3160801275    0 186848    0     0          0   1343441 1277546953904 3190310829    0    0    0     0       0          0
   em1: 1204989744294 3160833757    0 186848    0     0          0   1343443 1277550448477 3190354355    0    0    0     0       0          0
   em1: 1204998245699 3160879774    0 186848    0     0          0   1343446 1277556636565 3190431007    0    0    0     0       0          0
   em1: 1205002922873 3160907074    0 186848    0     0          0   1343449 1277560947518 3190487670    0    0    0     0       0          0
   em1: 1205003105041 3160909589    0 186848    0     0          0   1343451 1277561091363 3190490190    0    0    0     0       0          0
   em1: 1205003141577 3160909878    0 186848    0     0          0   1343454 1277561116460 3190490495    0    0    0     0       0          0
   em1: 1205003157504 3160910009    0 186848    0     0          0   1343456 1277561128067 3190490632    0    0    0     0       0          0
