# Generated by DoSarray v0.2 on 2018-06-09 17:35
0 0 0.0
0 1 0.0
0 2 0.0
0 3 3.0
0 4 28.999999999999996
0 5 37.0
0 6 31.0
0 7 0.0
0 8 0.0
0 9 0.0
0 10 0.0
1 0 0.0
1 1 0.0
1 2 0.0
1 3 0.0
1 4 14.000000000000002
1 5 40.0
1 6 40.0
1 7 6.0
1 8 0.0
1 9 0.0
1 10 0.0
2 0 0.0
2 1 0.0
2 2 0.0
2 3 0.0
2 4 26.0
2 5 37.0
2 6 28.999999999999996
2 7 8.0
2 8 0.0
2 9 0.0
2 10 0.0
3 0 0.0
3 1 0.0
3 2 0.0
3 3 2.0
3 4 15.0
3 5 43.0
3 6 37.0
3 7 3.0
3 8 0.0
3 9 0.0
3 10 0.0
4 0 0.0
4 1 0.0
4 2 0.0
4 3 0.0
4 4 23.0
4 5 38.0
4 6 34.0
4 7 3.0
4 8 2.0
4 9 0.0
4 10 0.0
5 0 0.0
5 1 0.0
5 2 0.0
5 3 8.0
5 4 20.0
5 5 42.0
5 6 26.0
5 7 2.0
5 8 3.0
5 9 0.0
5 10 0.0
6 0 0.0
6 1 0.0
6 2 0.0
6 3 0.0
6 4 11.0
6 5 42.0
6 6 43.0
6 7 5.0
6 8 0.0
6 9 0.0
6 10 0.0
7 0 0.0
7 1 0.0
7 2 0.0
7 3 2.0
7 4 31.0
7 5 38.0
7 6 26.0
7 7 3.0
7 8 0.0
7 9 0.0
7 10 0.0
8 0 0.0
8 1 0.0
8 2 0.0
8 3 0.0
8 4 14.000000000000002
8 5 51.0
8 6 31.0
8 7 3.0
8 8 2.0
8 9 0.0
8 10 0.0
9 0 0.0
9 1 0.0
9 2 0.0
9 3 2.0
9 4 23.0
9 5 42.0
9 6 28.999999999999996
9 7 5.0
9 8 0.0
9 9 0.0
9 10 0.0
10 0 0.0
10 1 0.0
10 2 0.0
10 3 3.0
10 4 14.000000000000002
10 5 23.0
10 6 18.0
10 7 2.0
10 8 0.0
10 9 0.0
10 10 0.0
13 0 0.0
13 1 0.0
13 2 0.0
13 3 8.0
13 4 20.0
13 5 32.0
13 6 11.0
13 7 2.0
13 8 0.0
13 9 0.0
13 10 0.0
15 0 0.0
15 1 0.0
15 2 0.0
15 3 0.0
15 4 0.0
15 5 2.0
15 6 0.0
15 7 2.0
15 8 0.0
15 9 0.0
15 10 0.0
16 0 0.0
16 1 0.0
16 2 0.0
16 3 9.0
16 4 12.0
16 5 11.0
16 6 6.0
16 7 2.0
16 8 0.0
16 9 0.0
16 10 0.0
17 0 0.0
17 1 0.0
17 2 0.0
17 3 23.0
17 4 28.999999999999996
17 5 28.999999999999996
17 6 17.0
17 7 2.0
17 8 0.0
17 9 0.0
17 10 0.0
18 0 0.0
18 1 0.0
18 2 0.0
18 3 22.0
18 4 37.0
18 5 23.0
18 6 12.0
18 7 2.0
18 8 3.0
18 9 2.0
18 10 0.0
19 0 0.0
19 1 0.0
19 2 0.0
19 3 22.0
19 4 34.0
19 5 25.0
19 6 15.0
19 7 2.0
19 8 0.0
19 9 0.0
19 10 0.0
20 0 0.0
20 1 0.0
20 2 0.0
20 3 28.000000000000004
20 4 20.0
20 5 5.0
20 6 5.0
20 7 5.0
20 8 0.0
20 9 0.0
20 10 0.0
22 0 0.0
22 1 0.0
22 2 0.0
22 3 3.0
22 4 3.0
22 5 6.0
22 6 3.0
22 7 0.0
22 8 0.0
22 9 0.0
22 10 0.0
23 0 0.0
23 1 0.0
23 2 0.0
23 3 6.0
23 4 12.0
23 5 15.0
23 6 9.0
23 7 3.0
23 8 9.0
23 9 2.0
23 10 0.0
25 0 0.0
25 1 0.0
25 2 0.0
25 3 0.0
25 4 8.0
25 5 9.0
25 6 3.0
25 7 0.0
25 8 0.0
25 9 0.0
25 10 2.0
26 0 0.0
26 1 0.0
26 2 0.0
26 3 3.0
26 4 12.0
26 5 17.0
26 6 6.0
26 7 5.0
26 8 0.0
26 9 0.0
26 10 0.0
27 0 0.0
27 1 0.0
27 2 0.0
27 3 5.0
27 4 28.000000000000004
27 5 31.0
27 6 12.0
27 7 9.0
27 8 12.0
27 9 2.0
27 10 0.0
28 0 0.0
28 1 0.0
28 2 0.0
28 3 15.0
28 4 28.999999999999996
28 5 35.0
28 6 18.0
28 7 0.0
28 8 0.0
28 9 0.0
28 10 0.0
29 0 0.0
29 1 0.0
29 2 0.0
29 3 2.0
29 4 22.0
29 5 22.0
29 6 11.0
29 7 2.0
29 8 2.0
29 9 0.0
29 10 0.0
31 0 0.0
31 1 0.0
31 2 0.0
31 3 0.0
31 4 2.0
31 5 2.0
31 6 0.0
31 7 0.0
31 8 2.0
31 9 0.0
31 10 0.0
32 0 0.0
32 1 0.0
32 2 0.0
32 3 3.0
32 4 15.0
32 5 15.0
32 6 12.0
32 7 2.0
32 8 0.0
32 9 0.0
32 10 0.0
33 0 0.0
33 1 0.0
33 2 0.0
33 3 14.000000000000002
33 4 28.999999999999996
33 5 32.0
33 6 15.0
33 7 8.0
33 8 0.0
33 9 0.0
33 10 0.0
34 0 0.0
34 1 0.0
34 2 0.0
34 3 6.0
34 4 11.0
34 5 15.0
34 6 17.0
34 7 5.0
34 8 2.0
34 9 0.0
34 10 0.0
35 0 0.0
35 1 0.0
35 2 0.0
35 3 0.0
35 4 0.0
35 5 0.0
35 6 0.0
35 7 0.0
35 8 2.0
35 9 0.0
35 10 0.0
36 0 0.0
36 1 0.0
36 2 0.0
36 3 2.0
36 4 5.0
36 5 14.000000000000002
36 6 12.0
36 7 2.0
36 8 5.0
36 9 2.0
36 10 0.0
37 0 0.0
37 1 0.0
37 2 0.0
37 3 0.0
37 4 12.0
37 5 20.0
37 6 20.0
37 7 9.0
37 8 14.000000000000002
37 9 12.0
37 10 2.0
38 0 0.0
38 1 0.0
38 2 0.0
38 3 5.0
38 4 35.0
38 5 25.0
38 6 22.0
38 7 6.0
38 8 6.0
38 9 0.0
38 10 0.0
39 0 0.0
39 1 0.0
39 2 0.0
39 3 9.0
39 4 22.0
39 5 32.0
39 6 20.0
39 7 8.0
39 8 5.0
39 9 3.0
39 10 0.0
40 0 0.0
40 1 0.0
40 2 0.0
40 3 11.0
40 4 32.0
40 5 31.0
40 6 20.0
40 7 5.0
40 8 0.0
40 9 0.0
40 10 0.0
41 0 0.0
41 1 0.0
41 2 0.0
41 3 2.0
41 4 31.0
41 5 28.000000000000004
41 6 28.000000000000004
41 7 6.0
41 8 3.0
41 9 2.0
41 10 0.0
42 0 0.0
42 1 0.0
42 2 0.0
42 3 3.0
42 4 23.0
42 5 28.999999999999996
42 6 31.0
42 7 9.0
42 8 5.0
42 9 0.0
42 10 0.0
43 0 0.0
43 1 0.0
43 2 0.0
43 3 5.0
43 4 15.0
43 5 35.0
43 6 26.0
43 7 8.0
43 8 9.0
43 9 2.0
43 10 0.0
44 0 0.0
44 1 0.0
44 2 0.0
44 3 9.0
44 4 25.0
44 5 32.0
44 6 25.0
44 7 6.0
44 8 0.0
44 9 0.0
44 10 0.0
45 0 0.0
45 1 0.0
45 2 0.0
45 3 11.0
45 4 28.999999999999996
45 5 28.999999999999996
45 6 25.0
45 7 2.0
45 8 3.0
45 9 0.0
45 10 0.0
46 0 0.0
46 1 0.0
46 2 0.0
46 3 12.0
46 4 32.0
46 5 32.0
46 6 14.000000000000002
46 7 9.0
46 8 0.0
46 9 0.0
46 10 0.0
47 0 0.0
47 1 0.0
47 2 0.0
47 3 8.0
47 4 35.0
47 5 28.999999999999996
47 6 22.0
47 7 6.0
47 8 0.0
47 9 0.0
47 10 0.0
48 0 0.0
48 1 0.0
48 2 0.0
48 3 6.0
48 4 31.0
48 5 28.999999999999996
48 6 23.0
48 7 6.0
48 8 2.0
48 9 2.0
48 10 0.0
49 0 0.0
49 1 0.0
49 2 0.0
49 3 9.0
49 4 40.0
49 5 28.000000000000004
49 6 14.000000000000002
49 7 6.0
49 8 2.0
49 9 2.0
49 10 0.0
50 0 0.0
50 1 0.0
50 2 2.0
50 3 6.0
50 4 28.999999999999996
50 5 32.0
50 6 12.0
50 7 11.0
50 8 6.0
50 9 0.0
50 10 2.0
51 0 0.0
51 1 0.0
51 2 0.0
51 3 11.0
51 4 37.0
51 5 34.0
51 6 14.000000000000002
51 7 2.0
51 8 2.0
51 9 0.0
51 10 0.0
52 0 0.0
52 1 0.0
52 2 0.0
52 3 8.0
52 4 28.000000000000004
52 5 28.999999999999996
52 6 22.0
52 7 12.0
52 8 2.0
52 9 0.0
52 10 0.0
53 0 0.0
53 1 0.0
53 2 0.0
53 3 18.0
53 4 35.0
53 5 23.0
53 6 15.0
53 7 3.0
53 8 3.0
53 9 0.0
53 10 0.0
54 0 0.0
54 1 0.0
54 2 0.0
54 3 17.0
54 4 37.0
54 5 28.000000000000004
54 6 9.0
54 7 5.0
54 8 0.0
54 9 0.0
54 10 0.0
55 0 0.0
55 1 0.0
55 2 0.0
55 3 14.000000000000002
55 4 40.0
55 5 26.0
55 6 11.0
55 7 5.0
55 8 3.0
55 9 0.0
55 10 0.0
56 0 0.0
56 1 0.0
56 2 0.0
56 3 14.000000000000002
56 4 35.0
56 5 28.000000000000004
56 6 18.0
56 7 3.0
56 8 0.0
56 9 2.0
56 10 0.0
57 0 0.0
57 1 0.0
57 2 0.0
57 3 12.0
57 4 28.999999999999996
57 5 37.0
57 6 15.0
57 7 3.0
57 8 2.0
57 9 2.0
57 10 0.0
58 0 0.0
58 1 0.0
58 2 0.0
58 3 20.0
58 4 34.0
58 5 20.0
58 6 23.0
58 7 3.0
58 8 0.0
58 9 0.0
58 10 0.0
59 0 0.0
59 1 0.0
59 2 0.0
59 3 6.0
59 4 28.999999999999996
59 5 28.999999999999996
59 6 32.0
59 7 0.0
59 8 2.0
59 9 2.0
59 10 0.0
60 0 0.0
60 1 0.0
60 2 0.0
60 3 11.0
60 4 28.999999999999996
60 5 38.0
60 6 15.0
60 7 3.0
60 8 3.0
60 9 0.0
60 10 0.0
61 0 0.0
61 1 0.0
61 2 0.0
61 3 9.0
61 4 28.999999999999996
61 5 35.0
61 6 18.0
61 7 6.0
61 8 2.0
61 9 0.0
61 10 0.0
62 0 0.0
62 1 0.0
62 2 0.0
62 3 15.0
62 4 34.0
62 5 31.0
62 6 17.0
62 7 3.0
62 8 0.0
62 9 0.0
62 10 0.0
63 0 0.0
63 1 0.0
63 2 0.0
63 3 9.0
63 4 35.0
63 5 28.999999999999996
63 6 17.0
63 7 6.0
63 8 2.0
63 9 0.0
63 10 0.0
