dedos06 1528579979 MemTotal: 65725704 kB MemFree: 48596008 kB MemAvailable: 64237556 kB
dedos06 1528579984 MemTotal: 65725704 kB MemFree: 48597232 kB MemAvailable: 64238820 kB
dedos06 1528579989 MemTotal: 65725704 kB MemFree: 48560820 kB MemAvailable: 64203368 kB
dedos06 1528579994 MemTotal: 65725704 kB MemFree: 48559456 kB MemAvailable: 64201428 kB
dedos06 1528580000 MemTotal: 65725704 kB MemFree: 48561408 kB MemAvailable: 64203380 kB
dedos06 1528580005 MemTotal: 65725704 kB MemFree: 48559980 kB MemAvailable: 64201956 kB
dedos06 1528580010 MemTotal: 65725704 kB MemFree: 48559020 kB MemAvailable: 64200996 kB
dedos06 1528580015 MemTotal: 65725704 kB MemFree: 48559060 kB MemAvailable: 64201036 kB
dedos06 1528580020 MemTotal: 65725704 kB MemFree: 48562244 kB MemAvailable: 64204192 kB
dedos06 1528580026 MemTotal: 65725704 kB MemFree: 48558892 kB MemAvailable: 64200840 kB
dedos06 1528580031 MemTotal: 65725704 kB MemFree: 48608668 kB MemAvailable: 64250620 kB
dedos06 1528580036 MemTotal: 65725704 kB MemFree: 48608660 kB MemAvailable: 64250612 kB
dedos06 1528580041 MemTotal: 65725704 kB MemFree: 48607304 kB MemAvailable: 64249256 kB
dedos06 1528580047 MemTotal: 65725704 kB MemFree: 48607472 kB MemAvailable: 64249424 kB
