   em1: 764234661 8643565    0    0    0     0          0     16989 1738270715 9437137    0    0    0     0       0          0
   em1: 764266282 8643836    0    0    0     0          0     16991 1738295288 9437439    0    0    0     0       0          0
   em1: 764452831 8645093    0    0    0     0          0     16991 1738433576 9439071    0    0    0     0       0          0
   em1: 764488630 8645534    0    0    0     0          0     16991 1738471285 9439589    0    0    0     0       0          0
   em1: 764499697 8645632    0    0    0     0          0     16991 1738483900 9439740    0    0    0     0       0          0
   em1: 764525732 8645856    0    0    0     0          0     16991 1738506797 9440019    0    0    0     0       0          0
   em1: 764536771 8645950    0    0    0     0          0     16991 1738517982 9440155    0    0    0     0       0          0
   em1: 764557744 8646129    0    0    0     0          0     16991 1738535295 9440365    0    0    0     0       0          0
   em1: 764566709 8646208    0    0    0     0          0     16991 1738546212 9440498    0    0    0     0       0          0
   em1: 764587822 8646394    0    0    0     0          0     16992 1738565419 9440727    0    0    0     0       0          0
   em1: 764611089 8646592    0    0    0     0          0     16994 1738607354 9441300    0    0    0     0       0          0
   em1: 764643290 8646865    0    0    0     0          0     16994 1738631879 9441600    0    0    0     0       0          0
   em1: 764673339 8647126    0    0    0     0          0     16994 1738655206 9441887    0    0    0     0       0          0
   em1: 764704920 8647397    0    0    0     0          0     16994 1738679911 9442190    0    0    0     0       0          0
