# Generated by DoSarray v0.2 on 2018-06-09 17:34
# machine_name sequence : ['dedos01', 'dedos02', 'dedos03', 'dedos04', 'dedos05', 'dedos06', 'dedos07', 'dedos08']
# time, (min, avg, max)+
0 0.09 0.09 0.09 0.22 0.22 0.22 0.08 0.08 0.08 0.66 0.66 0.66 0.13 0.13 0.13 0.12 0.12 0.12 0.06 0.06 0.06 0.08 0.08 0.08 
5 0.32 0.32 0.32 0.2 0.2 0.2 0.15 0.15 0.15 0.64 0.64 0.64 0.12 0.12 0.12 0.11 0.11 0.11 0.05 0.05 0.05 0.08 0.08 0.08 
10 1.65 1.65 1.65 0.19 0.19 0.19 0.14 0.14 0.14 0.59 0.59 0.59 0.11 0.11 0.11 0.1 0.1 0.1 0.05 0.05 0.05 0.07 0.07 0.07 
15 1.52 1.52 1.52 0.17 0.17 0.17 0.13 0.13 0.13 0.54 0.54 0.54 0.1 0.1 0.1 0.09 0.09 0.09 0.04 0.04 0.04 0.06 0.06 0.06 
20 1.4 1.4 1.4 0.46 0.46 0.46 0.12 0.12 0.12 0.5 0.5 0.5 0.24 0.24 0.24 0.08 0.08 0.08 0.04 0.04 0.04 0.06 0.06 0.06 
25 1.29 1.29 1.29 0.51 0.51 0.51 0.19 0.19 0.19 0.46 0.46 0.46 0.54 0.54 0.54 0.08 0.08 0.08 0.04 0.04 0.04 0.05 0.05 0.05 
30 1.18 1.18 1.18 0.47 0.47 0.47 0.25 0.25 0.25 0.42 0.42 0.42 0.58 0.58 0.58 0.07 0.07 0.07 0.03 0.03 0.03 0.05 0.05 0.05 
35 1.09 1.09 1.09 0.43 0.43 0.43 0.31 0.31 0.31 0.39 0.39 0.39 0.53 0.53 0.53 0.07 0.07 0.07 0.03 0.03 0.03 0.04 0.04 0.04 
40 1.0 1.0 1.0 0.39 0.39 0.39 0.37 0.37 0.37 0.36 0.36 0.36 0.49 0.49 0.49 0.06 0.06 0.06 0.03 0.03 0.03 0.04 0.04 0.04 
45 0.92 0.92 0.92 0.36 0.36 0.36 0.62 0.62 0.62 0.33 0.33 0.33 0.45 0.45 0.45 0.06 0.06 0.06 0.02 0.02 0.02 0.04 0.04 0.04 
50 0.85 0.85 0.85 0.33 0.33 0.33 0.81 0.81 0.81 0.3 0.3 0.3 0.42 0.42 0.42 0.05 0.05 0.05 0.02 0.02 0.02 0.03 0.03 0.03 
55 0.78 0.78 0.78 0.31 0.31 0.31 0.75 0.75 0.75 0.28 0.28 0.28 0.38 0.38 0.38 0.05 0.05 0.05 0.02 0.02 0.02 0.03 0.03 0.03 
60 0.72 0.72 0.72 0.28 0.28 0.28 0.68 0.68 0.68 0.25 0.25 0.25 0.35 0.35 0.35 0.04 0.04 0.04 0.02 0.02 0.02 0.03 0.03 0.03 
65 0.66 0.66 0.66 0.26 0.26 0.26 0.63 0.63 0.63 0.23 0.23 0.23 0.32 0.32 0.32 0.04 0.04 0.04 0.02 0.02 0.02 0.03 0.03 0.03 
