# Generated by DoSarray v0.2 on 2018-06-09 17:34
# machine_name sequence : ['dedos01', 'dedos02', 'dedos03', 'dedos04', 'dedos05', 'dedos06', 'dedos07', 'dedos08']
# time, (min, avg, max)+
0 0.0214332584403 0.0214332584403 0.0214332584403 0.0349420677183 0.0349420677183 0.0349420677183 0.0231531335138 0.0231531335138 0.0231531335138 0.0222605146991 0.0222605146991 0.0222605146991 0.0221084280817 0.0221084280817 0.0221084280817 0.022641796275 0.022641796275 0.022641796275 0.0219194000569 0.0219194000569 0.0219194000569 0.0221647226479 0.0221647226479 0.0221647226479 
5 0.0214471951491 0.0214471951491 0.0214471951491 0.0349546046703 0.0349546046703 0.0349546046703 0.0231757121993 0.0231757121993 0.0231757121993 0.0222785898193 0.0222785898193 0.0222785898193 0.0221288767025 0.0221288767025 0.0221288767025 0.022622564834 0.022622564834 0.022622564834 0.0219538462456 0.0219538462456 0.0219538462456 0.0221400138978 0.0221400138978 0.0221400138978 
10 0.0219207389547 0.0219207389547 0.0219207389547 0.0355272269126 0.0355272269126 0.0355272269126 0.023713523099 0.023713523099 0.023713523099 0.0227524987789 0.0227524987789 0.0227524987789 0.022622625693 0.022622625693 0.022622625693 0.0231619580674 0.0231619580674 0.0231619580674 0.0219500121292 0.0219500121292 0.0219500121292 0.0221741557915 0.0221741557915 0.0221741557915 
15 0.0226667484612 0.0226667484612 0.0226667484612 0.0357870339434 0.0357870339434 0.0357870339434 0.0237283118337 0.0237283118337 0.0237283118337 0.0227812850814 0.0227812850814 0.0227812850814 0.0226108799078 0.0226108799078 0.0226108799078 0.0231914746779 0.0231914746779 0.0231914746779 0.0219690001343 0.0219690001343 0.0219690001343 0.0221797548186 0.0221797548186 0.0221797548186 
20 0.0229398836108 0.0229398836108 0.0229398836108 0.0358718713762 0.0358718713762 0.0358718713762 0.0239621320755 0.0239621320755 0.0239621320755 0.0227996644966 0.0227996644966 0.0227996644966 0.0226396662103 0.0226396662103 0.0226396662103 0.0231617754905 0.0231617754905 0.0231617754905 0.0219783115598 0.0219783115598 0.0219783115598 0.0221437871552 0.0221437871552 0.0221437871552 
25 0.0233207391738 0.0233207391738 0.0233207391738 0.0358691327217 0.0358691327217 0.0358691327217 0.0236759731018 0.0236759731018 0.0236759731018 0.0228134186284 0.0228134186284 0.0228134186284 0.0225889706712 0.0225889706712 0.0225889706712 0.0231834412911 0.0231834412911 0.0231834412911 0.021996143244 0.021996143244 0.021996143244 0.0221156703015 0.0221156703015 0.0221156703015 
30 0.0239369364534 0.0239369364534 0.0239369364534 0.0361487189243 0.0361487189243 0.0361487189243 0.0239028554186 0.0239028554186 0.0239028554186 0.0227603495886 0.0227603495886 0.0227603495886 0.0225781377709 0.0225781377709 0.0225781377709 0.0231980474488 0.0231980474488 0.0231980474488 0.0219095409005 0.0219095409005 0.0219095409005 0.0221302764593 0.0221302764593 0.0221302764593 
35 0.0240015687013 0.0240015687013 0.0240015687013 0.0361356951004 0.0361356951004 0.0361356951004 0.0237480301466 0.0237480301466 0.0237480301466 0.022790535648 0.022790535648 0.022790535648 0.0226169049479 0.0226169049479 0.0226169049479 0.0231974388589 0.0231974388589 0.0231974388589 0.0219590192598 0.0219590192598 0.0219590192598 0.0221624708653 0.0221624708653 0.0221624708653 
40 0.0241766600172 0.0241766600172 0.0241766600172 0.0359670548375 0.0359670548375 0.0359670548375 0.0237300158854 0.0237300158854 0.0237300158854 0.0227845106079 0.0227845106079 0.0227845106079 0.0225796592456 0.0225796592456 0.0225796592456 0.0231494211154 0.0231494211154 0.0231494211154 0.0219526290658 0.0219526290658 0.0219526290658 0.022203307248 0.022203307248 0.022203307248 
45 0.0235823111153 0.0235823111153 0.0235823111153 0.035937781663 0.035937781663 0.035937781663 0.0237563069693 0.0237563069693 0.0237563069693 0.0227728865407 0.0227728865407 0.0227728865407 0.0226217736671 0.0226217736671 0.0226217736671 0.0232004209495 0.0232004209495 0.0232004209495 0.0219277377386 0.0219277377386 0.0219277377386 0.0221843192429 0.0221843192429 0.0221843192429 
50 0.0227511598811 0.0227511598811 0.0227511598811 0.0348648376593 0.0348648376593 0.0348648376593 0.0230597758223 0.0230597758223 0.0230597758223 0.0223801634746 0.0223801634746 0.0223801634746 0.02191921748 0.02191921748 0.02191921748 0.0224430308118 0.0224430308118 0.0224430308118 0.0219427090503 0.0219427090503 0.0219427090503 0.0221812762934 0.0221812762934 0.0221812762934 
55 0.0227347279536 0.0227347279536 0.0227347279536 0.0348642899283 0.0348642899283 0.0348642899283 0.0230766337626 0.0230766337626 0.0230766337626 0.0222033681069 0.0222033681069 0.0222033681069 0.021931997868 0.021931997868 0.021931997868 0.0224431525298 0.0224431525298 0.0224431525298 0.0219307806882 0.0219307806882 0.0219307806882 0.0221820066013 0.0221820066013 0.0221820066013 
60 0.0227459260079 0.0227459260079 0.0227459260079 0.0348330692662 0.0348330692662 0.0348330692662 0.0230700001327 0.0230700001327 0.0230700001327 0.0222636793666 0.0222636793666 0.0222636793666 0.0219722865197 0.0219722865197 0.0219722865197 0.0224637837276 0.0224637837276 0.0224637837276 0.021970704186 0.021970704186 0.021970704186 0.0221410485006 0.0221410485006 0.0221410485006 
65 0.0227532899457 0.0227532899457 0.0227532899457 0.0348351993308 0.0348351993308 0.0348351993308 0.0230528378973 0.0230528378973 0.0230528378973 0.0221980733748 0.0221980733748 0.0221980733748 0.0219724690967 0.0219724690967 0.0219724690967 0.02246122765 0.02246122765 0.02246122765 0.0219681481084 0.0219681481084 0.0219681481084 0.0221742166505 0.0221742166505 0.0221742166505 
