dedos03 1528579834 0.00 0.00 0.00 4/643 164652
dedos03 1528579840 0.00 0.00 0.00 3/649 164882
dedos03 1528579845 0.00 0.00 0.00 4/669 165123
dedos03 1528579850 0.08 0.02 0.01 2/662 165367
dedos03 1528579855 0.15 0.03 0.01 3/668 165584
dedos03 1528579860 0.22 0.05 0.02 5/672 165769
dedos03 1528579866 0.28 0.07 0.02 3/668 166018
dedos03 1528579871 0.34 0.08 0.03 3/668 166234
dedos03 1528579876 0.39 0.10 0.03 3/667 166431
dedos03 1528579881 0.44 0.11 0.04 4/672 166639
dedos03 1528579887 0.49 0.13 0.04 3/628 166931
dedos03 1528579892 0.45 0.12 0.04 1/620 167148
dedos03 1528579897 0.41 0.12 0.04 2/624 167355
dedos03 1528579902 0.38 0.12 0.04 3/632 167543
