# Generated by DoSarray v0.2 on 2018-06-09 17:31
# machine_name sequence : ['dedos01', 'dedos02', 'dedos03', 'dedos04', 'dedos05', 'dedos06', 'dedos07', 'dedos08']
# time, (min, avg, max)+
0 0.0206750771357 0.0206750771357 0.0206750771357 0.034982478088 0.034982478088 0.034982478088 0.0235995950686 0.0235995950686 0.0235995950686 0.0228041680619 0.0228041680619 0.0228041680619 0.0226231125649 0.0226231125649 0.0226231125649 0.0226457521094 0.0226457521094 0.0226457521094 0.0222921613742 0.0222921613742 0.0222921613742 0.0223221648565 0.0223221648565 0.0223221648565 
5 0.0206964995004 0.0206964995004 0.0206964995004 0.0352099081358 0.0352099081358 0.0352099081358 0.0238660965883 0.0238660965883 0.0238660965883 0.0231175918633 0.0231175918633 0.0231175918633 0.0221607668135 0.0221607668135 0.0221607668135 0.0224846583614 0.0224846583614 0.0224846583614 0.0220307720097 0.0220307720097 0.0220307720097 0.0220939436419 0.0220939436419 0.0220939436419 
10 0.0207404396916 0.0207404396916 0.0207404396916 0.0356945891367 0.0356945891367 0.0356945891367 0.0245620191455 0.0245620191455 0.0245620191455 0.0238125406766 0.0238125406766 0.0238125406766 0.0228526118184 0.0228526118184 0.0228526118184 0.0231867276766 0.0231867276766 0.0231867276766 0.0220439784106 0.0220439784106 0.0220439784106 0.0220929090391 0.0220929090391 0.0220929090391 
15 0.0211586626748 0.0211586626748 0.0211586626748 0.0357410245465 0.0357410245465 0.0357410245465 0.0245964653342 0.0245964653342 0.0245964653342 0.0238455871085 0.0238455871085 0.0238455871085 0.0228279639272 0.0228279639272 0.0228279639272 0.0231433960753 0.0231433960753 0.0231433960753 0.021983788869 0.021983788869 0.021983788869 0.0220905963974 0.0220905963974 0.0220905963974 
20 0.0211850754767 0.0211850754767 0.0211850754767 0.0357482667664 0.0357482667664 0.0357482667664 0.0240514122146 0.0240514122146 0.0240514122146 0.023261219081 0.023261219081 0.023261219081 0.0228758599528 0.0228758599528 0.0228758599528 0.0232062634126 0.0232062634126 0.0232062634126 0.0220360667419 0.0220360667419 0.0220360667419 0.0220841453444 0.0220841453444 0.0220841453444 
25 0.0211928045685 0.0211928045685 0.0211928045685 0.0357614123083 0.0357614123083 0.0357614123083 0.0240404575963 0.0240404575963 0.0240404575963 0.0232693741858 0.0232693741858 0.0232693741858 0.0229176092203 0.0229176092203 0.0229176092203 0.0231561156043 0.0231561156043 0.0231561156043 0.0219865275235 0.0219865275235 0.0219865275235 0.0220850582293 0.0220850582293 0.0220850582293 
30 0.0212228689099 0.0212228689099 0.0212228689099 0.0357257489399 0.0357257489399 0.0357257489399 0.024061636525 0.024061636525 0.024061636525 0.023281059112 0.023281059112 0.023281059112 0.0228989863692 0.0228989863692 0.0228989863692 0.0231922049857 0.0231922049857 0.0231922049857 0.0220371622037 0.0220371622037 0.0220371622037 0.0220776334324 0.0220776334324 0.0220776334324 
35 0.0214202954753 0.0214202954753 0.0214202954753 0.0357943370222 0.0357943370222 0.0357943370222 0.0240962044317 0.0240962044317 0.0240962044317 0.0232934134871 0.0232934134871 0.0232934134871 0.0229068980379 0.0229068980379 0.0229068980379 0.0231978648719 0.0231978648719 0.0231978648719 0.0220421526409 0.0220421526409 0.0220421526409 0.0220898052305 0.0220898052305 0.0220898052305 
40 0.0214372142746 0.0214372142746 0.0214372142746 0.0357796091465 0.0357796091465 0.0357796091465 0.024042526802 0.024042526802 0.024042526802 0.0233161138905 0.0233161138905 0.0233161138905 0.0228633838597 0.0228633838597 0.0228633838597 0.0231553244375 0.0231553244375 0.0231553244375 0.0220380142296 0.0220380142296 0.0220380142296 0.022086762281 0.022086762281 0.022086762281 
45 0.0214441521996 0.0214441521996 0.0214441521996 0.0358145422071 0.0358145422071 0.0358145422071 0.0240516556506 0.0240516556506 0.0240516556506 0.0233186699681 0.0233186699681 0.0233186699681 0.0229089672436 0.0229089672436 0.0229089672436 0.0231965259741 0.0231965259741 0.0231965259741 0.0220299199838 0.0220299199838 0.0220299199838 0.0220604103381 0.0220604103381 0.0220604103381 
50 0.0214233992838 0.0214233992838 0.0214233992838 0.0349033614003 0.0349033614003 0.0349033614003 0.0232435699738 0.0232435699738 0.0232435699738 0.0223957433761 0.0223957433761 0.0223957433761 0.0220773899965 0.0220773899965 0.0220773899965 0.0223979951588 0.0223979951588 0.0223979951588 0.0220358233059 0.0220358233059 0.0220358233059 0.0220983254892 0.0220983254892 0.0220983254892 
55 0.0214182871286 0.0214182871286 0.0214182871286 0.0349029353873 0.0349029353873 0.0349029353873 0.023216366005 0.023216366005 0.023216366005 0.0223801026156 0.0223801026156 0.0223801026156 0.022099907823 0.022099907823 0.022099907823 0.0224405964522 0.0224405964522 0.0224405964522 0.0220266944573 0.0220266944573 0.0220266944573 0.0221084889406 0.0221084889406 0.0221084889406 
60 0.0214113492037 0.0214113492037 0.0214113492037 0.0348933805258 0.0348933805258 0.0348933805258 0.023255072323 0.023255072323 0.023255072323 0.022403168173 0.022403168173 0.022403168173 0.0220654007753 0.0220654007753 0.0220654007753 0.0224366406178 0.0224366406178 0.0224366406178 0.0219870752545 0.0219870752545 0.0219870752545 0.0220716692513 0.0220716692513 0.0220716692513 
65 0.0213986296746 0.0213986296746 0.0213986296746 0.0348778006242 0.0348778006242 0.0348778006242 0.0232206261343 0.0232206261343 0.0232206261343 0.0224068197124 0.0224068197124 0.0224068197124 0.0220839627674 0.0220839627674 0.0220839627674 0.0223802851925 0.0223802851925 0.0223802851925 0.0219890227422 0.0219890227422 0.0219890227422 0.0220727038542 0.0220727038542 0.0220727038542 
