# Generated by DoSarray v0.2 on 2018-06-09 17:31
# machine_name sequence : ['dedos01', 'dedos02', 'dedos03', 'dedos04', 'dedos05', 'dedos06', 'dedos07', 'dedos08']
# time, (min, avg, max)+
0 0 0.0 0 0 0.0 0 0 0.0 0 0 0.0 0 0 0.0 0 0 0.0 0 0 0.0 0 0 0.0 0 
5 2227 2227.0 2227 293 293.0 293 298 298.0 298 301 301.0 301 307 307.0 307 316 316.0 316 343 343.0 343 344 344.0 344 
10 4358 4358.0 4358 963 963.0 963 776 776.0 776 643 643.0 643 615 615.0 615 626 626.0 626 666 666.0 666 658 658.0 658 
15 5899 5899.0 5899 1617 1617.0 1617 1338 1338.0 1338 1176 1176.0 1176 961 961.0 961 794 794.0 794 864 864.0 864 841 841.0 841 
20 6213 6213.0 6213 1822 1822.0 1822 1540 1540.0 1540 1355 1355.0 1355 1181 1181.0 1181 974 974.0 974 973 973.0 973 941 941.0 941 
25 6504 6504.0 6504 1971 1971.0 1971 1699 1699.0 1699 1504 1504.0 1504 1428 1428.0 1428 1121 1121.0 1121 1065 1065.0 1065 1032 1032.0 1032 
30 7267 7267.0 7267 2305 2305.0 2305 1983 1983.0 1983 1667 1667.0 1667 1750 1750.0 1750 1278 1278.0 1278 1175 1175.0 1175 1149 1149.0 1149 
35 9499 9499.0 9499 3262 3262.0 3262 2647 2647.0 2647 2481 2481.0 2481 2086 2086.0 2086 1457 1457.0 1457 1367 1367.0 1367 1314 1314.0 1314 
40 9806 9806.0 9806 3440 3440.0 3440 2796 2796.0 2796 2648 2648.0 2648 2276 2276.0 2276 1597 1597.0 1597 1456 1456.0 1456 1419 1419.0 1419 
45 10146 10146.0 10146 3620 3620.0 3620 2970 2970.0 2970 2795 2795.0 2795 2521 2521.0 2521 1762 1762.0 1762 1557 1557.0 1557 1536 1536.0 1536 
50 12538 12538.0 12538 4747 4747.0 4747 3797 3797.0 3797 3441 3441.0 3441 3159 3159.0 3159 2001 2001.0 2001 1798 1798.0 1798 1788 1788.0 1788 
55 14688 14688.0 14688 5045 5045.0 5045 4094 4094.0 4094 3746 3746.0 3746 3467 3467.0 3467 2313 2313.0 2313 2123 2123.0 2123 2133 2133.0 2133 
60 16635 16635.0 16635 5386 5386.0 5386 4411 4411.0 4411 4044 4044.0 4044 3755 3755.0 3755 2634 2634.0 2634 2435 2435.0 2435 2454 2454.0 2454 
65 18556 18556.0 18556 5698 5698.0 5698 4730 4730.0 4730 4358 4358.0 4358 4084 4084.0 4084 2964 2964.0 2964 2766 2766.0 2766 2798 2798.0 2798 
