dedos07 1528344086 0.09 0.10 0.05 1/644 61561
dedos07 1528344091 0.08 0.10 0.05 1/652 61800
dedos07 1528344096 0.08 0.10 0.05 2/655 62017
dedos07 1528344101 0.07 0.10 0.05 2/654 62233
dedos07 1528344106 0.06 0.09 0.05 3/655 62451
dedos07 1528344111 0.06 0.09 0.05 2/657 62655
dedos07 1528344117 0.66 0.22 0.09 1/651 62882
dedos07 1528344122 0.77 0.25 0.10 1/654 63092
dedos07 1528344127 0.71 0.25 0.10 2/657 63316
dedos07 1528344132 0.65 0.24 0.10 2/657 63523
dedos07 1528344137 0.60 0.24 0.10 2/653 63754
dedos07 1528344142 0.55 0.23 0.10 2/656 63976
dedos07 1528344148 0.51 0.23 0.09 1/650 64192
dedos07 1528344153 0.47 0.23 0.09 2/655 64408
