   em1: 57976051210 41033311    0  903    0     0          0     27378 19505941712 16585668    0    0    0     0       0          0
   em1: 57976084915 41033605    0  903    0     0          0     27378 19505969321 16586012    0    0    0     0       0          0
   em1: 57976113402 41033854    0  903    0     0          0     27378 19505993370 16586311    0    0    0     0       0          0
   em1: 57976124647 41033954    0  903    0     0          0     27378 19506005151 16586456    0    0    0     0       0          0
   em1: 57976129048 41033996    0  903    0     0          0     27378 19506012772 16586548    0    0    0     0       0          0
   em1: 57976133449 41034038    0  903    0     0          0     27378 19506020393 16586640    0    0    0     0       0          0
   em1: 57976137328 41034076    0  903    0     0          0     27378 19506027556 16586728    0    0    0     0       0          0
   em1: 57976143065 41034132    0  903    0     0          0     27378 19506036337 16586833    0    0    0     0       0          0
   em1: 57976147940 41034179    0  903    0     0          0     27378 19506044992 16586938    0    0    0     0       0          0
   em1: 57976152341 41034221    0  903    0     0          0     27378 19506052613 16587030    0    0    0     0       0          0
   em1: 57976169128 41034367    0  903    0     0          0     27378 19506068160 16587223    0    0    0     0       0          0
   em1: 57976202167 41034652    0  903    0     0          0     27378 19506095119 16587558    0    0    0     0       0          0
   em1: 57976236412 41034951    0  903    0     0          0     27378 19506122446 16587897    0    0    0     0       0          0
   em1: 57976269847 41035242    0  903    0     0          0     27378 19506148613 16588220    0    0    0     0       0          0
