dedos03 1529006700 0.40 0.61 0.33 2/461 44007
dedos03 1529006706 0.37 0.60 0.33 3/654 44519
dedos03 1529006711 0.34 0.59 0.33 2/648 44769
dedos03 1529006716 0.31 0.58 0.33 2/652 44985
dedos03 1529006721 0.28 0.57 0.32 2/652 45179
dedos03 1529006727 0.26 0.56 0.32 4/656 45386
dedos03 1529006732 0.24 0.55 0.32 1/644 45635
dedos03 1529006737 0.22 0.54 0.32 1/645 45852
dedos03 1529006742 0.20 0.53 0.32 3/656 46037
dedos03 1529006748 0.19 0.52 0.31 3/655 46180
dedos03 1529006753 0.17 0.52 0.31 3/652 46446
dedos03 1529006768 0.13 0.49 0.31 1/462 46741
dedos03 1529006769 0.13 0.49 0.31 2/463 46945
