# Generated by DoSarray v0.2 on 2018-06-09 18:45
0 0 0.0
0 1 0.0
0 2 0.0
0 3 0.0
0 4 2.0
0 5 15.0
0 6 32.0
0 7 32.0
0 8 15.0
0 9 3.0
0 10 0.0
1 0 0.0
1 1 0.0
1 2 0.0
1 3 0.0
1 4 0.0
1 5 3.0
1 6 17.0
1 7 28.999999999999996
1 8 40.0
1 9 9.0
1 10 0.0
2 0 0.0
2 1 0.0
2 2 0.0
2 3 0.0
2 4 0.0
2 5 8.0
2 6 15.0
2 7 40.0
2 8 31.0
2 9 6.0
2 10 0.0
3 0 0.0
3 1 0.0
3 2 0.0
3 3 0.0
3 4 0.0
3 5 5.0
3 6 11.0
3 7 40.0
3 8 28.000000000000004
3 9 15.0
3 10 0.0
4 0 0.0
4 1 0.0
4 2 0.0
4 3 0.0
4 4 0.0
4 5 3.0
4 6 26.0
4 7 28.999999999999996
4 8 28.999999999999996
4 9 9.0
4 10 0.0
5 0 0.0
5 1 0.0
5 2 0.0
5 3 0.0
5 4 0.0
5 5 9.0
5 6 26.0
5 7 34.0
5 8 25.0
5 9 6.0
5 10 0.0
6 0 0.0
6 1 0.0
6 2 0.0
6 3 0.0
6 4 0.0
6 5 5.0
6 6 20.0
6 7 28.999999999999996
6 8 31.0
6 9 12.0
6 10 0.0
7 0 0.0
7 1 0.0
7 2 0.0
7 3 0.0
7 4 0.0
7 5 6.0
7 6 15.0
7 7 35.0
7 8 34.0
7 9 9.0
7 10 0.0
8 0 0.0
8 1 0.0
8 2 0.0
8 3 0.0
8 4 2.0
8 5 0.0
8 6 14.000000000000002
8 7 46.0
8 8 25.0
8 9 14.000000000000002
8 10 0.0
9 0 0.0
9 1 0.0
9 2 0.0
9 3 0.0
9 4 0.0
9 5 3.0
9 6 14.000000000000002
9 7 45.0
9 8 37.0
9 9 2.0
9 10 0.0
10 0 0.0
10 1 0.0
10 2 0.0
10 3 0.0
10 4 0.0
10 5 0.0
10 6 3.0
10 7 9.0
10 8 6.0
10 9 0.0
10 10 0.0
27 0 0.0
27 1 0.0
27 2 0.0
27 3 0.0
27 4 2.0
27 5 8.0
27 6 9.0
27 7 14.000000000000002
27 8 12.0
27 9 3.0
27 10 0.0
28 0 0.0
28 1 0.0
28 2 0.0
28 3 0.0
28 4 0.0
28 5 3.0
28 6 11.0
28 7 17.0
28 8 25.0
28 9 6.0
28 10 0.0
29 0 0.0
29 1 0.0
29 2 0.0
29 3 0.0
29 4 0.0
29 5 0.0
29 6 9.0
29 7 22.0
29 8 25.0
29 9 3.0
29 10 0.0
30 0 0.0
30 1 0.0
30 2 0.0
30 3 0.0
30 4 0.0
30 5 3.0
30 6 15.0
30 7 17.0
30 8 17.0
30 9 8.0
30 10 0.0
31 0 0.0
31 1 0.0
31 2 0.0
31 3 0.0
31 4 0.0
31 5 5.0
31 6 8.0
31 7 31.0
31 8 18.0
31 9 5.0
31 10 0.0
32 0 0.0
32 1 0.0
32 2 0.0
32 3 0.0
32 4 0.0
32 5 5.0
32 6 14.000000000000002
32 7 26.0
32 8 22.0
32 9 5.0
32 10 0.0
33 0 0.0
33 1 0.0
33 2 0.0
33 3 0.0
33 4 0.0
33 5 0.0
33 6 15.0
33 7 28.999999999999996
33 8 18.0
33 9 6.0
33 10 2.0
34 0 0.0
34 1 0.0
34 2 0.0
34 3 0.0
34 4 0.0
34 5 6.0
34 6 12.0
34 7 32.0
34 8 23.0
34 9 6.0
34 10 0.0
35 0 0.0
35 1 0.0
35 2 0.0
35 3 0.0
35 4 0.0
35 5 6.0
35 6 15.0
35 7 26.0
35 8 23.0
35 9 9.0
35 10 0.0
36 0 0.0
36 1 0.0
36 2 0.0
36 3 0.0
36 4 0.0
36 5 3.0
36 6 20.0
36 7 28.000000000000004
36 8 26.0
36 9 5.0
36 10 0.0
37 0 0.0
37 1 0.0
37 2 0.0
37 3 0.0
37 4 0.0
37 5 5.0
37 6 18.0
37 7 31.0
37 8 18.0
37 9 5.0
37 10 3.0
38 0 0.0
38 1 0.0
38 2 0.0
38 3 0.0
38 4 0.0
38 5 3.0
38 6 18.0
38 7 26.0
38 8 25.0
38 9 9.0
38 10 2.0
39 0 0.0
39 1 0.0
39 2 0.0
39 3 0.0
39 4 2.0
39 5 17.0
39 6 22.0
39 7 26.0
39 8 15.0
39 9 5.0
39 10 0.0
40 0 0.0
40 1 0.0
40 2 0.0
40 3 0.0
40 4 0.0
40 5 9.0
40 6 20.0
40 7 25.0
40 8 28.999999999999996
40 9 3.0
40 10 2.0
41 0 0.0
41 1 0.0
41 2 0.0
41 3 0.0
41 4 2.0
41 5 6.0
41 6 17.0
41 7 31.0
41 8 32.0
41 9 2.0
41 10 2.0
42 0 0.0
42 1 0.0
42 2 0.0
42 3 0.0
42 4 0.0
42 5 5.0
42 6 20.0
42 7 31.0
42 8 18.0
42 9 12.0
42 10 0.0
43 0 0.0
43 1 0.0
43 2 0.0
43 3 0.0
43 4 2.0
43 5 5.0
43 6 20.0
43 7 20.0
43 8 17.0
43 9 22.0
43 10 3.0
44 0 0.0
44 1 0.0
44 2 0.0
44 3 0.0
44 4 2.0
44 5 8.0
44 6 20.0
44 7 26.0
44 8 11.0
44 9 11.0
44 10 0.0
45 0 0.0
45 1 0.0
45 2 0.0
45 3 0.0
45 4 2.0
45 5 8.0
45 6 15.0
45 7 28.999999999999996
45 8 15.0
45 9 8.0
45 10 2.0
46 0 0.0
46 1 0.0
46 2 0.0
46 3 0.0
46 4 3.0
46 5 9.0
46 6 17.0
46 7 31.0
46 8 9.0
46 9 11.0
46 10 0.0
47 0 0.0
47 1 0.0
47 2 0.0
47 3 0.0
47 4 2.0
47 5 2.0
47 6 17.0
47 7 15.0
47 8 34.0
47 9 12.0
47 10 0.0
48 0 0.0
48 1 0.0
48 2 0.0
48 3 0.0
48 4 2.0
48 5 9.0
48 6 8.0
48 7 31.0
48 8 15.0
48 9 14.000000000000002
48 10 0.0
49 0 0.0
49 1 0.0
49 2 0.0
49 3 0.0
49 4 0.0
49 5 5.0
49 6 14.000000000000002
49 7 31.0
49 8 17.0
49 9 11.0
49 10 0.0
50 0 0.0
50 1 0.0
50 2 0.0
50 3 0.0
50 4 0.0
50 5 3.0
50 6 17.0
50 7 28.999999999999996
50 8 11.0
50 9 20.0
50 10 0.0
51 0 0.0
51 1 0.0
51 2 0.0
51 3 0.0
51 4 0.0
51 5 0.0
51 6 11.0
51 7 25.0
51 8 26.0
51 9 11.0
51 10 2.0
52 0 0.0
52 1 0.0
52 2 0.0
52 3 0.0
52 4 0.0
52 5 3.0
52 6 17.0
52 7 23.0
52 8 22.0
52 9 6.0
52 10 6.0
53 0 0.0
53 1 0.0
53 2 0.0
53 3 0.0
53 4 0.0
53 5 3.0
53 6 15.0
53 7 20.0
53 8 23.0
53 9 8.0
53 10 0.0
54 0 0.0
54 1 0.0
54 2 0.0
54 3 0.0
54 4 0.0
54 5 6.0
54 6 15.0
54 7 15.0
54 8 18.0
54 9 15.0
54 10 2.0
55 0 0.0
55 1 0.0
55 2 0.0
55 3 0.0
55 4 2.0
55 5 2.0
55 6 11.0
55 7 31.0
55 8 17.0
55 9 3.0
55 10 0.0
56 0 0.0
56 1 0.0
56 2 0.0
56 3 0.0
56 4 0.0
56 5 2.0
56 6 17.0
56 7 20.0
56 8 23.0
56 9 6.0
56 10 2.0
57 0 0.0
57 1 0.0
57 2 0.0
57 3 0.0
57 4 0.0
57 5 5.0
57 6 15.0
57 7 28.000000000000004
57 8 14.000000000000002
57 9 8.0
57 10 0.0
58 0 0.0
58 1 0.0
58 2 0.0
58 3 0.0
58 4 0.0
58 5 6.0
58 6 11.0
58 7 28.000000000000004
58 8 18.0
58 9 9.0
58 10 0.0
59 0 0.0
59 1 0.0
59 2 0.0
59 3 0.0
59 4 0.0
59 5 6.0
59 6 15.0
59 7 22.0
59 8 25.0
59 9 11.0
59 10 0.0
60 0 0.0
60 1 0.0
60 2 0.0
60 3 0.0
60 4 0.0
60 5 3.0
60 6 14.000000000000002
60 7 26.0
60 8 22.0
60 9 8.0
60 10 0.0
61 0 0.0
61 1 0.0
61 2 0.0
61 3 0.0
61 4 0.0
61 5 0.0
61 6 5.0
61 7 23.0
61 8 25.0
61 9 6.0
61 10 2.0
62 0 0.0
62 1 0.0
62 2 0.0
62 3 0.0
62 4 0.0
62 5 2.0
62 6 0.0
62 7 6.0
62 8 8.0
62 9 8.0
62 10 0.0
63 0 0.0
63 1 0.0
63 2 0.0
63 3 0.0
63 4 0.0
63 5 0.0
63 6 2.0
63 7 0.0
63 8 2.0
63 9 2.0
63 10 0.0
