   em1: 1222047205183 3910544551    0    0    0     0          0     56539 871689396658 4129752282    0    0    0     0       0          0
   em1: 1222047232742 3910544748    0    0    0     0          0     56539 871689418075 4129752529    0    0    0     0       0          0
   em1: 1222047256659 3910544923    0    0    0     0          0     56539 871689437614 4129752754    0    0    0     0       0          0
   em1: 1222047265526 3910545005    0    0    0     0          0     56539 871689448747 4129752883    0    0    0     0       0          0
   em1: 1222047276905 3910545115    0    0    0     0          0     56539 871689460696 4129753026    0    0    0     0       0          0
   em1: 1222047287086 3910545196    0    0    0     0          0     56539 871689470747 4129753148    0    0    0     0       0          0
   em1: 1222047295667 3910545271    0    0    0     0          0     56539 871689480540 4129753265    0    0    0     0       0          0
   em1: 1222047306086 3910545366    0    0    0     0          0     56539 871689492293 4129753404    0    0    0     0       0          0
   em1: 1222047314235 3910545437    0    0    0     0          0     56539 871689502048 4129753521    0    0    0     0       0          0
   em1: 1222047323446 3910545515    0    0    0     0          0     56539 871689512395 4129753644    0    0    0     0       0          0
   em1: 1222047345887 3910545666    0    0    0     0          0     56539 871689530372 4129753853    0    0    0     0       0          0
   em1: 1222047373048 3910545858    0    0    0     0          0     56539 871689551343 4129754096    0    0    0     0       0          0
   em1: 1222047405445 3910546089    0    0    0     0          0     56539 871689576544 4129754386    0    0    0     0       0          0
   em1: 1222047431672 3910546273    0    0    0     0          0     56539 871689596743 4129754620    0    0    0     0       0          0
