# Generated by DoSarray v0.2 on 2018-06-20 17:42
0 0 0.0
0 1 0.0
0 2 0.0
0 3 0.0
0 4 23.0
0 5 40.0
0 6 28.000000000000004
0 7 8.0
0 8 0.0
0 9 0.0
0 10 0.0
1 0 0.0
1 1 0.0
1 2 0.0
1 3 0.0
1 4 14.000000000000002
1 5 25.0
1 6 51.0
1 7 11.0
1 8 0.0
1 9 0.0
1 10 0.0
2 0 0.0
2 1 0.0
2 2 0.0
2 3 0.0
2 4 11.0
2 5 45.0
2 6 38.0
2 7 6.0
2 8 0.0
2 9 0.0
2 10 0.0
3 0 0.0
3 1 0.0
3 2 0.0
3 3 2.0
3 4 17.0
3 5 42.0
3 6 31.0
3 7 9.0
3 8 0.0
3 9 0.0
3 10 0.0
4 0 0.0
4 1 0.0
4 2 0.0
4 3 2.0
4 4 20.0
4 5 42.0
4 6 28.999999999999996
4 7 8.0
4 8 0.0
4 9 0.0
4 10 0.0
5 0 0.0
5 1 0.0
5 2 0.0
5 3 9.0
5 4 43.0
5 5 40.0
5 6 6.0
5 7 2.0
5 8 0.0
5 9 0.0
5 10 0.0
6 0 0.0
6 1 0.0
6 2 0.0
6 3 0.0
6 4 12.0
6 5 35.0
6 6 46.0
6 7 5.0
6 8 2.0
6 9 0.0
6 10 0.0
7 0 0.0
7 1 0.0
7 2 0.0
7 3 0.0
7 4 6.0
7 5 43.0
7 6 43.0
7 7 6.0
7 8 2.0
7 9 0.0
7 10 0.0
8 0 0.0
8 1 0.0
8 2 0.0
8 3 0.0
8 4 17.0
8 5 43.0
8 6 32.0
8 7 8.0
8 8 0.0
8 9 0.0
8 10 0.0
9 0 0.0
9 1 0.0
9 2 0.0
9 3 0.0
9 4 11.0
9 5 48.0
9 6 35.0
9 7 6.0
9 8 0.0
9 9 0.0
9 10 0.0
10 0 0.0
10 1 0.0
10 2 0.0
10 3 3.0
10 4 31.0
10 5 32.0
10 6 6.0
10 7 0.0
10 8 0.0
10 9 0.0
10 10 0.0
11 0 0.0
11 1 0.0
11 2 0.0
11 3 0.0
11 4 2.0
11 5 9.0
11 6 12.0
11 7 8.0
11 8 0.0
11 9 0.0
11 10 0.0
12 0 0.0
12 1 0.0
12 2 0.0
12 3 0.0
12 4 5.0
12 5 9.0
12 6 17.0
12 7 0.0
12 8 0.0
12 9 0.0
12 10 0.0
13 0 0.0
13 1 0.0
13 2 0.0
13 3 0.0
13 4 3.0
13 5 9.0
13 6 17.0
13 7 2.0
13 8 0.0
13 9 0.0
13 10 0.0
14 0 0.0
14 1 0.0
14 2 0.0
14 3 0.0
14 4 3.0
14 5 11.0
14 6 15.0
14 7 2.0
14 8 0.0
14 9 0.0
14 10 0.0
15 0 0.0
15 1 0.0
15 2 0.0
15 3 0.0
15 4 3.0
15 5 9.0
15 6 17.0
15 7 2.0
15 8 0.0
15 9 0.0
15 10 0.0
16 0 0.0
16 1 0.0
16 2 0.0
16 3 0.0
16 4 2.0
16 5 14.000000000000002
16 6 15.0
16 7 0.0
16 8 0.0
16 9 0.0
16 10 0.0
17 0 0.0
17 1 0.0
17 2 0.0
17 3 0.0
17 4 3.0
17 5 8.0
17 6 20.0
17 7 0.0
17 8 0.0
17 9 0.0
17 10 0.0
18 0 0.0
18 1 0.0
18 2 0.0
18 3 0.0
18 4 0.0
18 5 15.0
18 6 15.0
18 7 0.0
18 8 0.0
18 9 0.0
18 10 0.0
19 0 0.0
19 1 0.0
19 2 0.0
19 3 0.0
19 4 3.0
19 5 12.0
19 6 15.0
19 7 0.0
19 8 0.0
19 9 0.0
19 10 0.0
20 0 0.0
20 1 0.0
20 2 0.0
20 3 0.0
20 4 3.0
20 5 17.0
20 6 11.0
20 7 0.0
20 8 0.0
20 9 0.0
20 10 0.0
21 0 0.0
21 1 0.0
21 2 0.0
21 3 0.0
21 4 18.0
21 5 11.0
21 6 2.0
21 7 0.0
21 8 0.0
21 9 0.0
21 10 0.0
22 0 0.0
22 1 0.0
22 2 0.0
22 3 0.0
22 4 2.0
22 5 9.0
22 6 18.0
22 7 2.0
22 8 0.0
22 9 0.0
22 10 0.0
23 0 0.0
23 1 0.0
23 2 0.0
23 3 0.0
23 4 3.0
23 5 14.000000000000002
23 6 14.000000000000002
23 7 0.0
23 8 0.0
23 9 0.0
23 10 0.0
24 0 0.0
24 1 0.0
24 2 0.0
24 3 0.0
24 4 6.0
24 5 14.000000000000002
24 6 11.0
24 7 0.0
24 8 0.0
24 9 0.0
24 10 0.0
25 0 0.0
25 1 0.0
25 2 0.0
25 3 0.0
25 4 5.0
25 5 17.0
25 6 9.0
25 7 0.0
25 8 0.0
25 9 0.0
25 10 0.0
26 0 0.0
26 1 0.0
26 2 0.0
26 3 0.0
26 4 3.0
26 5 12.0
26 6 12.0
26 7 2.0
26 8 0.0
26 9 2.0
26 10 0.0
27 0 0.0
27 1 0.0
27 2 0.0
27 3 0.0
27 4 3.0
27 5 6.0
27 6 17.0
27 7 5.0
27 8 0.0
27 9 0.0
27 10 0.0
28 0 0.0
28 1 0.0
28 2 0.0
28 3 0.0
28 4 5.0
28 5 15.0
28 6 11.0
28 7 0.0
28 8 0.0
28 9 0.0
28 10 0.0
29 0 0.0
29 1 0.0
29 2 0.0
29 3 0.0
29 4 3.0
29 5 12.0
29 6 15.0
29 7 0.0
29 8 0.0
29 9 0.0
29 10 0.0
30 0 0.0
30 1 0.0
30 2 0.0
30 3 0.0
30 4 3.0
30 5 15.0
30 6 12.0
30 7 0.0
30 8 0.0
30 9 0.0
30 10 0.0
31 0 0.0
31 1 0.0
31 2 0.0
31 3 0.0
31 4 3.0
31 5 18.0
31 6 9.0
31 7 0.0
31 8 0.0
31 9 0.0
31 10 0.0
32 0 0.0
32 1 0.0
32 2 0.0
32 3 2.0
32 4 18.0
32 5 9.0
32 6 2.0
32 7 0.0
32 8 0.0
32 9 0.0
32 10 0.0
33 0 0.0
33 1 0.0
33 2 0.0
33 3 0.0
33 4 2.0
33 5 15.0
33 6 12.0
33 7 2.0
33 8 0.0
33 9 0.0
33 10 0.0
34 0 0.0
34 1 0.0
34 2 0.0
34 3 0.0
34 4 2.0
34 5 15.0
34 6 14.000000000000002
34 7 0.0
34 8 0.0
34 9 0.0
34 10 0.0
35 0 0.0
35 1 0.0
35 2 0.0
35 3 0.0
35 4 5.0
35 5 15.0
35 6 11.0
35 7 0.0
35 8 0.0
35 9 0.0
35 10 0.0
36 0 0.0
36 1 0.0
36 2 0.0
36 3 0.0
36 4 2.0
36 5 15.0
36 6 14.000000000000002
36 7 0.0
36 8 0.0
36 9 0.0
36 10 0.0
37 0 0.0
37 1 0.0
37 2 0.0
37 3 0.0
37 4 8.0
37 5 12.0
37 6 11.0
37 7 0.0
37 8 0.0
37 9 0.0
37 10 0.0
38 0 0.0
38 1 0.0
38 2 0.0
38 3 0.0
38 4 3.0
38 5 12.0
38 6 15.0
38 7 0.0
38 8 0.0
38 9 0.0
38 10 0.0
39 0 0.0
39 1 0.0
39 2 0.0
39 3 0.0
39 4 0.0
39 5 11.0
39 6 20.0
39 7 0.0
39 8 0.0
39 9 0.0
39 10 0.0
40 0 0.0
40 1 0.0
40 2 0.0
40 3 0.0
40 4 3.0
40 5 17.0
40 6 9.0
40 7 2.0
40 8 0.0
40 9 0.0
40 10 0.0
41 0 0.0
41 1 0.0
41 2 0.0
41 3 0.0
41 4 2.0
41 5 14.000000000000002
41 6 14.000000000000002
41 7 2.0
41 8 0.0
41 9 0.0
41 10 0.0
42 0 0.0
42 1 0.0
42 2 0.0
42 3 0.0
42 4 6.0
42 5 12.0
42 6 12.0
42 7 0.0
42 8 0.0
42 9 0.0
42 10 0.0
43 0 0.0
43 1 0.0
43 2 0.0
43 3 0.0
43 4 6.0
43 5 11.0
43 6 14.000000000000002
43 7 0.0
43 8 0.0
43 9 0.0
43 10 0.0
44 0 0.0
44 1 0.0
44 2 0.0
44 3 0.0
44 4 5.0
44 5 17.0
44 6 9.0
44 7 0.0
44 8 0.0
44 9 0.0
44 10 0.0
45 0 0.0
45 1 0.0
45 2 0.0
45 3 0.0
45 4 3.0
45 5 15.0
45 6 12.0
45 7 0.0
45 8 0.0
45 9 0.0
45 10 0.0
46 0 0.0
46 1 0.0
46 2 0.0
46 3 0.0
46 4 3.0
46 5 15.0
46 6 11.0
46 7 2.0
46 8 0.0
46 9 0.0
46 10 0.0
47 0 0.0
47 1 0.0
47 2 0.0
47 3 0.0
47 4 6.0
47 5 12.0
47 6 12.0
47 7 0.0
47 8 0.0
47 9 0.0
47 10 0.0
48 0 0.0
48 1 0.0
48 2 0.0
48 3 0.0
48 4 6.0
48 5 14.000000000000002
48 6 11.0
48 7 0.0
48 8 0.0
48 9 0.0
48 10 0.0
49 0 0.0
49 1 0.0
49 2 0.0
49 3 0.0
49 4 3.0
49 5 9.0
49 6 17.0
49 7 2.0
49 8 0.0
49 9 0.0
49 10 0.0
50 0 0.0
50 1 0.0
50 2 0.0
50 3 0.0
50 4 8.0
50 5 42.0
50 6 37.0
50 7 3.0
50 8 0.0
50 9 0.0
50 10 0.0
51 0 0.0
51 1 0.0
51 2 0.0
51 3 0.0
51 4 15.0
51 5 43.0
51 6 34.0
51 7 8.0
51 8 0.0
51 9 0.0
51 10 0.0
52 0 0.0
52 1 0.0
52 2 0.0
52 3 0.0
52 4 14.000000000000002
52 5 42.0
52 6 43.0
52 7 2.0
52 8 0.0
52 9 0.0
52 10 0.0
53 0 0.0
53 1 0.0
53 2 0.0
53 3 12.0
53 4 32.0
53 5 34.0
53 6 18.0
53 7 3.0
53 8 0.0
53 9 0.0
53 10 0.0
54 0 0.0
54 1 0.0
54 2 0.0
54 3 2.0
54 4 14.000000000000002
54 5 45.0
54 6 38.0
54 7 2.0
54 8 0.0
54 9 0.0
54 10 0.0
55 0 0.0
55 1 0.0
55 2 0.0
55 3 0.0
55 4 22.0
55 5 45.0
55 6 28.999999999999996
55 7 5.0
55 8 0.0
55 9 0.0
55 10 0.0
56 0 0.0
56 1 0.0
56 2 0.0
56 3 0.0
56 4 12.0
56 5 43.0
56 6 37.0
56 7 5.0
56 8 3.0
56 9 0.0
56 10 0.0
57 0 0.0
57 1 0.0
57 2 0.0
57 3 0.0
57 4 12.0
57 5 43.0
57 6 34.0
57 7 9.0
57 8 2.0
57 9 0.0
57 10 0.0
58 0 0.0
58 1 0.0
58 2 0.0
58 3 0.0
58 4 14.000000000000002
58 5 54.0
58 6 31.0
58 7 2.0
58 8 0.0
58 9 0.0
58 10 0.0
59 0 0.0
59 1 0.0
59 2 0.0
59 3 0.0
59 4 8.0
59 5 43.0
59 6 45.0
59 7 3.0
59 8 2.0
59 9 0.0
59 10 0.0
60 0 0.0
60 1 0.0
60 2 0.0
60 3 0.0
60 4 23.0
60 5 45.0
60 6 25.0
60 7 8.0
60 8 0.0
60 9 0.0
60 10 0.0
61 0 0.0
61 1 0.0
61 2 0.0
61 3 0.0
61 4 20.0
61 5 43.0
61 6 32.0
61 7 5.0
61 8 0.0
61 9 0.0
61 10 0.0
62 0 0.0
62 1 0.0
62 2 0.0
62 3 0.0
62 4 20.0
62 5 45.0
62 6 32.0
62 7 3.0
62 8 0.0
62 9 0.0
62 10 0.0
63 0 0.0
63 1 0.0
63 2 0.0
63 3 0.0
63 4 15.0
63 5 46.0
63 6 35.0
63 7 3.0
63 8 0.0
63 9 0.0
63 10 0.0
