PING 192.168.0.2:8013 (http://192.168.0.2):
connected to 192.168.0.2:8013 (248 bytes), seq=0 time=0.53 ms 200 OK
connected to 192.168.0.2:8013 (248 bytes), seq=1 time=0.66 ms 200 OK
connected to 192.168.0.2:8013 (248 bytes), seq=2 time=0.72 ms 200 OK
connected to 192.168.0.2:8013 (248 bytes), seq=3 time=0.48 ms 200 OK
connected to 192.168.0.2:8013 (248 bytes), seq=4 time=0.50 ms 200 OK
connected to 192.168.0.2:8013 (248 bytes), seq=5 time=0.53 ms 200 OK
connected to 192.168.0.2:8013 (248 bytes), seq=6 time=0.66 ms 200 OK
connected to 192.168.0.2:8013 (248 bytes), seq=7 time=0.64 ms 200 OK
connected to 192.168.0.2:8013 (248 bytes), seq=8 time=0.48 ms 200 OK
connected to 192.168.0.2:8013 (248 bytes), seq=9 time=0.52 ms 200 OK
could not connect (Connection refused)
could not connect (Connection refused)
could not connect (Connection refused)
could not connect (Connection refused)
could not connect (Connection refused)
could not connect (Connection refused)
could not connect (Connection refused)
could not connect (Connection refused)
could not connect (Connection refused)
could not connect (Connection refused)
could not connect (Connection refused)
could not connect (Connection refused)
could not connect (Connection refused)
could not connect (Connection refused)
could not connect (Connection refused)
could not connect (Connection refused)
could not connect (Connection refused)
could not connect (Connection refused)
could not connect (Connection refused)
could not connect (Connection refused)
could not connect (Connection refused)
could not connect (Connection refused)
could not connect (Connection refused)
could not connect (Connection refused)
could not connect (Connection refused)
could not connect (Connection refused)
could not connect (Connection refused)
could not connect (Connection refused)
could not connect (Connection refused)
could not connect (Connection refused)
could not connect (Connection refused)
could not connect (Connection refused)
could not connect (Connection refused)
could not connect (Connection refused)
could not connect (Connection refused)
could not connect (Connection refused)
could not connect (Connection refused)
could not connect (Connection refused)
could not connect (Connection refused)
could not connect (Connection refused)
connected to 192.168.0.2:8013 (248 bytes), seq=50 time=0.66 ms 200 OK
connected to 192.168.0.2:8013 (248 bytes), seq=51 time=0.53 ms 200 OK
connected to 192.168.0.2:8013 (248 bytes), seq=52 time=0.62 ms 200 OK
connected to 192.168.0.2:8013 (248 bytes), seq=53 time=0.58 ms 200 OK
connected to 192.168.0.2:8013 (248 bytes), seq=54 time=0.60 ms 200 OK
connected to 192.168.0.2:8013 (248 bytes), seq=55 time=0.47 ms 200 OK
connected to 192.168.0.2:8013 (248 bytes), seq=56 time=0.65 ms 200 OK
connected to 192.168.0.2:8013 (248 bytes), seq=57 time=0.58 ms 200 OK
connected to 192.168.0.2:8013 (248 bytes), seq=58 time=0.51 ms 200 OK
connected to 192.168.0.2:8013 (248 bytes), seq=59 time=0.53 ms 200 OK
connected to 192.168.0.2:8013 (248 bytes), seq=60 time=0.64 ms 200 OK
connected to 192.168.0.2:8013 (248 bytes), seq=61 time=0.49 ms 200 OK
connected to 192.168.0.2:8013 (248 bytes), seq=62 time=0.57 ms 200 OK
connected to 192.168.0.2:8013 (248 bytes), seq=63 time=0.55 ms 200 OK
connected to 192.168.0.2:8013 (248 bytes), seq=64 time=0.57 ms 200 OK
--- http://192.168.0.2 ping statistics ---
65 connects, 25 ok, 61.54% failed, time 64030ms
round-trip min/avg/max = 0.5/0.6/0.7 ms
