   em1: 885658647 9392873    0    0    0     0          0     42776 1815221844 10347746    0    0    0     0       0          0
   em1: 885695498 9393193    0    0    0     0          0     42776 1815251431 10348110    0    0    0     0       0          0
   em1: 885782753 9394433    0    0    0     0          0     42776 1815348282 10349386    0    0    0     0       0          0
   em1: 885791488 9394538    0    0    0     0          0     42776 1815357171 10349491    0    0    0     0       0          0
   em1: 885798883 9394627    0    0    0     0          0     42776 1815364732 10349580    0    0    0     0       0          0
   em1: 885806158 9394714    0    0    0     0          0     42776 1815372145 10349667    0    0    0     0       0          0
   em1: 885816432 9394824    0    0    0     0          0     42776 1815381404 10349777    0    0    0     0       0          0
   em1: 885823099 9394906    0    0    0     0          0     42776 1815388369 10349860    0    0    0     0       0          0
   em1: 885831142 9395001    0    0    0     0          0     42776 1815396698 10349957    0    0    0     0       0          0
   em1: 885836933 9395074    0    0    0     0          0     42776 1815402543 10350028    0    0    0     0       0          0
   em1: 885864290 9395322    0    0    0     0          0     42776 1815425526 10350309    0    0    0     0       0          0
   em1: 885895055 9395589    0    0    0     0          0     42776 1815450495 10350617    0    0    0     0       0          0
   em1: 885931062 9395899    0    0    0     0          0     42777 1815478708 10350966    0    0    0     0       0          0
   em1: 885936341 9395944    0    0    0     0          0     42779 1815482637 10351007    0    0    0     0       0          0
