PING 192.168.0.2:8016 (http://192.168.0.2):
connected to 192.168.0.2:8016 (248 bytes), seq=0 time=0.79 ms 200 OK
connected to 192.168.0.2:8016 (248 bytes), seq=1 time=0.81 ms 200 OK
connected to 192.168.0.2:8016 (248 bytes), seq=2 time=0.73 ms 200 OK
connected to 192.168.0.2:8016 (248 bytes), seq=3 time=0.74 ms 200 OK
connected to 192.168.0.2:8016 (248 bytes), seq=4 time=0.94 ms 200 OK
connected to 192.168.0.2:8016 (248 bytes), seq=5 time=0.73 ms 200 OK
connected to 192.168.0.2:8016 (248 bytes), seq=6 time=0.85 ms 200 OK
connected to 192.168.0.2:8016 (248 bytes), seq=7 time=0.92 ms 200 OK
connected to 192.168.0.2:8016 (248 bytes), seq=8 time=0.88 ms 200 OK
connected to 192.168.0.2:8016 (248 bytes), seq=9 time=0.76 ms 200 OK
connect time out
connect time out
connect time out
connect time out
connect time out
connect time out
connect time out
connect time out
connect time out
connect time out
connect time out
connect time out
connect time out
connect time out
connect time out
connect time out
connect time out
timeout while receiving reply-headers from host
timeout while receiving reply-headers from host
connected to 192.168.0.2:8016 (248 bytes), seq=29 time=997.70 ms 200 OK
connected to 192.168.0.2:8016 (248 bytes), seq=30 time=0.74 ms 200 OK
connected to 192.168.0.2:8016 (248 bytes), seq=31 time=0.83 ms 200 OK
connected to 192.168.0.2:8016 (248 bytes), seq=32 time=0.82 ms 200 OK
connected to 192.168.0.2:8016 (248 bytes), seq=33 time=0.82 ms 200 OK
connected to 192.168.0.2:8016 (248 bytes), seq=34 time=1.03 ms 200 OK
connected to 192.168.0.2:8016 (248 bytes), seq=35 time=0.75 ms 200 OK
connected to 192.168.0.2:8016 (248 bytes), seq=36 time=0.77 ms 200 OK
connected to 192.168.0.2:8016 (248 bytes), seq=37 time=0.83 ms 200 OK
connected to 192.168.0.2:8016 (248 bytes), seq=38 time=0.96 ms 200 OK
connected to 192.168.0.2:8016 (248 bytes), seq=39 time=0.81 ms 200 OK
connected to 192.168.0.2:8016 (248 bytes), seq=40 time=0.64 ms 200 OK
connected to 192.168.0.2:8016 (248 bytes), seq=41 time=0.86 ms 200 OK
connected to 192.168.0.2:8016 (248 bytes), seq=42 time=0.87 ms 200 OK
connected to 192.168.0.2:8016 (248 bytes), seq=43 time=0.93 ms 200 OK
connected to 192.168.0.2:8016 (248 bytes), seq=44 time=1.06 ms 200 OK
connected to 192.168.0.2:8016 (248 bytes), seq=45 time=0.96 ms 200 OK
connected to 192.168.0.2:8016 (248 bytes), seq=46 time=1.43 ms 200 OK
connected to 192.168.0.2:8016 (248 bytes), seq=47 time=0.79 ms 200 OK
connected to 192.168.0.2:8016 (248 bytes), seq=48 time=0.86 ms 200 OK
connected to 192.168.0.2:8016 (248 bytes), seq=49 time=0.97 ms 200 OK
connected to 192.168.0.2:8016 (248 bytes), seq=50 time=1.14 ms 200 OK
connected to 192.168.0.2:8016 (248 bytes), seq=51 time=0.96 ms 200 OK
connected to 192.168.0.2:8016 (248 bytes), seq=52 time=0.94 ms 200 OK
connected to 192.168.0.2:8016 (248 bytes), seq=53 time=1.38 ms 200 OK
connected to 192.168.0.2:8016 (248 bytes), seq=54 time=0.83 ms 200 OK
connected to 192.168.0.2:8016 (248 bytes), seq=55 time=0.94 ms 200 OK
connected to 192.168.0.2:8016 (248 bytes), seq=56 time=0.80 ms 200 OK
connected to 192.168.0.2:8016 (248 bytes), seq=57 time=0.99 ms 200 OK
connected to 192.168.0.2:8016 (248 bytes), seq=58 time=0.89 ms 200 OK
connected to 192.168.0.2:8016 (248 bytes), seq=59 time=0.87 ms 200 OK
connected to 192.168.0.2:8016 (248 bytes), seq=60 time=1.02 ms 200 OK
connected to 192.168.0.2:8016 (248 bytes), seq=61 time=1.13 ms 200 OK
connected to 192.168.0.2:8016 (248 bytes), seq=62 time=0.87 ms 200 OK
connected to 192.168.0.2:8016 (248 bytes), seq=63 time=0.93 ms 200 OK
