dedos07 1529006197 0.00 0.00 0.00 2/654 186256
dedos07 1529006202 0.00 0.00 0.00 2/653 186475
dedos07 1529006207 0.00 0.00 0.00 2/660 186696
dedos07 1529006213 0.00 0.00 0.00 3/663 186892
dedos07 1529006218 0.00 0.00 0.00 2/663 187111
dedos07 1529006223 0.00 0.00 0.00 3/665 187324
dedos07 1529006228 0.00 0.00 0.00 1/655 187562
dedos07 1529006233 0.00 0.00 0.00 3/667 187748
dedos07 1529006239 0.00 0.00 0.00 3/669 187942
dedos07 1529006244 0.00 0.00 0.00 1/659 188212
dedos07 1529006249 0.00 0.00 0.00 3/670 188389
dedos07 1529006255 0.00 0.00 0.00 1/657 188656
dedos07 1529006260 0.00 0.00 0.00 3/663 188873
dedos07 1529006265 0.00 0.00 0.00 4/664 189087
