dedos06 1529006188 MemTotal: 65725704 kB MemFree: 48603656 kB MemAvailable: 64248524 kB
dedos06 1529006193 MemTotal: 65725704 kB MemFree: 48601872 kB MemAvailable: 64246740 kB
dedos06 1529006199 MemTotal: 65725704 kB MemFree: 48554152 kB MemAvailable: 64198896 kB
dedos06 1529006204 MemTotal: 65725704 kB MemFree: 48553172 kB MemAvailable: 64197916 kB
dedos06 1529006209 MemTotal: 65725704 kB MemFree: 48552204 kB MemAvailable: 64196948 kB
dedos06 1529006214 MemTotal: 65725704 kB MemFree: 48553084 kB MemAvailable: 64197832 kB
dedos06 1529006219 MemTotal: 65725704 kB MemFree: 48548228 kB MemAvailable: 64192976 kB
dedos06 1529006225 MemTotal: 65725704 kB MemFree: 48549756 kB MemAvailable: 64194504 kB
dedos06 1529006230 MemTotal: 65725704 kB MemFree: 48551608 kB MemAvailable: 64196360 kB
dedos06 1529006235 MemTotal: 65725704 kB MemFree: 48553528 kB MemAvailable: 64198280 kB
dedos06 1529006241 MemTotal: 65725704 kB MemFree: 48613804 kB MemAvailable: 64258556 kB
dedos06 1529006246 MemTotal: 65725704 kB MemFree: 48616804 kB MemAvailable: 64261564 kB
dedos06 1529006251 MemTotal: 65725704 kB MemFree: 48613360 kB MemAvailable: 64258120 kB
dedos06 1529006256 MemTotal: 65725704 kB MemFree: 48686276 kB MemAvailable: 64331036 kB
