# Generated by DoSarray v0.2 on 2018-06-09 16:21
# machine_name sequence : ['dedos01', 'dedos02', 'dedos03', 'dedos04', 'dedos05', 'dedos06', 'dedos07', 'dedos08']
# time, (min, avg, max)+
0 0 0.0 0 0 0.0 0 0 0.0 0 0 0.0 0 0 0.0 0 0 0.0 0 0 0.0 0 0 0.0 0 
5 2263 2263.0 2263 270 270.0 270 267 267.0 267 267 267.0 267 276 276.0 276 271 271.0 271 292 292.0 292 284 284.0 284 
10 10145 10145.0 10145 2074 2074.0 2074 1199 1199.0 1199 1421 1421.0 1421 1757 1757.0 1757 583 583.0 583 588 588.0 588 594 594.0 594 
15 11096 11096.0 11096 2135 2135.0 2135 1244 1244.0 1244 1483 1483.0 1483 1831 1831.0 1831 625 625.0 625 630 630.0 630 637 637.0 637 
20 13321 13321.0 13321 2699 2699.0 2699 1526 1526.0 1526 1820 1820.0 1820 2260 2260.0 2260 673 673.0 673 660 660.0 660 673 673.0 673 
25 20268 20268.0 20268 3473 3473.0 3473 2038 2038.0 2038 3662 3662.0 3662 3861 3861.0 3861 863 863.0 863 856 856.0 856 878 878.0 878 
30 22509 22509.0 22509 3745 3745.0 3745 2174 2174.0 2174 4238 4238.0 4238 4427 4427.0 4427 937 937.0 937 899 899.0 899 904 904.0 904 
35 25841 25841.0 25841 5469 5469.0 5469 2339 2339.0 2339 4390 4390.0 4390 4528 4528.0 4528 1032 1032.0 1032 993 993.0 993 1008 1008.0 1008 
40 30512 30512.0 30512 8344 8344.0 8344 2470 2470.0 2470 4528 4528.0 4528 4652 4652.0 4652 1131 1131.0 1131 1104 1104.0 1104 1120 1120.0 1120 
45 32432 32432.0 32432 9342 9342.0 9342 2562 2562.0 2562 4623 4623.0 4623 4747 4747.0 4747 1224 1224.0 1224 1191 1191.0 1191 1204 1204.0 1204 
50 38616 38616.0 38616 9641 9641.0 9641 2842 2842.0 2842 4895 4895.0 4895 5039 5039.0 5039 1490 1490.0 1490 1496 1496.0 1496 1495 1495.0 1495 
55 40654 40654.0 40654 9929 9929.0 9929 3110 3110.0 3110 5167 5167.0 5167 5303 5303.0 5303 1772 1772.0 1772 1790 1790.0 1790 1800 1800.0 1800 
60 42589 42589.0 42589 10200 10200.0 10200 3366 3366.0 3366 5435 5435.0 5435 5577 5577.0 5577 2045 2045.0 2045 2084 2084.0 2084 2097 2097.0 2097 
65 44542 44542.0 44542 10491 10491.0 10491 3640 3640.0 3640 5736 5736.0 5736 5880 5880.0 5880 2353 2353.0 2353 2419 2419.0 2419 2425 2425.0 2425 
