# Generated by DoSarray v0.2 on 2018-06-14 16:36
# machine_name sequence : ['dedos01', 'dedos02', 'dedos03', 'dedos04', 'dedos05', 'dedos06', 'dedos07', 'dedos08']
# time, (min, avg, max)+
0 0.0 0.0 0.0 0.73 0.73 0.73 0.95 0.95 0.95 0.59 0.59 0.59 0.75 0.75 0.75 12.97 12.97 12.97 0.0 0.0 0.0 0.04 0.04 0.04 
5 0.0 0.0 0.0 0.67 0.67 0.67 0.87 0.87 0.87 0.54 0.54 0.54 0.69 0.69 0.69 11.93 11.93 11.93 0.0 0.0 0.0 0.04 0.04 0.04 
10 0.0 0.0 0.0 0.62 0.62 0.62 0.8 0.8 0.8 0.5 0.5 0.5 0.64 0.64 0.64 10.97 10.97 10.97 0.0 0.0 0.0 0.03 0.03 0.03 
15 0.0 0.0 0.0 0.57 0.57 0.57 0.74 0.74 0.74 0.46 0.46 0.46 0.59 0.59 0.59 10.09 10.09 10.09 0.0 0.0 0.0 0.03 0.03 0.03 
20 0.0 0.0 0.0 0.52 0.52 0.52 0.68 0.68 0.68 0.42 0.42 0.42 0.54 0.54 0.54 9.29 9.29 9.29 0.0 0.0 0.0 0.03 0.03 0.03 
25 0.0 0.0 0.0 0.48 0.48 0.48 0.63 0.63 0.63 0.39 0.39 0.39 0.49 0.49 0.49 8.54 8.54 8.54 0.0 0.0 0.0 0.1 0.1 0.1 
30 0.0 0.0 0.0 0.44 0.44 0.44 0.58 0.58 0.58 0.36 0.36 0.36 0.66 0.66 0.66 7.86 7.86 7.86 0.0 0.0 0.0 0.1 0.1 0.1 
35 0.08 0.08 0.08 0.4 0.4 0.4 0.53 0.53 0.53 0.33 0.33 0.33 0.61 0.61 0.61 7.23 7.23 7.23 0.0 0.0 0.0 0.09 0.09 0.09 
40 0.07 0.07 0.07 0.37 0.37 0.37 0.49 0.49 0.49 0.43 0.43 0.43 0.56 0.56 0.56 6.89 6.89 6.89 0.24 0.24 0.24 0.08 0.08 0.08 
45 0.07 0.07 0.07 0.55 0.55 0.55 0.45 0.45 0.45 0.39 0.39 0.39 0.51 0.51 0.51 6.34 6.34 6.34 0.22 0.22 0.22 0.07 0.07 0.07 
50 0.06 0.06 0.06 0.75 0.75 0.75 0.41 0.41 0.41 0.36 0.36 0.36 0.47 0.47 0.47 5.83 5.83 5.83 0.2 0.2 0.2 0.07 0.07 0.07 
55 0.06 0.06 0.06 0.69 0.69 0.69 0.38 0.38 0.38 0.33 0.33 0.33 0.43 0.43 0.43 5.36 5.36 5.36 0.19 0.19 0.19 0.06 0.06 0.06 
60 0.05 0.05 0.05 0.63 0.63 0.63 0.35 0.35 0.35 0.3 0.3 0.3 0.4 0.4 0.4 4.93 4.93 4.93 0.17 0.17 0.17 0.06 0.06 0.06 
65 0.05 0.05 0.05 0.58 0.58 0.58 0.32 0.32 0.32 0.28 0.28 0.28 0.37 0.37 0.37 4.54 4.54 4.54 0.16 0.16 0.16 0.05 0.05 0.05 
