# Generated by DoSarray v0.2 on 2018-06-14 16:36
# machine_name sequence : ['dedos01', 'dedos02', 'dedos03', 'dedos04', 'dedos05', 'dedos06', 'dedos07', 'dedos08']
# time, (min, avg, max)+
0 0.0207308848301 0.0207308848301 0.0207308848301 0.0339123335978 0.0339123335978 0.0339123335978 0.0231901357801 0.0231901357801 0.0231901357801 0.0222782246653 0.0222782246653 0.0222782246653 0.021686370982 0.021686370982 0.021686370982 0.0191344317894 0.0191344317894 0.0191344317894 0.0217443087411 0.0217443087411 0.0217443087411 0.0217804589815 0.0217804589815 0.0217804589815 
5 0.0207691042762 0.0207691042762 0.0207691042762 0.033943189106 0.033943189106 0.033943189106 0.0230597149633 0.0230597149633 0.0230597149633 0.022267270047 0.022267270047 0.022267270047 0.0220433089617 0.0220433089617 0.0220433089617 0.0196163741358 0.0196163741358 0.0196163741358 0.0220137923513 0.0220137923513 0.0220137923513 0.0221057502861 0.0221057502861 0.0221057502861 
10 0.0209347015895 0.0209347015895 0.0209347015895 0.0345638290919 0.0345638290919 0.0345638290919 0.0236955088378 0.0236955088378 0.0236955088378 0.0228565067937 0.0228565067937 0.0228565067937 0.0226892054287 0.0226892054287 0.0226892054287 0.019673033856 0.019673033856 0.019673033856 0.0220506120406 0.0220506120406 0.0220506120406 0.022151090234 0.022151090234 0.022151090234 
15 0.0209597146346 0.0209597146346 0.0209597146346 0.0345557957051 0.0345557957051 0.0345557957051 0.0237483344416 0.0237483344416 0.0237483344416 0.0228691654638 0.0228691654638 0.0228691654638 0.0226572544586 0.0226572544586 0.0226572544586 0.020214861449 0.020214861449 0.020214861449 0.0222443870666 0.0222443870666 0.0222443870666 0.022112809929 0.022112809929 0.022112809929 
20 0.0209616012633 0.0209616012633 0.0209616012633 0.0345578649108 0.0345578649108 0.0345578649108 0.0237452306331 0.0237452306331 0.0237452306331 0.0227957086622 0.0227957086622 0.0227957086622 0.0226962042126 0.0226962042126 0.0226962042126 0.0202414568279 0.0202414568279 0.0202414568279 0.0220591322993 0.0220591322993 0.0220591322993 0.0221249208681 0.0221249208681 0.0221249208681 
25 0.0209359187693 0.0209359187693 0.0209359187693 0.0347122033109 0.0347122033109 0.0347122033109 0.0237013513009 0.0237013513009 0.0237013513009 0.0228105582559 0.0228105582559 0.0228105582559 0.0226695479747 0.0226695479747 0.0226695479747 0.0203062107939 0.0203062107939 0.0203062107939 0.022047934245 0.022047934245 0.022047934245 0.0221327716779 0.0221327716779 0.0221327716779 
30 0.0209594711987 0.0209594711987 0.0209594711987 0.0345798958654 0.0345798958654 0.0345798958654 0.0237249037302 0.0237249037302 0.0237249037302 0.0228524901004 0.0228524901004 0.0228524901004 0.0226592628053 0.0226592628053 0.0226592628053 0.0203065759478 0.0203065759478 0.0203065759478 0.0220437349747 0.0220437349747 0.0220437349747 0.0221666701356 0.0221666701356 0.0221666701356 
35 0.0209728601766 0.0209728601766 0.0209728601766 0.034537051136 0.034537051136 0.034537051136 0.0237409096447 0.0237409096447 0.0237409096447 0.0228329543644 0.0228329543644 0.0228329543644 0.0226951696097 0.0226951696097 0.0226951696097 0.0203575149229 0.0203575149229 0.0203575149229 0.022041422333 0.022041422333 0.022041422333 0.0221289375615 0.0221289375615 0.0221289375615 
40 0.0209786417807 0.0209786417807 0.0209786417807 0.0345593255266 0.0345593255266 0.0345593255266 0.0237488213135 0.0237488213135 0.0237488213135 0.022861071218 0.022861071218 0.022861071218 0.0227159225255 0.0227159225255 0.0227159225255 0.0203419350213 0.0203419350213 0.0203419350213 0.0220542027211 0.0220542027211 0.0220542027211 0.0221397096028 0.0221397096028 0.0221397096028 
45 0.0209916047457 0.0209916047457 0.0209916047457 0.0345588995137 0.0345588995137 0.0345588995137 0.0237514991091 0.0237514991091 0.0237514991091 0.0228911355594 0.0228911355594 0.0228911355594 0.0226939524299 0.0226939524299 0.0226939524299 0.0203365794302 0.0203365794302 0.0203365794302 0.0220574891065 0.0220574891065 0.0220574891065 0.0221378838331 0.0221378838331 0.0221378838331 
50 0.0209687217652 0.0209687217652 0.0209687217652 0.0338042480306 0.0338042480306 0.0338042480306 0.0229734777736 0.0229734777736 0.0229734777736 0.0221638097631 0.0221638097631 0.0221638097631 0.0219406398446 0.0219406398446 0.0219406398446 0.0195875269742 0.0195875269742 0.0195875269742 0.022041422333 0.022041422333 0.022041422333 0.0221273552277 0.0221273552277 0.0221273552277 
55 0.0209977515037 0.0209977515037 0.0209977515037 0.0337680977902 0.0337680977902 0.0337680977902 0.0229592367698 0.0229592367698 0.0229592367698 0.022171051983 0.022171051983 0.022171051983 0.021964496569 0.021964496569 0.021964496569 0.0195649482887 0.0195649482887 0.0195649482887 0.0220122100176 0.0220122100176 0.0220122100176 0.0221109841593 0.0221109841593 0.0221109841593 
60 0.020983084487 0.020983084487 0.020983084487 0.0337685846621 0.0337685846621 0.0337685846621 0.0230012294733 0.0230012294733 0.0230012294733 0.0221394661668 0.0221394661668 0.0221394661668 0.0219635836841 0.0219635836841 0.0219635836841 0.0195875878332 0.0195875878332 0.0195875878332 0.0220495165788 0.0220495165788 0.0220495165788 0.0221369100892 0.0221369100892 0.0221369100892 
65 0.0209687217652 0.0209687217652 0.0209687217652 0.0325532306204 0.0325532306204 0.0325532306204 0.0217133923739 0.0217133923739 0.0217133923739 0.0210157657649 0.0210157657649 0.0210157657649 0.0207158526594 0.0207158526594 0.0207158526594 0.018214304711 0.018214304711 0.018214304711 0.0206172002357 0.0206172002357 0.0206172002357 0.0207916221027 0.0207916221027 0.0207916221027 
