# Generated by DoSarray v0.2 on 2018-06-14 16:36
# machine_name sequence : ['dedos01', 'dedos02', 'dedos03', 'dedos04', 'dedos05', 'dedos06', 'dedos07', 'dedos08']
# time, (min, avg, max)+
0 0 0.0 0 0 0.0 0 0 0.0 0 0 0.0 0 0 0.0 0 0 0.0 0 0 0.0 0 0 0.0 0 
5 2467 2467.0 2467 269 269.0 269 255 255.0 255 267 267.0 267 303 303.0 303 292 292.0 292 281 281.0 281 324 324.0 324 
10 5691 5691.0 5691 822 822.0 822 788 788.0 788 802 802.0 802 851 851.0 851 583 583.0 583 591 591.0 591 620 620.0 620 
15 13292 13292.0 13292 2182 2182.0 2182 2401 2401.0 2401 2210 2210.0 2210 2213 2213.0 2213 1949 1949.0 1949 908 908.0 908 941 941.0 941 
20 21840 21840.0 21840 3787 3787.0 3787 3747 3747.0 3747 3761 3761.0 3761 3571 3571.0 3571 3558 3558.0 3558 1211 1211.0 1211 1262 1262.0 1262 
25 29350 29350.0 29350 5133 5133.0 5133 5090 5090.0 5090 5117 5117.0 5117 5157 5157.0 5157 4923 4923.0 4923 1504 1504.0 1504 1541 1541.0 1541 
30 37141 37141.0 37141 6522 6522.0 6522 6723 6723.0 6723 6494 6494.0 6494 6542 6542.0 6542 6814 6814.0 6814 1810 1810.0 1810 1849 1849.0 1849 
35 46219 46219.0 46219 8168 8168.0 8168 8196 8196.0 8196 8205 8205.0 8205 8031 8031.0 8031 8032 8032.0 8032 2137 2137.0 2137 2183 2183.0 2183 
40 53855 53855.0 53855 9523 9523.0 9523 9544 9544.0 9544 9556 9556.0 9556 9636 9636.0 9636 9389 9389.0 9389 2430 2430.0 2430 2475 2475.0 2475 
45 61310 61310.0 61310 10871 10871.0 10871 10892 10892.0 10892 10918 10918.0 10918 11003 11003.0 11003 10843 10843.0 10843 2722 2722.0 2722 2767 2767.0 2767 
50 66257 66257.0 66257 11592 11592.0 11592 11610 11610.0 11610 11633 11633.0 11633 11765 11765.0 11765 11747 11747.0 11747 3067 3067.0 3067 3113 3113.0 3113 
55 68500 68500.0 68500 11903 11903.0 11903 11923 11923.0 11923 11947 11947.0 11947 11984 11984.0 11984 11984 11984.0 11984 3304 3304.0 3304 3409 3409.0 3409 
60 70840 70840.0 70840 12176 12176.0 12176 12186 12186.0 12186 12213 12213.0 12213 12304 12304.0 12304 12283 12283.0 12283 3648 3648.0 3648 3696 3696.0 3696 
65 71729 71729.0 71729 12266 12266.0 12266 12273 12273.0 12273 12308 12308.0 12308 12392 12392.0 12392 12370 12370.0 12370 3738 3738.0 3738 3787 3787.0 3787 
