# Generated by DoSarray v0.2 on 2018-06-08 18:08
0 0 0.0
0 1 0.0
0 2 3.0
0 3 26.0
0 4 51.0
0 5 18.0
0 6 0.0
0 7 2.0
0 8 0.0
0 9 0.0
0 10 0.0
1 0 0.0
1 1 0.0
1 2 0.0
1 3 15.0
1 4 37.0
1 5 40.0
1 6 8.0
1 7 0.0
1 8 0.0
1 9 0.0
1 10 0.0
2 0 0.0
2 1 0.0
2 2 0.0
2 3 9.0
2 4 37.0
2 5 45.0
2 6 9.0
2 7 0.0
2 8 0.0
2 9 0.0
2 10 0.0
3 0 0.0
3 1 0.0
3 2 0.0
3 3 8.0
3 4 46.0
3 5 45.0
3 6 2.0
3 7 0.0
3 8 0.0
3 9 0.0
3 10 0.0
4 0 0.0
4 1 0.0
4 2 0.0
4 3 14.000000000000002
4 4 45.0
4 5 37.0
4 6 5.0
4 7 0.0
4 8 0.0
4 9 0.0
4 10 0.0
5 0 0.0
5 1 0.0
5 2 3.0
5 3 32.0
5 4 46.0
5 5 18.0
5 6 0.0
5 7 0.0
5 8 0.0
5 9 0.0
5 10 0.0
6 0 0.0
6 1 0.0
6 2 2.0
6 3 9.0
6 4 40.0
6 5 45.0
6 6 5.0
6 7 0.0
6 8 0.0
6 9 0.0
6 10 0.0
7 0 0.0
7 1 0.0
7 2 0.0
7 3 8.0
7 4 45.0
7 5 43.0
7 6 5.0
7 7 0.0
7 8 0.0
7 9 0.0
7 10 0.0
8 0 0.0
8 1 0.0
8 2 0.0
8 3 17.0
8 4 42.0
8 5 37.0
8 6 5.0
8 7 0.0
8 8 0.0
8 9 0.0
8 10 0.0
9 0 0.0
9 1 0.0
9 2 0.0
9 3 5.0
9 4 45.0
9 5 45.0
9 6 6.0
9 7 0.0
9 8 0.0
9 9 0.0
9 10 0.0
10 0 0.0
10 1 0.0
10 2 6.0
10 3 32.0
10 4 38.0
10 5 12.0
10 6 2.0
10 7 0.0
10 8 0.0
10 9 0.0
10 10 0.0
30 0 0.0
30 1 0.0
30 2 3.0
30 3 8.0
30 4 37.0
30 5 40.0
30 6 3.0
30 7 0.0
30 8 0.0
30 9 0.0
30 10 0.0
31 0 0.0
31 1 0.0
31 2 0.0
31 3 6.0
31 4 32.0
31 5 54.0
31 6 8.0
31 7 0.0
31 8 0.0
31 9 0.0
31 10 0.0
32 0 0.0
32 1 0.0
32 2 2.0
32 3 8.0
32 4 28.999999999999996
32 5 54.0
32 6 8.0
32 7 0.0
32 8 0.0
32 9 0.0
32 10 0.0
33 0 0.0
33 1 0.0
33 2 0.0
33 3 15.0
33 4 49.0
33 5 28.999999999999996
33 6 6.0
33 7 0.0
33 8 0.0
33 9 0.0
33 10 0.0
34 0 0.0
34 1 0.0
34 2 0.0
34 3 20.0
34 4 52.0
34 5 23.0
34 6 5.0
34 7 0.0
34 8 0.0
34 9 0.0
34 10 0.0
35 0 0.0
35 1 0.0
35 2 0.0
35 3 11.0
35 4 48.0
35 5 35.0
35 6 6.0
35 7 0.0
35 8 0.0
35 9 0.0
35 10 0.0
36 0 0.0
36 1 0.0
36 2 0.0
36 3 12.0
36 4 51.0
36 5 31.0
36 6 6.0
36 7 0.0
36 8 0.0
36 9 0.0
36 10 0.0
37 0 0.0
37 1 0.0
37 2 2.0
37 3 8.0
37 4 35.0
37 5 48.0
37 6 8.0
37 7 0.0
37 8 0.0
37 9 0.0
37 10 0.0
38 0 0.0
38 1 0.0
38 2 0.0
38 3 12.0
38 4 48.0
38 5 34.0
38 6 6.0
38 7 0.0
38 8 0.0
38 9 0.0
38 10 0.0
39 0 0.0
39 1 0.0
39 2 0.0
39 3 6.0
39 4 54.0
39 5 31.0
39 6 9.0
39 7 0.0
39 8 0.0
39 9 0.0
39 10 0.0
40 0 0.0
40 1 0.0
40 2 2.0
40 3 11.0
40 4 46.0
40 5 38.0
40 6 3.0
40 7 0.0
40 8 0.0
40 9 0.0
40 10 0.0
41 0 0.0
41 1 0.0
41 2 0.0
41 3 11.0
41 4 43.0
41 5 38.0
41 6 8.0
41 7 0.0
41 8 0.0
41 9 0.0
41 10 0.0
42 0 0.0
42 1 0.0
42 2 0.0
42 3 18.0
42 4 63.0
42 5 14.000000000000002
42 6 5.0
42 7 0.0
42 8 0.0
42 9 0.0
42 10 0.0
43 0 0.0
43 1 0.0
43 2 0.0
43 3 12.0
43 4 35.0
43 5 42.0
43 6 11.0
43 7 0.0
43 8 0.0
43 9 0.0
43 10 0.0
44 0 0.0
44 1 0.0
44 2 2.0
44 3 8.0
44 4 48.0
44 5 40.0
44 6 3.0
44 7 0.0
44 8 0.0
44 9 0.0
44 10 0.0
45 0 0.0
45 1 0.0
45 2 0.0
45 3 14.000000000000002
45 4 42.0
45 5 37.0
45 6 6.0
45 7 2.0
45 8 0.0
45 9 0.0
45 10 0.0
46 0 0.0
46 1 0.0
46 2 0.0
46 3 15.0
46 4 49.0
46 5 34.0
46 6 2.0
46 7 0.0
46 8 0.0
46 9 0.0
46 10 0.0
47 0 0.0
47 1 0.0
47 2 12.0
47 3 26.0
47 4 46.0
47 5 15.0
47 6 0.0
47 7 0.0
47 8 0.0
47 9 0.0
47 10 0.0
48 0 0.0
48 1 0.0
48 2 2.0
48 3 12.0
48 4 43.0
48 5 37.0
48 6 6.0
48 7 0.0
48 8 0.0
48 9 0.0
48 10 0.0
49 0 0.0
49 1 0.0
49 2 2.0
49 3 20.0
49 4 32.0
49 5 38.0
49 6 8.0
49 7 0.0
49 8 0.0
49 9 0.0
49 10 0.0
50 0 0.0
50 1 0.0
50 2 0.0
50 3 11.0
50 4 45.0
50 5 38.0
50 6 6.0
50 7 0.0
50 8 0.0
50 9 0.0
50 10 0.0
51 0 0.0
51 1 0.0
51 2 0.0
51 3 14.000000000000002
51 4 49.0
51 5 32.0
51 6 3.0
51 7 2.0
51 8 0.0
51 9 0.0
51 10 0.0
52 0 0.0
52 1 0.0
52 2 0.0
52 3 11.0
52 4 49.0
52 5 37.0
52 6 3.0
52 7 0.0
52 8 0.0
52 9 0.0
52 10 0.0
53 0 0.0
53 1 0.0
53 2 0.0
53 3 5.0
53 4 42.0
53 5 48.0
53 6 6.0
53 7 0.0
53 8 0.0
53 9 0.0
53 10 0.0
54 0 0.0
54 1 0.0
54 2 2.0
54 3 9.0
54 4 49.0
54 5 35.0
54 6 3.0
54 7 2.0
54 8 0.0
54 9 0.0
54 10 0.0
55 0 0.0
55 1 0.0
55 2 0.0
55 3 11.0
55 4 49.0
55 5 35.0
55 6 5.0
55 7 0.0
55 8 0.0
55 9 0.0
55 10 0.0
56 0 0.0
56 1 0.0
56 2 0.0
56 3 14.000000000000002
56 4 48.0
56 5 32.0
56 6 6.0
56 7 0.0
56 8 0.0
56 9 0.0
56 10 0.0
57 0 0.0
57 1 0.0
57 2 0.0
57 3 18.0
57 4 48.0
57 5 34.0
57 6 0.0
57 7 0.0
57 8 0.0
57 9 0.0
57 10 0.0
58 0 0.0
58 1 0.0
58 2 0.0
58 3 12.0
58 4 45.0
58 5 35.0
58 6 8.0
58 7 0.0
58 8 0.0
58 9 0.0
58 10 0.0
59 0 0.0
59 1 0.0
59 2 0.0
59 3 8.0
59 4 49.0
59 5 35.0
59 6 8.0
59 7 0.0
59 8 0.0
59 9 0.0
59 10 0.0
60 0 0.0
60 1 0.0
60 2 0.0
60 3 8.0
60 4 56.99999999999999
60 5 31.0
60 6 5.0
60 7 0.0
60 8 0.0
60 9 0.0
60 10 0.0
61 0 0.0
61 1 0.0
61 2 0.0
61 3 18.0
61 4 51.0
61 5 28.999999999999996
61 6 2.0
61 7 0.0
61 8 0.0
61 9 0.0
61 10 0.0
62 0 0.0
62 1 0.0
62 2 3.0
62 3 15.0
62 4 45.0
62 5 32.0
62 6 5.0
62 7 0.0
62 8 0.0
62 9 0.0
62 10 0.0
63 0 0.0
63 1 0.0
63 2 0.0
63 3 22.0
63 4 49.0
63 5 28.000000000000004
63 6 2.0
63 7 0.0
63 8 0.0
63 9 0.0
63 10 0.0
