# Generated by DoSarray v0.2 on 2018-06-20 17:31
# machine_name sequence : ['dedos01', 'dedos02', 'dedos03', 'dedos04', 'dedos05', 'dedos06', 'dedos07', 'dedos08']
# time, (min, avg, max)+
0 0.04 0.04 0.04 0.12 0.12 0.12 0.16 0.16 0.16 0.13 0.13 0.13 0.12 0.12 0.12 0.18 0.18 0.18 0.0 0.0 0.0 0.05 0.05 0.05 
5 0.12 0.12 0.12 0.11 0.11 0.11 0.15 0.15 0.15 0.12 0.12 0.12 0.11 0.11 0.11 0.17 0.17 0.17 0.0 0.0 0.0 0.12 0.12 0.12 
10 0.11 0.11 0.11 0.1 0.1 0.1 0.14 0.14 0.14 0.11 0.11 0.11 0.1 0.1 0.1 0.15 0.15 0.15 0.0 0.0 0.0 0.35 0.35 0.35 
15 0.1 0.1 0.1 0.74 0.74 0.74 2.34 2.34 2.34 0.66 0.66 0.66 0.73 0.73 0.73 1.02 1.02 1.02 0.0 0.0 0.0 0.32 0.32 0.32 
20 0.09 0.09 0.09 1.48 1.48 1.48 3.27 3.27 3.27 1.41 1.41 1.41 1.48 1.48 1.48 1.74 1.74 1.74 0.0 0.0 0.0 0.3 0.3 0.3 
25 0.08 0.08 0.08 2.16 2.16 2.16 3.81 3.81 3.81 2.1 2.1 2.1 2.16 2.16 2.16 2.4 2.4 2.4 0.0 0.0 0.0 0.27 0.27 0.27 
30 0.08 0.08 0.08 2.79 2.79 2.79 4.31 4.31 4.31 2.73 2.73 2.73 2.79 2.79 2.79 3.01 3.01 3.01 0.15 0.15 0.15 0.25 0.25 0.25 
35 0.07 0.07 0.07 3.37 3.37 3.37 4.76 4.76 4.76 3.31 3.31 3.31 3.36 3.36 3.36 3.57 3.57 3.57 0.14 0.14 0.14 0.23 0.23 0.23 
40 0.07 0.07 0.07 3.9 3.9 3.9 5.18 5.18 5.18 3.85 3.85 3.85 3.9 3.9 3.9 4.09 4.09 4.09 0.13 0.13 0.13 0.21 0.21 0.21 
45 0.06 0.06 0.06 4.39 4.39 4.39 5.57 5.57 5.57 4.34 4.34 4.34 4.39 4.39 4.39 4.56 4.56 4.56 0.12 0.12 0.12 0.2 0.2 0.2 
50 0.06 0.06 0.06 4.84 4.84 4.84 5.12 5.12 5.12 4.8 4.8 4.8 4.69 4.69 4.69 5.0 5.0 5.0 0.11 0.11 0.11 0.18 0.18 0.18 
55 0.05 0.05 0.05 4.45 4.45 4.45 4.71 4.71 4.71 4.41 4.41 4.41 4.69 4.69 4.69 4.6 4.6 4.6 0.1 0.1 0.1 0.16 0.16 0.16 
60 0.05 0.05 0.05 4.09 4.09 4.09 4.33 4.33 4.33 4.06 4.06 4.06 4.31 4.31 4.31 4.39 4.39 4.39 0.09 0.09 0.09 0.15 0.15 0.15 
65 0.04 0.04 0.04 3.76 3.76 3.76 3.99 3.99 3.99 3.73 3.73 3.73 3.89 3.89 3.89 4.04 4.04 4.04 0.08 0.08 0.08 0.14 0.14 0.14 
