dedos08 1528344209 MemTotal: 65725704 kB MemFree: 24438240 kB MemAvailable: 63258904 kB
dedos08 1528344214 MemTotal: 65725704 kB MemFree: 24426788 kB MemAvailable: 63247492 kB
dedos08 1528344219 MemTotal: 65725704 kB MemFree: 24424288 kB MemAvailable: 63244964 kB
dedos08 1528344225 MemTotal: 65725704 kB MemFree: 24423788 kB MemAvailable: 63244464 kB
dedos08 1528344230 MemTotal: 65725704 kB MemFree: 24425532 kB MemAvailable: 63246212 kB
dedos08 1528344235 MemTotal: 65725704 kB MemFree: 24424436 kB MemAvailable: 63245116 kB
dedos08 1528344240 MemTotal: 65725704 kB MemFree: 24424240 kB MemAvailable: 63244924 kB
dedos08 1528344245 MemTotal: 65725704 kB MemFree: 24426924 kB MemAvailable: 63247608 kB
dedos08 1528344250 MemTotal: 65725704 kB MemFree: 24424744 kB MemAvailable: 63245432 kB
dedos08 1528344255 MemTotal: 65725704 kB MemFree: 24426156 kB MemAvailable: 63246844 kB
dedos08 1528344261 MemTotal: 65725704 kB MemFree: 24427832 kB MemAvailable: 63248520 kB
dedos08 1528344266 MemTotal: 65725704 kB MemFree: 24424692 kB MemAvailable: 63245384 kB
dedos08 1528344271 MemTotal: 65725704 kB MemFree: 24425144 kB MemAvailable: 63245836 kB
dedos08 1528344276 MemTotal: 65725704 kB MemFree: 24423400 kB MemAvailable: 63244096 kB
