Inter-|   Receive                                                |  Transmit
 face |bytes    packets errs drop fifo frame compressed multicast|bytes    packets errs drop fifo colls carrier compressed
veth76538ff: 3050348   38851    0    0    0     0          0         0  3610414   31012    0    0    0     0       0          0
vethf8ca207: 3066958   38991    0    0    0     0          0         0  3606615   30957    0    0    0     0       0          0
veth760c0f4: 3085484   39321    0    0    0     0          0         0  3630779   31171    0    0    0     0       0          0
veth03fd896: 3077794   39225    0    0    0     0          0         0  3632179   31197    0    0    0     0       0          0
   em1: 1222092189663 3910804544    0    0    0     0          0     82339 871705266282 4129945340    0    0    0     0       0          0
    lo: 366728204 4092823    0    0    0     0          0         0 366728204 4092823    0    0    0     0       0          0
vethcf4ec5d: 3059308   38922    0    0    0     0          0         0  3591082   30836    0    0    0     0       0          0
vetha6684fa: 3076602   39143    0    0    0     0          0         0  3631494   31167    0    0    0     0       0          0
vethe418d91: 3100868   39457    0    0    0     0          0         0  3643009   31272    0    0    0     0       0          0
   em4:       0       0    0    0    0     0          0         0        0       0    0    0    0     0       0          0
docker_bridge: 1101298781 12991778    0    0    0     0          0         0 1052260383 10129484    0    0    0     0       0          0
   em3: 54080488711 860976267    0    0    0     0          0    112595 6007686906 5724139    0    0    0     0       0          0
vethb79b412: 3067426   38986    0    0    0     0          0         0  3595454   30869    0    0    0     0       0          0
veth31a4702: 3107268   39497    0    0    0     0          0         0  3645053   31305    0    0    0     0       0          0
vethf5aad1c: 3039464   38701    0    0    0     0          0         0  3581495   30747    0    0    0     0       0          0
docker0:   92981    1361    0    0    0     0          0         0 25539248    2063    0    0    0     0       0          0
   em2:       0       0    0    0    0     0          0         0        0       0    0    0    0     0       0          0
Inter-|   Receive                                                |  Transmit
 face |bytes    packets errs drop fifo frame compressed multicast|bytes    packets errs drop fifo colls carrier compressed
veth76538ff: 3053210   38888    0    0    0     0          0         0  3613948   31043    0    0    0     0       0          0
vethf8ca207: 3069820   39028    0    0    0     0          0         0  3610149   30988    0    0    0     0       0          0
veth760c0f4: 3088346   39358    0    0    0     0          0         0  3634313   31202    0    0    0     0       0          0
veth03fd896: 3080656   39262    0    0    0     0          0         0  3635713   31228    0    0    0     0       0          0
   em1: 1222092230116 3910804894    0    0    0     0          0     82340 871705299125 4129945751    0    0    0     0       0          0
    lo: 366728204 4092823    0    0    0     0          0         0 366728204 4092823    0    0    0     0       0          0
vethcf4ec5d: 3062640   38965    0    0    0     0          0         0  3595198   30872    0    0    0     0       0          0
vetha6684fa: 3079464   39180    0    0    0     0          0         0  3635028   31198    0    0    0     0       0          0
vethe418d91: 3103664   39493    0    0    0     0          0         0  3646543   31303    0    0    0     0       0          0
   em4:       0       0    0    0    0     0          0         0        0       0    0    0    0     0       0          0
docker_bridge: 1101323327 12992165    0    0    0     0          0         0 1052297469 10129809    0    0    0     0       0          0
   em3: 54080531222 860976770    0    0    0     0          0    112595 6007702243 5724213    0    0    0     0       0          0
vethb79b412: 3070758   39029    0    0    0     0          0         0  3599570   30905    0    0    0     0       0          0
veth31a4702: 3110130   39534    0    0    0     0          0         0  3648587   31336    0    0    0     0       0          0
vethf5aad1c: 3042796   38744    0    0    0     0          0         0  3585611   30783    0    0    0     0       0          0
docker0:   92981    1361    0    0    0     0          0         0 25539248    2063    0    0    0     0       0          0
   em2:       0       0    0    0    0     0          0         0        0       0    0    0    0     0       0          0
Inter-|   Receive                                                |  Transmit
 face |bytes    packets errs drop fifo frame compressed multicast|bytes    packets errs drop fifo colls carrier compressed
veth76538ff: 3055090   38912    0    0    0     0          0         0  3616276   31063    0    0    0     0       0          0
vethf8ca207: 3071304   39047    0    0    0     0          0         0  3611895   31003    0    0    0     0       0          0
veth760c0f4: 3090028   39379    0    0    0     0          0         0  3636199   31219    0    0    0     0       0          0
veth03fd896: 3082536   39286    0    0    0     0          0         0  3638041   31248    0    0    0     0       0          0
   em1: 1222092255559 3910805116    0    0    0     0          0     82340 871705320618 4129946014    0    0    0     0       0          0
    lo: 366728204 4092823    0    0    0     0          0         0 366728204 4092823    0    0    0     0       0          0
vethcf4ec5d: 3064124   38984    0    0    0     0          0         0  3596944   30887    0    0    0     0       0          0
vetha6684fa: 3081344   39204    0    0    0     0          0         0  3637290   31217    0    0    0     0       0          0
vethe418d91: 3105544   39517    0    0    0     0          0         0  3648871   31323    0    0    0     0       0          0
   em4:       0       0    0    0    0     0          0         0        0       0    0    0    0     0       0          0
docker_bridge: 1101337307 12992382    0    0    0     0          0         0 1052317913 10129985    0    0    0     0       0          0
   em3: 54080567382 860977182    0    0    0     0          0    112595 6007718486 5724290    0    0    0     0       0          0
vethb79b412: 3072242   39048    0    0    0     0          0         0  3601316   30920    0    0    0     0       0          0
veth31a4702: 3112010   39558    0    0    0     0          0         0  3650915   31356    0    0    0     0       0          0
vethf5aad1c: 3044280   38763    0    0    0     0          0         0  3587357   30798    0    0    0     0       0          0
docker0:   92981    1361    0    0    0     0          0         0 25539248    2063    0    0    0     0       0          0
   em2:       0       0    0    0    0     0          0         0        0       0    0    0    0     0       0          0
Inter-|   Receive                                                |  Transmit
 face |bytes    packets errs drop fifo frame compressed multicast|bytes    packets errs drop fifo colls carrier compressed
veth76538ff: 3056550   38931    0    0    0     0          0         0  3618022   31078    0    0    0     0       0          0
vethf8ca207: 3072260   39059    0    0    0     0          0         0  3613059   31013    0    0    0     0       0          0
veth760c0f4: 3091216   39395    0    0    0     0          0         0  3637805   31232    0    0    0     0       0          0
veth03fd896: 3083996   39305    0    0    0     0          0         0  3639787   31263    0    0    0     0       0          0
   em1: 1222092270362 3910805244    0    0    0     0          0     82340 871705334079 4129946182    0    0    0     0       0          0
    lo: 366728204 4092823    0    0    0     0          0         0 366728204 4092823    0    0    0     0       0          0
vethcf4ec5d: 3064494   38989    0    0    0     0          0         0  3596944   30887    0    0    0     0       0          0
vetha6684fa: 3082804   39223    0    0    0     0          0         0  3639036   31232    0    0    0     0       0          0
vethe418d91: 3107004   39536    0    0    0     0          0         0  3650617   31338    0    0    0     0       0          0
   em4:       0       0    0    0    0     0          0         0        0       0    0    0    0     0       0          0
docker_bridge: 1101345929 12992520    0    0    0     0          0         0 1052329413 10130083    0    0    0     0       0          0
   em3: 54080602833 860977597    0    0    0     0          0    112595 6007732699 5724350    0    0    0     0       0          0
vethb79b412: 3072612   39053    0    0    0     0          0         0  3601316   30920    0    0    0     0       0          0
veth31a4702: 3113470   39577    0    0    0     0          0         0  3652661   31371    0    0    0     0       0          0
vethf5aad1c: 3044650   38768    0    0    0     0          0         0  3587357   30798    0    0    0     0       0          0
docker0:   92981    1361    0    0    0     0          0         0 25539248    2063    0    0    0     0       0          0
   em2:       0       0    0    0    0     0          0         0        0       0    0    0    0     0       0          0
Inter-|   Receive                                                |  Transmit
 face |bytes    packets errs drop fifo frame compressed multicast|bytes    packets errs drop fifo colls carrier compressed
veth76538ff: 3056994   38937    0    0    0     0          0         0  3618022   31078    0    0    0     0       0          0
vethf8ca207: 3072704   39065    0    0    0     0          0         0  3613059   31013    0    0    0     0       0          0
veth760c0f4: 3091660   39401    0    0    0     0          0         0  3637805   31232    0    0    0     0       0          0
veth03fd896: 3084440   39311    0    0    0     0          0         0  3639787   31263    0    0    0     0       0          0
   em1: 1222092275785 3910805294    0    0    0     0          0     82340 871705343312 4129946291    0    0    0     0       0          0
    lo: 366728204 4092823    0    0    0     0          0         0 366728204 4092823    0    0    0     0       0          0
vethcf4ec5d: 3064864   38994    0    0    0     0          0         0  3596944   30887    0    0    0     0       0          0
vetha6684fa: 3083248   39229    0    0    0     0          0         0  3639036   31232    0    0    0     0       0          0
vethe418d91: 3107448   39542    0    0    0     0          0         0  3650617   31338    0    0    0     0       0          0
   em4:       0       0    0    0    0     0          0         0        0       0    0    0    0     0       0          0
docker_bridge: 1101349469 12992579    0    0    0     0          0         0 1052329413 10130083    0    0    0     0       0          0
   em3: 54080646599 860978092    0    0    0     0          0    112595 6007749500 5724438    0    0    0     0       0          0
vethb79b412: 3073056   39059    0    0    0     0          0         0  3601316   30920    0    0    0     0       0          0
veth31a4702: 3113914   39583    0    0    0     0          0         0  3652661   31371    0    0    0     0       0          0
vethf5aad1c: 3045094   38774    0    0    0     0          0         0  3587357   30798    0    0    0     0       0          0
docker0:   92981    1361    0    0    0     0          0         0 25539248    2063    0    0    0     0       0          0
   em2:       0       0    0    0    0     0          0         0        0       0    0    0    0     0       0          0
Inter-|   Receive                                                |  Transmit
 face |bytes    packets errs drop fifo frame compressed multicast|bytes    packets errs drop fifo colls carrier compressed
veth76538ff: 3057364   38942    0    0    0     0          0         0  3618022   31078    0    0    0     0       0          0
vethf8ca207: 3073074   39070    0    0    0     0          0         0  3613059   31013    0    0    0     0       0          0
veth760c0f4: 3092030   39406    0    0    0     0          0         0  3637805   31232    0    0    0     0       0          0
veth03fd896: 3084810   39316    0    0    0     0          0         0  3639787   31263    0    0    0     0       0          0
   em1: 1222092280420 3910805337    0    0    0     0          0     82340 871705351137 4129946384    0    0    0     0       0          0
    lo: 366728204 4092823    0    0    0     0          0         0 366728204 4092823    0    0    0     0       0          0
vethcf4ec5d: 3065234   38999    0    0    0     0          0         0  3596944   30887    0    0    0     0       0          0
vetha6684fa: 3083618   39234    0    0    0     0          0         0  3639036   31232    0    0    0     0       0          0
vethe418d91: 3107818   39547    0    0    0     0          0         0  3650617   31338    0    0    0     0       0          0
   em4:       0       0    0    0    0     0          0         0        0       0    0    0    0     0       0          0
docker_bridge: 1101352469 12992629    0    0    0     0          0         0 1052329413 10130083    0    0    0     0       0          0
   em3: 54080686254 860978546    0    0    0     0          0    112595 6007765409 5724514    0    0    0     0       0          0
vethb79b412: 3073426   39064    0    0    0     0          0         0  3601316   30920    0    0    0     0       0          0
veth31a4702: 3114284   39588    0    0    0     0          0         0  3652661   31371    0    0    0     0       0          0
vethf5aad1c: 3045464   38779    0    0    0     0          0         0  3587357   30798    0    0    0     0       0          0
docker0:   92981    1361    0    0    0     0          0         0 25539248    2063    0    0    0     0       0          0
   em2:       0       0    0    0    0     0          0         0        0       0    0    0    0     0       0          0
Inter-|   Receive                                                |  Transmit
 face |bytes    packets errs drop fifo frame compressed multicast|bytes    packets errs drop fifo colls carrier compressed
veth76538ff: 3057932   38949    0    0    0     0          0         0  3618162   31080    0    0    0     0       0          0
vethf8ca207: 3073642   39077    0    0    0     0          0         0  3613199   31015    0    0    0     0       0          0
veth760c0f4: 3092598   39413    0    0    0     0          0         0  3637945   31234    0    0    0     0       0          0
veth03fd896: 3085378   39323    0    0    0     0          0         0  3639927   31265    0    0    0     0       0          0
   em1: 1222092285975 3910805393    0    0    0     0          0     82340 871705360306 4129946490    0    0    0     0       0          0
    lo: 366728204 4092823    0    0    0     0          0         0 366728204 4092823    0    0    0     0       0          0
vethcf4ec5d: 3065604   39004    0    0    0     0          0         0  3596944   30887    0    0    0     0       0          0
vetha6684fa: 3084186   39241    0    0    0     0          0         0  3639176   31234    0    0    0     0       0          0
vethe418d91: 3108386   39554    0    0    0     0          0         0  3650757   31340    0    0    0     0       0          0
   em4:       0       0    0    0    0     0          0         0        0       0    0    0    0     0       0          0
docker_bridge: 1101356659 12992693    0    0    0     0          0         0 1052330393 10130097    0    0    0     0       0          0
   em3: 54080728397 860979021    0    0    0     0          0    112596 6007780998 5724588    0    0    0     0       0          0
vethb79b412: 3073796   39069    0    0    0     0          0         0  3601316   30920    0    0    0     0       0          0
veth31a4702: 3114852   39595    0    0    0     0          0         0  3652801   31373    0    0    0     0       0          0
vethf5aad1c: 3045834   38784    0    0    0     0          0         0  3587357   30798    0    0    0     0       0          0
docker0:   92981    1361    0    0    0     0          0         0 25539248    2063    0    0    0     0       0          0
   em2:       0       0    0    0    0     0          0         0        0       0    0    0    0     0       0          0
Inter-|   Receive                                                |  Transmit
 face |bytes    packets errs drop fifo frame compressed multicast|bytes    packets errs drop fifo colls carrier compressed
veth76538ff: 3059128   38965    0    0    0     0          0         0  3619768   31093    0    0    0     0       0          0
vethf8ca207: 3074838   39093    0    0    0     0          0         0  3614805   31028    0    0    0     0       0          0
veth760c0f4: 3093794   39429    0    0    0     0          0         0  3639551   31247    0    0    0     0       0          0
veth03fd896: 3086244   39335    0    0    0     0          0         0  3640951   31273    0    0    0     0       0          0
   em1: 1222092301210 3910805521    0    0    0     0          0     82340 871705373475 4129946654    0    0    0     0       0          0
    lo: 366728204 4092823    0    0    0     0          0         0 366728204 4092823    0    0    0     0       0          0
vethcf4ec5d: 3066304   39013    0    0    0     0          0         0  3597526   30892    0    0    0     0       0          0
vetha6684fa: 3085382   39257    0    0    0     0          0         0  3640782   31247    0    0    0     0       0          0
vethe418d91: 3109186   39565    0    0    0     0          0         0  3651781   31348    0    0    0     0       0          0
   em4:       0       0    0    0    0     0          0         0        0       0    0    0    0     0       0          0
docker_bridge: 1101364037 12992815    0    0    0     0          0         0 1052341053 10130183    0    0    0     0       0          0
   em3: 54080764796 860979401    0    0    0     0          0    112596 6007796611 5724662    0    0    0     0       0          0
vethb79b412: 3074166   39074    0    0    0     0          0         0  3601316   30920    0    0    0     0       0          0
veth31a4702: 3116048   39611    0    0    0     0          0         0  3654407   31386    0    0    0     0       0          0
vethf5aad1c: 3046204   38789    0    0    0     0          0         0  3587357   30798    0    0    0     0       0          0
docker0:   92981    1361    0    0    0     0          0         0 25539248    2063    0    0    0     0       0          0
   em2:       0       0    0    0    0     0          0         0        0       0    0    0    0     0       0          0
Inter-|   Receive                                                |  Transmit
 face |bytes    packets errs drop fifo frame compressed multicast|bytes    packets errs drop fifo colls carrier compressed
veth76538ff: 3059498   38970    0    0    0     0          0         0  3619768   31093    0    0    0     0       0          0
vethf8ca207: 3075208   39098    0    0    0     0          0         0  3614805   31028    0    0    0     0       0          0
veth760c0f4: 3094164   39434    0    0    0     0          0         0  3639551   31247    0    0    0     0       0          0
veth03fd896: 3086614   39340    0    0    0     0          0         0  3640951   31273    0    0    0     0       0          0
   em1: 1222092305785 3910805563    0    0    0     0          0     82340 871705381406 4129946748    0    0    0     0       0          0
    lo: 366728204 4092823    0    0    0     0          0         0 366728204 4092823    0    0    0     0       0          0
vethcf4ec5d: 3066674   39018    0    0    0     0          0         0  3597526   30892    0    0    0     0       0          0
vetha6684fa: 3085752   39262    0    0    0     0          0         0  3640782   31247    0    0    0     0       0          0
vethe418d91: 3109556   39570    0    0    0     0          0         0  3651781   31348    0    0    0     0       0          0
   em4:       0       0    0    0    0     0          0         0        0       0    0    0    0     0       0          0
docker_bridge: 1101367157 12992867    0    0    0     0          0         0 1052341053 10130183    0    0    0     0       0          0
   em3: 54080802623 860979824    0    0    0     0          0    112596 6007812056 5724734    0    0    0     0       0          0
vethb79b412: 3074610   39080    0    0    0     0          0         0  3601316   30920    0    0    0     0       0          0
veth31a4702: 3116418   39616    0    0    0     0          0         0  3654407   31386    0    0    0     0       0          0
vethf5aad1c: 3046648   38795    0    0    0     0          0         0  3587357   30798    0    0    0     0       0          0
docker0:   92981    1361    0    0    0     0          0         0 25539248    2063    0    0    0     0       0          0
   em2:       0       0    0    0    0     0          0         0        0       0    0    0    0     0       0          0
Inter-|   Receive                                                |  Transmit
 face |bytes    packets errs drop fifo frame compressed multicast|bytes    packets errs drop fifo colls carrier compressed
veth76538ff: 3059942   38976    0    0    0     0          0         0  3619768   31093    0    0    0     0       0          0
vethf8ca207: 3075652   39104    0    0    0     0          0         0  3614805   31028    0    0    0     0       0          0
veth760c0f4: 3094608   39440    0    0    0     0          0         0  3639551   31247    0    0    0     0       0          0
veth03fd896: 3086984   39345    0    0    0     0          0         0  3640951   31273    0    0    0     0       0          0
   em1: 1222092310540 3910805607    0    0    0     0          0     82340 871705390001 4129946850    0    0    0     0       0          0
    lo: 366728204 4092823    0    0    0     0          0         0 366728204 4092823    0    0    0     0       0          0
vethcf4ec5d: 3067118   39024    0    0    0     0          0         0  3597526   30892    0    0    0     0       0          0
vetha6684fa: 3086196   39268    0    0    0     0          0         0  3640782   31247    0    0    0     0       0          0
vethe418d91: 3110000   39576    0    0    0     0          0         0  3651781   31348    0    0    0     0       0          0
   em4:       0       0    0    0    0     0          0         0        0       0    0    0    0     0       0          0
docker_bridge: 1101370577 12992924    0    0    0     0          0         0 1052341053 10130183    0    0    0     0       0          0
   em3: 54080843018 860980292    0    0    0     0          0    112596 6007828077 5724808    0    0    0     0       0          0
vethb79b412: 3074980   39085    0    0    0     0          0         0  3601316   30920    0    0    0     0       0          0
veth31a4702: 3116862   39622    0    0    0     0          0         0  3654407   31386    0    0    0     0       0          0
vethf5aad1c: 3047018   38800    0    0    0     0          0         0  3587357   30798    0    0    0     0       0          0
docker0:   92981    1361    0    0    0     0          0         0 25539248    2063    0    0    0     0       0          0
   em2:       0       0    0    0    0     0          0         0        0       0    0    0    0     0       0          0
Inter-|   Receive                                                |  Transmit
 face |bytes    packets errs drop fifo frame compressed multicast|bytes    packets errs drop fifo colls carrier compressed
veth76538ff: 3061434   38995    0    0    0     0          0         0  3621514   31108    0    0    0     0       0          0
vethf8ca207: 3077210   39124    0    0    0     0          0         0  3616551   31043    0    0    0     0       0          0
veth760c0f4: 3096100   39459    0    0    0     0          0         0  3641297   31262    0    0    0     0       0          0
veth03fd896: 3088476   39364    0    0    0     0          0         0  3642697   31288    0    0    0     0       0          0
   em1: 1222092332575 3910805799    0    0    0     0          0     82340 871705409400 4129947088    0    0    0     0       0          0
    lo: 366728204 4092823    0    0    0     0          0         0 366728204 4092823    0    0    0     0       0          0
vethcf4ec5d: 3068676   39044    0    0    0     0          0         0  3599272   30907    0    0    0     0       0          0
vetha6684fa: 3087688   39287    0    0    0     0          0         0  3642528   31262    0    0    0     0       0          0
vethe418d91: 3111558   39596    0    0    0     0          0         0  3653527   31363    0    0    0     0       0          0
   em4:       0       0    0    0    0     0          0         0        0       0    0    0    0     0       0          0
docker_bridge: 1101383149 12993120    0    0    0     0          0         0 1052358513 10130333    0    0    0     0       0          0
   em3: 54080876375 860980668    0    0    0     0          0    112596 6007843464 5724877    0    0    0     0       0          0
vethb79b412: 3076538   39105    0    0    0     0          0         0  3603062   30935    0    0    0     0       0          0
veth31a4702: 3118420   39642    0    0    0     0          0         0  3656153   31401    0    0    0     0       0          0
vethf5aad1c: 3048576   38820    0    0    0     0          0         0  3589103   30813    0    0    0     0       0          0
docker0:   92981    1361    0    0    0     0          0         0 25539248    2063    0    0    0     0       0          0
   em2:       0       0    0    0    0     0          0         0        0       0    0    0    0     0       0          0
Inter-|   Receive                                                |  Transmit
 face |bytes    packets errs drop fifo frame compressed multicast|bytes    packets errs drop fifo colls carrier compressed
veth76538ff: 3063760   39025    0    0    0     0          0         0  3624466   31134    0    0    0     0       0          0
vethf8ca207: 3079536   39154    0    0    0     0          0         0  3619503   31069    0    0    0     0       0          0
veth760c0f4: 3098492   39490    0    0    0     0          0         0  3644249   31288    0    0    0     0       0          0
veth03fd896: 3090802   39394    0    0    0     0          0         0  3645649   31314    0    0    0     0       0          0
   em1: 1222092366250 3910806091    0    0    0     0          0     82340 871705436521 4129947423    0    0    0     0       0          0
    lo: 366728204 4092823    0    0    0     0          0         0 366728204 4092823    0    0    0     0       0          0
vethcf4ec5d: 3071068   39075    0    0    0     0          0         0  3602224   30933    0    0    0     0       0          0
vetha6684fa: 3089948   39316    0    0    0     0          0         0  3645480   31288    0    0    0     0       0          0
vethe418d91: 3113884   39626    0    0    0     0          0         0  3656479   31389    0    0    0     0       0          0
   em4:       0       0    0    0    0     0          0         0        0       0    0    0    0     0       0          0
docker_bridge: 1101402365 12993423    0    0    0     0          0         0 1052388033 10130593    0    0    0     0       0          0
   em3: 54080909108 860981033    0    0    0     0          0    112596 6007858671 5724944    0    0    0     0       0          0
vethb79b412: 3078930   39136    0    0    0     0          0         0  3606014   30961    0    0    0     0       0          0
veth31a4702: 3120746   39672    0    0    0     0          0         0  3659105   31427    0    0    0     0       0          0
vethf5aad1c: 3050968   38851    0    0    0     0          0         0  3592055   30839    0    0    0     0       0          0
docker0:   92981    1361    0    0    0     0          0         0 25539248    2063    0    0    0     0       0          0
   em2:       0       0    0    0    0     0          0         0        0       0    0    0    0     0       0          0
Inter-|   Receive                                                |  Transmit
 face |bytes    packets errs drop fifo frame compressed multicast|bytes    packets errs drop fifo colls carrier compressed
veth76538ff: 3066110   39055    0    0    0     0          0         0  3627376   31159    0    0    0     0       0          0
vethf8ca207: 3081688   39181    0    0    0     0          0         0  3622413   31094    0    0    0     0       0          0
veth760c0f4: 3100578   39516    0    0    0     0          0         0  3647159   31313    0    0    0     0       0          0
veth03fd896: 3093152   39424    0    0    0     0          0         0  3648559   31339    0    0    0     0       0          0
   em1: 1222092401937 3910806401    0    0    0     0          0     82340 871705465168 4129947775    0    0    0     0       0          0
    lo: 366728204 4092823    0    0    0     0          0         0 366728204 4092823    0    0    0     0       0          0
vethcf4ec5d: 3073418   39105    0    0    0     0          0         0  3605134   30958    0    0    0     0       0          0
vetha6684fa: 3092166   39344    0    0    0     0          0         0  3648390   31313    0    0    0     0       0          0
vethe418d91: 3116168   39655    0    0    0     0          0         0  3659389   31414    0    0    0     0       0          0
   em4:       0       0    0    0    0     0          0         0        0       0    0    0    0     0       0          0
docker_bridge: 1101421917 12993725    0    0    0     0          0         0 1052418297 10130853    0    0    0     0       0          0
   em3: 54080946413 860981445    0    0    0     0          0    112596 6007875046 5725023    0    0    0     0       0          0
vethb79b412: 3081750   39172    0    0    0     0          0         0  3609506   30991    0    0    0     0       0          0
veth31a4702: 3123096   39702    0    0    0     0          0         0  3662015   31452    0    0    0     0       0          0
vethf5aad1c: 3053788   38887    0    0    0     0          0         0  3595547   30869    0    0    0     0       0          0
docker0:   92981    1361    0    0    0     0          0         0 25539248    2063    0    0    0     0       0          0
   em2:       0       0    0    0    0     0          0         0        0       0    0    0    0     0       0          0
Inter-|   Receive                                                |  Transmit
 face |bytes    packets errs drop fifo frame compressed multicast|bytes    packets errs drop fifo colls carrier compressed
veth76538ff: 3068732   39088    0    0    0     0          0         0  3630868   31189    0    0    0     0       0          0
vethf8ca207: 3084376   39215    0    0    0     0          0         0  3625905   31124    0    0    0     0       0          0
veth760c0f4: 3103398   39552    0    0    0     0          0         0  3650585   31342    0    0    0     0       0          0
veth03fd896: 3095774   39457    0    0    0     0          0         0  3652051   31369    0    0    0     0       0          0
   em1: 1222092439566 3910806726    0    0    0     0          0     82340 871705494669 4129948140    0    0    0     0       0          0
    lo: 366728204 4092823    0    0    0     0          0         0 366728204 4092823    0    0    0     0       0          0
vethcf4ec5d: 3076238   39141    0    0    0     0          0         0  3608626   30988    0    0    0     0       0          0
vetha6684fa: 3094722   39376    0    0    0     0          0         0  3651882   31343    0    0    0     0       0          0
vethe418d91: 3118658   39686    0    0    0     0          0         0  3662881   31444    0    0    0     0       0          0
   em4:       0       0    0    0    0     0          0         0        0       0    0    0    0     0       0          0
docker_bridge: 1101443317 12994054    0    0    0     0          0         0 1052451987 10131142    0    0    0     0       0          0
   em3: 54080978956 860981805    0    0    0     0          0    112596 6007889957 5725088    0    0    0     0       0          0
vethb79b412: 3084100   39202    0    0    0     0          0         0  3612416   31016    0    0    0     0       0          0
veth31a4702: 3125784   39736    0    0    0     0          0         0  3665507   31482    0    0    0     0       0          0
vethf5aad1c: 3056138   38917    0    0    0     0          0         0  3598457   30894    0    0    0     0       0          0
docker0:   92981    1361    0    0    0     0          0         0 25539248    2063    0    0    0     0       0          0
   em2:       0       0    0    0    0     0          0         0        0       0    0    0    0     0       0          0
