# Generated by DoSarray v0.2 on 2018-06-20 18:57
# machine_name sequence : ['dedos01', 'dedos02', 'dedos03', 'dedos04', 'dedos05', 'dedos06', 'dedos07', 'dedos08']
# time, (min, avg, max)+
0 0.0208263725863 0.0208263725863 0.0208263725863 0.0239980997389 0.0239980997389 0.0239980997389 0.0225794766687 0.0225794766687 0.0225794766687 0.0216642183095 0.0216642183095 0.0216642183095 0.0206097145799 0.0206097145799 0.0206097145799 0.0199883442861 0.0199883442861 0.0199883442861 0.0218110101947 0.0218110101947 0.0218110101947 0.0218047417187 0.0218047417187 0.0218047417187 
5 0.0207953345011 0.0207953345011 0.0207953345011 0.0243683049785 0.0243683049785 0.0243683049785 0.0229990994087 0.0229990994087 0.0229990994087 0.0225018205967 0.0225018205967 0.0225018205967 0.0218917092162 0.0218917092162 0.0218917092162 0.0204156352589 0.0204156352589 0.0204156352589 0.0219519596169 0.0219519596169 0.0219519596169 0.0219831802791 0.0219831802791 0.0219831802791 
10 0.0208893007825 0.0208893007825 0.0208893007825 0.0250807203221 0.0250807203221 0.0250807203221 0.0236715912545 0.0236715912545 0.0236715912545 0.0225295722964 0.0225295722964 0.0225295722964 0.0218552546809 0.0218552546809 0.0218552546809 0.0205167220423 0.0205167220423 0.0205167220423 0.0219428307683 0.0219428307683 0.0219428307683 0.0220078890292 0.0220078890292 0.0220078890292 
15 0.0216720082603 0.0216720082603 0.0216720082603 0.0251258168342 0.0251258168342 0.0251258168342 0.0237176006513 0.0237176006513 0.0237176006513 0.022525677321 0.022525677321 0.022525677321 0.0219441696661 0.0219441696661 0.0219441696661 0.0204335278022 0.0204335278022 0.0204335278022 0.0219290157774 0.0219290157774 0.0219290157774 0.021989874768 0.021989874768 0.021989874768 
20 0.0216839366224 0.0216839366224 0.0216839366224 0.0251357368496 0.0251357368496 0.0251357368496 0.0237100541365 0.0237100541365 0.0237100541365 0.0225124100611 0.0225124100611 0.0225124100611 0.0218716866083 0.0218716866083 0.0218716866083 0.0204650527593 0.0204650527593 0.0204650527593 0.021938692357 0.021938692357 0.021938692357 0.0219988210396 0.0219988210396 0.0219988210396 
25 0.0217264161978 0.0217264161978 0.0217264161978 0.0251099326376 0.0251099326376 0.0251099326376 0.0237144968428 0.0237144968428 0.0237144968428 0.0225620101384 0.0225620101384 0.0225620101384 0.0219016900907 0.0219016900907 0.0219016900907 0.0204597580271 0.0204597580271 0.0204597580271 0.0219374143181 0.0219374143181 0.0219374143181 0.0219804416245 0.0219804416245 0.0219804416245 
30 0.0217777203269 0.0217777203269 0.0217777203269 0.0251054290723 0.0251054290723 0.0251054290723 0.023707132905 0.023707132905 0.023707132905 0.0225123492021 0.0225123492021 0.0225123492021 0.0219013249367 0.0219013249367 0.0219013249367 0.0204600014631 0.0204600014631 0.0204600014631 0.0219333367658 0.0219333367658 0.0219333367658 0.0219999165015 0.0219999165015 0.0219999165015 
35 0.021951046732 0.021951046732 0.021951046732 0.025191240249 0.025191240249 0.025191240249 0.0237805288476 0.0237805288476 0.0237805288476 0.0225423526844 0.0225423526844 0.0225423526844 0.0219091757465 0.0219091757465 0.0219091757465 0.0204391268293 0.0204391268293 0.0204391268293 0.0219490383853 0.0219490383853 0.0219490383853 0.0219970561289 0.0219970561289 0.0219970561289 
40 0.0219470300387 0.0219470300387 0.0219470300387 0.0251877712866 0.0251877712866 0.0251877712866 0.023719852434 0.023719852434 0.023719852434 0.0225311546302 0.0225311546302 0.0225311546302 0.0219080194257 0.0219080194257 0.0219080194257 0.0204736947359 0.0204736947359 0.0204736947359 0.0219528725018 0.0219528725018 0.0219528725018 0.0219864666645 0.0219864666645 0.0219864666645 
45 0.0219444131021 0.0219444131021 0.0219444131021 0.0251907533771 0.0251907533771 0.0251907533771 0.023777668475 0.023777668475 0.023777668475 0.0225226343715 0.0225226343715 0.0225226343715 0.0219114883882 0.0219114883882 0.0219114883882 0.0204489251268 0.0204489251268 0.0204489251268 0.0219612710425 0.0219612710425 0.0219612710425 0.0219806242015 0.0219806242015 0.0219806242015 
50 0.0219761206362 0.0219761206362 0.0219761206362 0.0242126885396 0.0242126885396 0.0242126885396 0.0229031247805 0.0229031247805 0.0229031247805 0.0225228169484 0.0225228169484 0.0225228169484 0.0219024812576 0.0219024812576 0.0219024812576 0.0204684608627 0.0204684608627 0.0204684608627 0.0219599930037 0.0219599930037 0.0219599930037 0.0219539679636 0.0219539679636 0.0219539679636 
55 0.0219541505406 0.0219541505406 0.0219541505406 0.0242056288967 0.0242056288967 0.0242056288967 0.0229006904209 0.0229006904209 0.0229006904209 0.0225437524412 0.0225437524412 0.0225437524412 0.0219148964916 0.0219148964916 0.0219148964916 0.0204771636984 0.0204771636984 0.0204771636984 0.0219654703128 0.0219654703128 0.0219654703128 0.021996143244 0.021996143244 0.021996143244 
60 0.0219553068614 0.0219553068614 0.0219553068614 0.0242226085551 0.0242226085551 0.0242226085551 0.0228596106023 0.0228596106023 0.0228596106023 0.022531945797 0.022531945797 0.022531945797 0.0218834932525 0.0218834932525 0.0218834932525 0.0204587234242 0.0204587234242 0.0204587234242 0.0219824499712 0.0219824499712 0.0219824499712 0.0219881098573 0.0219881098573 0.0219881098573 
65 0.0219616970554 0.0219616970554 0.0219616970554 0.0242518817296 0.0242518817296 0.0242518817296 0.0229042202424 0.0229042202424 0.0229042202424 0.0225561676753 0.0225561676753 0.0225561676753 0.0219012032188 0.0219012032188 0.0219012032188 0.0204220254529 0.0204220254529 0.0204220254529 0.0219750860333 0.0219750860333 0.0219750860333 0.0219671743645 0.0219671743645 0.0219671743645 
