# Generated by DoSarray v0.2 on 2018-06-20 18:57
# machine_name sequence : ['dedos01', 'dedos02', 'dedos03', 'dedos04', 'dedos05', 'dedos06', 'dedos07', 'dedos08']
# time, (min, avg, max)+
0 0 0.0 0 0 0.0 0 0 0.0 0 0 0.0 0 0 0.0 0 0 0.0 0 0 0.0 0 0 0.0 0 
5 2381 2381.0 2381 411 411.0 411 342 342.0 342 392 392.0 392 407 407.0 407 479 479.0 479 411 411.0 411 431 431.0 431 
10 4609 4609.0 4609 1257 1257.0 1257 735 735.0 735 698 698.0 698 708 708.0 708 724 724.0 724 674 674.0 674 680 680.0 680 
15 6207 6207.0 6207 2136 2136.0 2136 1692 1692.0 1692 858 858.0 858 850 850.0 850 881 881.0 881 842 842.0 842 864 864.0 864 
20 6514 6514.0 6514 2376 2376.0 2376 1870 1870.0 1870 979 979.0 979 932 932.0 932 1001 1001.0 1001 951 951.0 951 975 975.0 975 
25 6827 6827.0 6827 2610 2610.0 2610 2033 2033.0 2033 1091 1091.0 1091 1039 1039.0 1039 1088 1088.0 1088 1044 1044.0 1044 1073 1073.0 1073 
30 7523 7523.0 7523 3122 3122.0 3122 2241 2241.0 2241 1193 1193.0 1193 1140 1140.0 1140 1204 1204.0 1204 1150 1150.0 1150 1202 1202.0 1202 
35 9936 9936.0 9936 4326 4326.0 4326 3549 3549.0 3549 1369 1369.0 1369 1284 1284.0 1284 1388 1388.0 1388 1314 1314.0 1314 1372 1372.0 1372 
40 10251 10251.0 10251 4612 4612.0 4612 3723 3723.0 3723 1464 1464.0 1464 1380 1380.0 1380 1483 1483.0 1483 1408 1408.0 1408 1467 1467.0 1467 
45 10607 10607.0 10607 4869 4869.0 4869 3899 3899.0 3899 1565 1565.0 1565 1477 1477.0 1477 1583 1583.0 1583 1510 1510.0 1510 1568 1568.0 1568 
50 13297 13297.0 13297 6328 6328.0 6328 5291 5291.0 5291 1798 1798.0 1798 1715 1715.0 1715 1818 1818.0 1818 1748 1748.0 1748 1806 1806.0 1806 
55 15417 15417.0 15417 6626 6626.0 6626 5600 5600.0 5600 2127 2127.0 2127 2057 2057.0 2057 2147 2147.0 2147 2083 2083.0 2083 2145 2145.0 2145 
60 17556 17556.0 17556 6936 6936.0 6936 5923 5923.0 5923 2457 2457.0 2457 2415 2415.0 2415 2498 2498.0 2498 2435 2435.0 2435 2495 2495.0 2495 
65 19650 19650.0 19650 7270 7270.0 7270 6274 6274.0 6274 2834 2834.0 2834 2801 2801.0 2801 2853 2853.0 2853 2800 2800.0 2800 2887 2887.0 2887 
