# Generated by DoSarray v0.2 on 2018-06-14 16:04
0 0 0.0
0 1 0.0
0 2 0.0
0 3 2.0
0 4 31.0
0 5 51.0
0 6 14.000000000000002
0 7 2.0
0 8 0.0
0 9 2.0
0 10 0.0
1 0 0.0
1 1 0.0
1 2 0.0
1 3 0.0
1 4 9.0
1 5 42.0
1 6 42.0
1 7 6.0
1 8 2.0
1 9 0.0
1 10 0.0
2 0 0.0
2 1 0.0
2 2 0.0
2 3 2.0
2 4 22.0
2 5 38.0
2 6 28.999999999999996
2 7 8.0
2 8 2.0
2 9 0.0
2 10 0.0
3 0 0.0
3 1 0.0
3 2 0.0
3 3 0.0
3 4 14.000000000000002
3 5 49.0
3 6 32.0
3 7 3.0
3 8 2.0
3 9 0.0
3 10 0.0
4 0 0.0
4 1 0.0
4 2 0.0
4 3 0.0
4 4 20.0
4 5 40.0
4 6 38.0
4 7 2.0
4 8 0.0
4 9 0.0
4 10 0.0
5 0 0.0
5 1 0.0
5 2 0.0
5 3 5.0
5 4 37.0
5 5 38.0
5 6 17.0
5 7 3.0
5 8 0.0
5 9 0.0
5 10 0.0
6 0 0.0
6 1 0.0
6 2 0.0
6 3 0.0
6 4 8.0
6 5 49.0
6 6 34.0
6 7 8.0
6 8 2.0
6 9 0.0
6 10 0.0
7 0 0.0
7 1 0.0
7 2 0.0
7 3 0.0
7 4 11.0
7 5 51.0
7 6 34.0
7 7 3.0
7 8 2.0
7 9 0.0
7 10 0.0
8 0 0.0
8 1 0.0
8 2 0.0
8 3 0.0
8 4 15.0
8 5 48.0
8 6 25.0
8 7 11.0
8 8 2.0
8 9 0.0
8 10 0.0
9 0 0.0
9 1 0.0
9 2 0.0
9 3 0.0
9 4 15.0
9 5 46.0
9 6 34.0
9 7 5.0
9 8 0.0
9 9 0.0
9 10 0.0
10 0 0.0
10 1 0.0
10 2 0.0
10 3 0.0
10 4 8.0
10 5 5.0
10 6 3.0
10 7 0.0
10 8 0.0
10 9 0.0
10 10 0.0
11 0 0.0
11 1 0.0
11 2 0.0
11 3 0.0
11 4 0.0
11 5 2.0
11 6 3.0
11 7 0.0
11 8 0.0
11 9 0.0
11 10 0.0
28 0 0.0
28 1 0.0
28 2 0.0
28 3 0.0
28 4 0.0
28 5 0.0
28 6 2.0
28 7 0.0
28 8 0.0
28 9 0.0
28 10 0.0
29 0 0.0
29 1 0.0
29 2 0.0
29 3 0.0
29 4 2.0
29 5 2.0
29 6 2.0
29 7 2.0
29 8 0.0
29 9 0.0
29 10 0.0
30 0 0.0
30 1 0.0
30 2 0.0
30 3 0.0
30 4 3.0
30 5 9.0
30 6 11.0
30 7 3.0
30 8 0.0
30 9 0.0
30 10 0.0
31 0 0.0
31 1 0.0
31 2 0.0
31 3 0.0
31 4 5.0
31 5 11.0
31 6 11.0
31 7 3.0
31 8 2.0
31 9 0.0
31 10 0.0
32 0 0.0
32 1 0.0
32 2 0.0
32 3 0.0
32 4 0.0
32 5 17.0
32 6 8.0
32 7 3.0
32 8 3.0
32 9 0.0
32 10 0.0
33 0 0.0
33 1 0.0
33 2 0.0
33 3 0.0
33 4 2.0
33 5 12.0
33 6 6.0
33 7 8.0
33 8 0.0
33 9 2.0
33 10 0.0
34 0 0.0
34 1 0.0
34 2 0.0
34 3 0.0
34 4 5.0
34 5 12.0
34 6 9.0
34 7 5.0
34 8 0.0
34 9 0.0
34 10 0.0
35 0 0.0
35 1 0.0
35 2 0.0
35 3 0.0
35 4 6.0
35 5 8.0
35 6 11.0
35 7 3.0
35 8 2.0
35 9 0.0
35 10 0.0
36 0 0.0
36 1 0.0
36 2 0.0
36 3 0.0
36 4 2.0
36 5 9.0
36 6 12.0
36 7 6.0
36 8 2.0
36 9 0.0
36 10 0.0
37 0 0.0
37 1 0.0
37 2 0.0
37 3 0.0
37 4 3.0
37 5 6.0
37 6 17.0
37 7 3.0
37 8 2.0
37 9 0.0
37 10 0.0
38 0 0.0
38 1 0.0
38 2 0.0
38 3 0.0
38 4 2.0
38 5 11.0
38 6 9.0
38 7 9.0
38 8 0.0
38 9 0.0
38 10 0.0
39 0 0.0
39 1 0.0
39 2 0.0
39 3 2.0
39 4 0.0
39 5 11.0
39 6 17.0
39 7 5.0
39 8 0.0
39 9 0.0
39 10 0.0
40 0 0.0
40 1 0.0
40 2 0.0
40 3 0.0
40 4 3.0
40 5 12.0
40 6 14.000000000000002
40 7 8.0
40 8 0.0
40 9 0.0
40 10 0.0
41 0 0.0
41 1 0.0
41 2 0.0
41 3 2.0
41 4 9.0
41 5 9.0
41 6 25.0
41 7 14.000000000000002
41 8 0.0
41 9 0.0
41 10 0.0
42 0 0.0
42 1 0.0
42 2 0.0
42 3 0.0
42 4 9.0
42 5 28.999999999999996
42 6 18.0
42 7 8.0
42 8 0.0
42 9 2.0
42 10 0.0
43 0 0.0
43 1 0.0
43 2 0.0
43 3 0.0
43 4 6.0
43 5 28.999999999999996
43 6 28.999999999999996
43 7 17.0
43 8 2.0
43 9 0.0
43 10 0.0
44 0 0.0
44 1 0.0
44 2 0.0
44 3 0.0
44 4 9.0
44 5 31.0
44 6 25.0
44 7 20.0
44 8 8.0
44 9 0.0
44 10 0.0
45 0 0.0
45 1 0.0
45 2 0.0
45 3 2.0
45 4 12.0
45 5 32.0
45 6 34.0
45 7 17.0
45 8 3.0
45 9 0.0
45 10 0.0
46 0 0.0
46 1 0.0
46 2 0.0
46 3 3.0
46 4 12.0
46 5 28.999999999999996
46 6 35.0
46 7 17.0
46 8 3.0
46 9 0.0
46 10 0.0
47 0 0.0
47 1 0.0
47 2 0.0
47 3 0.0
47 4 14.000000000000002
47 5 32.0
47 6 37.0
47 7 14.000000000000002
47 8 3.0
47 9 0.0
47 10 0.0
48 0 0.0
48 1 0.0
48 2 0.0
48 3 0.0
48 4 14.000000000000002
48 5 32.0
48 6 40.0
48 7 9.0
48 8 3.0
48 9 0.0
48 10 0.0
49 0 0.0
49 1 0.0
49 2 0.0
49 3 0.0
49 4 9.0
49 5 40.0
49 6 28.999999999999996
49 7 18.0
49 8 0.0
49 9 3.0
49 10 0.0
50 0 0.0
50 1 0.0
50 2 0.0
50 3 3.0
50 4 12.0
50 5 34.0
50 6 35.0
50 7 11.0
50 8 2.0
50 9 0.0
50 10 0.0
51 0 0.0
51 1 0.0
51 2 0.0
51 3 2.0
51 4 9.0
51 5 28.999999999999996
51 6 34.0
51 7 18.0
51 8 8.0
51 9 0.0
51 10 0.0
52 0 0.0
52 1 0.0
52 2 0.0
52 3 0.0
52 4 5.0
52 5 31.0
52 6 42.0
52 7 15.0
52 8 6.0
52 9 2.0
52 10 0.0
53 0 0.0
53 1 0.0
53 2 0.0
53 3 0.0
53 4 11.0
53 5 26.0
53 6 35.0
53 7 17.0
53 8 6.0
53 9 2.0
53 10 0.0
54 0 0.0
54 1 0.0
54 2 0.0
54 3 2.0
54 4 6.0
54 5 28.999999999999996
54 6 45.0
54 7 14.000000000000002
54 8 5.0
54 9 0.0
54 10 0.0
55 0 0.0
55 1 0.0
55 2 0.0
55 3 2.0
55 4 12.0
55 5 28.000000000000004
55 6 43.0
55 7 14.000000000000002
55 8 2.0
55 9 0.0
55 10 0.0
56 0 0.0
56 1 0.0
56 2 0.0
56 3 0.0
56 4 14.000000000000002
56 5 40.0
56 6 35.0
56 7 9.0
56 8 2.0
56 9 0.0
56 10 0.0
57 0 0.0
57 1 0.0
57 2 0.0
57 3 0.0
57 4 9.0
57 5 40.0
57 6 37.0
57 7 12.0
57 8 0.0
57 9 2.0
57 10 0.0
58 0 0.0
58 1 0.0
58 2 0.0
58 3 0.0
58 4 11.0
58 5 35.0
58 6 37.0
58 7 15.0
58 8 0.0
58 9 2.0
58 10 0.0
59 0 0.0
59 1 0.0
59 2 0.0
59 3 3.0
59 4 9.0
59 5 26.0
59 6 35.0
59 7 18.0
59 8 8.0
59 9 0.0
59 10 0.0
60 0 0.0
60 1 0.0
60 2 0.0
60 3 0.0
60 4 18.0
60 5 32.0
60 6 38.0
60 7 8.0
60 8 3.0
60 9 0.0
60 10 0.0
61 0 0.0
61 1 0.0
61 2 0.0
61 3 0.0
61 4 11.0
61 5 38.0
61 6 31.0
61 7 14.000000000000002
61 8 5.0
61 9 2.0
61 10 0.0
62 0 0.0
62 1 0.0
62 2 0.0
62 3 0.0
62 4 9.0
62 5 46.0
62 6 28.999999999999996
62 7 11.0
62 8 2.0
62 9 3.0
62 10 0.0
63 0 0.0
63 1 0.0
63 2 0.0
63 3 0.0
63 4 6.0
63 5 34.0
63 6 42.0
63 7 9.0
63 8 5.0
63 9 2.0
63 10 0.0
