PING 192.168.0.2:8011 (http://192.168.0.2):
connected to 192.168.0.2:8011 (248 bytes), seq=0 time=0.48 ms 200 OK
connected to 192.168.0.2:8011 (248 bytes), seq=1 time=0.68 ms 200 OK
connected to 192.168.0.2:8011 (248 bytes), seq=2 time=0.57 ms 200 OK
connected to 192.168.0.2:8011 (248 bytes), seq=3 time=0.73 ms 200 OK
connected to 192.168.0.2:8011 (248 bytes), seq=4 time=0.68 ms 200 OK
connected to 192.168.0.2:8011 (248 bytes), seq=5 time=0.53 ms 200 OK
connected to 192.168.0.2:8011 (248 bytes), seq=6 time=0.70 ms 200 OK
connected to 192.168.0.2:8011 (248 bytes), seq=7 time=0.61 ms 200 OK
connected to 192.168.0.2:8011 (248 bytes), seq=8 time=0.54 ms 200 OK
connected to 192.168.0.2:8011 (248 bytes), seq=9 time=0.57 ms 200 OK
connect time out
connect time out
connect time out
connect time out
connect time out
timeout while receiving reply-headers from host
could not connect (Connection refused)
could not connect (Connection refused)
could not connect (Connection refused)
could not connect (Connection refused)
could not connect (Connection refused)
could not connect (Connection refused)
could not connect (Connection refused)
could not connect (Connection refused)
could not connect (Connection refused)
could not connect (Connection refused)
could not connect (Connection refused)
could not connect (Connection refused)
could not connect (Connection refused)
could not connect (Connection refused)
connected to 192.168.0.2:8011 (248 bytes), seq=30 time=616.53 ms 200 OK
timeout while receiving reply-headers from host
could not connect (Connection refused)
could not connect (Connection refused)
could not connect (Connection refused)
could not connect (Connection refused)
could not connect (Connection refused)
could not connect (Connection refused)
could not connect (Connection refused)
could not connect (Connection refused)
could not connect (Connection refused)
could not connect (Connection refused)
could not connect (Connection refused)
connected to 192.168.0.2:8011 (248 bytes), seq=43 time=0.64 ms 200 OK
connected to 192.168.0.2:8011 (248 bytes), seq=44 time=0.78 ms 200 OK
connected to 192.168.0.2:8011 (248 bytes), seq=45 time=0.68 ms 200 OK
connected to 192.168.0.2:8011 (248 bytes), seq=46 time=0.75 ms 200 OK
connected to 192.168.0.2:8011 (248 bytes), seq=47 time=0.61 ms 200 OK
connected to 192.168.0.2:8011 (248 bytes), seq=48 time=0.61 ms 200 OK
connected to 192.168.0.2:8011 (248 bytes), seq=49 time=0.68 ms 200 OK
connected to 192.168.0.2:8011 (248 bytes), seq=50 time=0.65 ms 200 OK
connected to 192.168.0.2:8011 (248 bytes), seq=51 time=0.69 ms 200 OK
connected to 192.168.0.2:8011 (248 bytes), seq=52 time=0.74 ms 200 OK
connected to 192.168.0.2:8011 (248 bytes), seq=53 time=0.74 ms 200 OK
connected to 192.168.0.2:8011 (248 bytes), seq=54 time=0.83 ms 200 OK
connected to 192.168.0.2:8011 (248 bytes), seq=55 time=0.80 ms 200 OK
connected to 192.168.0.2:8011 (248 bytes), seq=56 time=0.63 ms 200 OK
connected to 192.168.0.2:8011 (248 bytes), seq=57 time=0.62 ms 200 OK
connected to 192.168.0.2:8011 (248 bytes), seq=58 time=0.73 ms 200 OK
connected to 192.168.0.2:8011 (248 bytes), seq=59 time=0.86 ms 200 OK
connected to 192.168.0.2:8011 (248 bytes), seq=60 time=0.65 ms 200 OK
connected to 192.168.0.2:8011 (248 bytes), seq=61 time=0.71 ms 200 OK
connected to 192.168.0.2:8011 (248 bytes), seq=62 time=0.97 ms 200 OK
connected to 192.168.0.2:8011 (248 bytes), seq=63 time=0.71 ms 200 OK
connected to 192.168.0.2:8011 (248 bytes), seq=64 time=0.67 ms 200 OK
--- http://192.168.0.2 ping statistics ---
65 connects, 33 ok, 49.23% failed, time 71665ms
round-trip min/avg/max = 0.5/19.3/616.5 ms
