dedos06 1529006516 MemTotal: 65725704 kB MemFree: 48622784 kB MemAvailable: 64266800 kB
dedos06 1529006522 MemTotal: 65725704 kB MemFree: 48599300 kB MemAvailable: 64243352 kB
dedos06 1529006527 MemTotal: 65725704 kB MemFree: 48562836 kB MemAvailable: 64206924 kB
dedos06 1529006532 MemTotal: 65725704 kB MemFree: 48516984 kB MemAvailable: 64161072 kB
dedos06 1529006537 MemTotal: 65725704 kB MemFree: 48514472 kB MemAvailable: 64158560 kB
dedos06 1529006542 MemTotal: 65725704 kB MemFree: 48513140 kB MemAvailable: 64157232 kB
dedos06 1529006548 MemTotal: 65725704 kB MemFree: 48507604 kB MemAvailable: 64151696 kB
dedos06 1529006553 MemTotal: 65725704 kB MemFree: 48512944 kB MemAvailable: 64157040 kB
dedos06 1529006558 MemTotal: 65725704 kB MemFree: 48513360 kB MemAvailable: 64157456 kB
dedos06 1529006563 MemTotal: 65725704 kB MemFree: 48512488 kB MemAvailable: 64156584 kB
dedos06 1529006569 MemTotal: 65725704 kB MemFree: 48609252 kB MemAvailable: 64253352 kB
dedos06 1529006574 MemTotal: 65725704 kB MemFree: 48612204 kB MemAvailable: 64256304 kB
dedos06 1529006579 MemTotal: 65725704 kB MemFree: 48608148 kB MemAvailable: 64252248 kB
dedos06 1529006584 MemTotal: 65725704 kB MemFree: 48608824 kB MemAvailable: 64252924 kB
