dedos05 1529006516 0.33 0.31 0.13 3/579 142287
dedos05 1529006521 0.30 0.31 0.13 3/641 142627
dedos05 1529006527 0.49 0.35 0.14 3/897 143080
dedos05 1529006532 0.45 0.34 0.14 1/887 143334
dedos05 1529006537 0.58 0.37 0.15 2/894 143549
dedos05 1529006542 0.53 0.36 0.15 1/888 143764
dedos05 1529006548 0.49 0.36 0.15 3/888 143977
dedos05 1529006553 0.45 0.35 0.15 2/893 144190
dedos05 1529006558 0.41 0.34 0.15 2/893 144403
dedos05 1529006563 0.38 0.34 0.15 2/891 144616
dedos05 1529006569 0.35 0.33 0.15 1/606 144876
dedos05 1529006574 0.32 0.33 0.15 2/613 145090
dedos05 1529006579 0.29 0.32 0.15 2/612 145302
dedos05 1529006584 0.27 0.31 0.14 1/606 145516
