# Generated by DoSarray v0.2 on 2018-06-14 16:03
# machine_name sequence : ['dedos01', 'dedos02', 'dedos03', 'dedos04', 'dedos05', 'dedos06', 'dedos07', 'dedos08']
# time, (min, avg, max)+
0 0.0207586365298 0.0207586365298 0.0207586365298 0.0345339473275 0.0345339473275 0.0345339473275 0.0231966476921 0.0231966476921 0.0231966476921 0.0222409181041 0.0222409181041 0.0222409181041 0.0218727212112 0.0218727212112 0.0218727212112 0.022196856195 0.022196856195 0.022196856195 0.0217621404253 0.0217621404253 0.0217621404253 0.0217076716287 0.0217076716287 0.0217076716287 
5 0.0207881531402 0.0207881531402 0.0207881531402 0.0345641333868 0.0345641333868 0.0345641333868 0.0231535595267 0.0231535595267 0.0231535595267 0.0223493688253 0.0223493688253 0.0223493688253 0.0221149399936 0.0221149399936 0.0221149399936 0.0225536115977 0.0225536115977 0.0225536115977 0.0219853103437 0.0219853103437 0.0219853103437 0.0220433698207 0.0220433698207 0.0220433698207 
10 0.0210096190069 0.0210096190069 0.0210096190069 0.0353608384324 0.0353608384324 0.0353608384324 0.0243920399848 0.0243920399848 0.0243920399848 0.02314552614 0.02314552614 0.02314552614 0.0228092802171 0.0228092802171 0.0228092802171 0.0231078544248 0.0231078544248 0.0231078544248 0.0219492818213 0.0219492818213 0.0219492818213 0.0220525595283 0.0220525595283 0.0220525595283 
15 0.0217157658745 0.0217157658745 0.0217157658745 0.0354631423956 0.0354631423956 0.0354631423956 0.0243765818012 0.0243765818012 0.0243765818012 0.0232343802662 0.0232343802662 0.0232343802662 0.0233640099161 0.0233640099161 0.0233640099161 0.0238054810337 0.0238054810337 0.0238054810337 0.0219958998081 0.0219958998081 0.0219958998081 0.0220389879734 0.0220389879734 0.0220389879734 
20 0.0217361536363 0.0217361536363 0.0217361536363 0.0354815826697 0.0354815826697 0.0354815826697 0.0243805984946 0.0243805984946 0.0243805984946 0.0232224519041 0.0232224519041 0.0232224519041 0.0233611495436 0.0233611495436 0.0233611495436 0.0238437004798 0.0238437004798 0.0238437004798 0.0220018639892 0.0220018639892 0.0220018639892 0.0220053329516 0.0220053329516 0.0220053329516 
25 0.0217428481253 0.0217428481253 0.0217428481253 0.0354560827526 0.0354560827526 0.0354560827526 0.0244183919278 0.0244183919278 0.0244183919278 0.0232268337514 0.0232268337514 0.0232268337514 0.0234364929739 0.0234364929739 0.0234364929739 0.0238639056647 0.0238639056647 0.0238639056647 0.0220357624469 0.0220357624469 0.0220357624469 0.0220056372466 0.0220056372466 0.0220056372466 
30 0.0217206345937 0.0217206345937 0.0217206345937 0.0354630206776 0.0354630206776 0.0354630206776 0.0244171747479 0.0244171747479 0.0244171747479 0.0232338325353 0.0232338325353 0.0232338325353 0.0233606018126 0.0233606018126 0.0233606018126 0.0239481345076 0.0239481345076 0.0239481345076 0.0219718605068 0.0219718605068 0.0219718605068 0.0220594974532 0.0220594974532 0.0220594974532 
35 0.0217818587382 0.0217818587382 0.0217818587382 0.0356326346843 0.0356326346843 0.0356326346843 0.0247840327431 0.0247840327431 0.0247840327431 0.0232261643025 0.0232261643025 0.0232261643025 0.0233879274994 0.0233879274994 0.0233879274994 0.0238668268962 0.0238668268962 0.0238668268962 0.0220105059658 0.0220105059658 0.0220105059658 0.0220420917819 0.0220420917819 0.0220420917819 
40 0.0218279898531 0.0218279898531 0.0218279898531 0.0357452846758 0.0357452846758 0.0357452846758 0.0247687571365 0.0247687571365 0.0247687571365 0.0232296941239 0.0232296941239 0.0232296941239 0.0233818416004 0.0233818416004 0.0233818416004 0.0238604975612 0.0238604975612 0.0238604975612 0.0220121491586 0.0220121491586 0.0220121491586 0.02204160491 0.02204160491 0.02204160491 
45 0.0218376055736 0.0218376055736 0.0218376055736 0.0357534397806 0.0357534397806 0.0357534397806 0.0247665662128 0.0247665662128 0.0247665662128 0.0234303462158 0.0234303462158 0.0234303462158 0.0233494037584 0.0233494037584 0.0233494037584 0.0238737648211 0.0238737648211 0.0238737648211 0.0219921874097 0.0219921874097 0.0219921874097 0.0220376490756 0.0220376490756 0.0220376490756 
50 0.0216440131246 0.0216440131246 0.0216440131246 0.0344130205133 0.0344130205133 0.0344130205133 0.0230500992428 0.0230500992428 0.0230500992428 0.0221712345599 0.0221712345599 0.0221712345599 0.0220039940538 0.0220039940538 0.0220039940538 0.0224014641213 0.0224014641213 0.0224014641213 0.0219540288226 0.0219540288226 0.0219540288226 0.0220540201441 0.0220540201441 0.0220540201441 
55 0.0214200520393 0.0214200520393 0.0214200520393 0.0344207496051 0.0344207496051 0.0344207496051 0.0230759034548 0.0230759034548 0.0230759034548 0.0221789636517 0.0221789636517 0.0221789636517 0.021996447539 0.021996447539 0.021996447539 0.0223565501862 0.0223565501862 0.0223565501862 0.0219702781731 0.0219702781731 0.0219702781731 0.0220124534535 0.0220124534535 0.0220124534535 
60 0.0214198086033 0.0214198086033 0.0214198086033 0.0344455800732 0.0344455800732 0.0344455800732 0.0230348236361 0.0230348236361 0.0230348236361 0.0221762249971 0.0221762249971 0.0221762249971 0.0219856754977 0.0219856754977 0.0219856754977 0.0224182612026 0.0224182612026 0.0224182612026 0.0219974821418 0.0219974821418 0.0219974821418 0.0220332672283 0.0220332672283 0.0220332672283 
65 0.0214244947456 0.0214244947456 0.0214244947456 0.0344354774808 0.0344354774808 0.0344354774808 0.0230576457576 0.0230576457576 0.0230576457576 0.0221691653542 0.0221691653542 0.0221691653542 0.0219989427576 0.0219989427576 0.0219989427576 0.0224079760332 0.0224079760332 0.0224079760332 0.0220000382194 0.0220000382194 0.0220000382194 0.02204160491 0.02204160491 0.02204160491 
