# Generated by DoSarray v0.2 on 2018-06-14 16:03
# machine_name sequence : ['dedos01', 'dedos02', 'dedos03', 'dedos04', 'dedos05', 'dedos06', 'dedos07', 'dedos08']
# time, (min, avg, max)+
0 0 0.0 0 0 0.0 0 0 0.0 0 0 0.0 0 0 0.0 0 0 0.0 0 0 0.0 0 0 0.0 0 
5 2321 2321.0 2321 267 267.0 267 260 260.0 260 275 275.0 275 306 306.0 306 301 301.0 301 331 331.0 331 327 327.0 327 
10 6351 6351.0 6351 635 635.0 635 936 936.0 936 705 705.0 705 601 601.0 601 522 522.0 522 565 565.0 565 566 566.0 566 
15 11617 11617.0 11617 919 919.0 919 1477 1477.0 1477 1026 1026.0 1026 1260 1260.0 1260 1134 1134.0 1134 632 632.0 632 640 640.0 640 
20 14927 14927.0 14927 1173 1173.0 1173 1953 1953.0 1953 1298 1298.0 1298 1761 1761.0 1761 1693 1693.0 1693 674 674.0 674 674 674.0 674 
25 18140 18140.0 18140 1875 1875.0 1875 2721 2721.0 2721 1624 1624.0 1624 2293 2293.0 2293 2250 2250.0 2250 733 733.0 733 724 724.0 724 
30 22873 22873.0 22873 3185 3185.0 3185 4025 4025.0 4025 2018 2018.0 2018 2825 2825.0 2825 2814 2814.0 2814 778 778.0 778 785 785.0 785 
35 28312 28312.0 28312 4669 4669.0 4669 5439 5439.0 5439 2511 2511.0 2511 3684 3684.0 3684 3368 3368.0 3368 931 931.0 931 963 963.0 963 
40 33355 33355.0 33355 5990 5990.0 5990 6529 6529.0 6529 2881 2881.0 2881 4201 4201.0 4201 3902 3902.0 3902 1059 1059.0 1059 1072 1072.0 1072 
45 37318 37318.0 37318 7295 7295.0 7295 7678 7678.0 7678 3212 3212.0 3212 4578 4578.0 4578 4494 4494.0 4494 1103 1103.0 1103 1122 1122.0 1122 
50 42231 42231.0 42231 8165 8165.0 8165 8663 8663.0 8663 3646 3646.0 3646 5044 5044.0 5044 5270 5270.0 5270 1292 1292.0 1292 1286 1286.0 1286 
55 44499 44499.0 44499 8463 8463.0 8463 8940 8940.0 8940 3942 3942.0 3942 5355 5355.0 5355 5537 5537.0 5537 1626 1626.0 1626 1611 1611.0 1611 
60 46874 46874.0 46874 8739 8739.0 8739 9208 9208.0 9208 4213 4213.0 4213 5631 5631.0 5631 5832 5832.0 5832 1930 1930.0 1930 1933 1933.0 1933 
65 49154 49154.0 49154 9011 9011.0 9011 9494 9494.0 9494 4484 4484.0 4484 5894 5894.0 5894 6092 6092.0 6092 2230 2230.0 2230 2224 2224.0 2224 
