# Generated by DoSarray v0.2 on 2018-06-20 18:34
# machine_name sequence : ['dedos01', 'dedos02', 'dedos03', 'dedos04', 'dedos05', 'dedos06', 'dedos07', 'dedos08']
# time, (min, avg, max)+
0 0 0.0 0 0 0.0 0 0 0.0 0 0 0.0 0 0 0.0 0 0 0.0 0 0 0.0 0 0 0.0 0 
5 2777 2777.0 2777 348 348.0 348 345 345.0 345 347 347.0 347 284 284.0 284 301 301.0 301 293 293.0 293 292 292.0 292 
10 5195 5195.0 5195 643 643.0 643 644 644.0 644 640 640.0 640 578 578.0 578 592 592.0 592 586 586.0 586 585 585.0 585 
15 7529 7529.0 7529 953 953.0 953 964 964.0 964 988 988.0 988 899 899.0 899 903 903.0 903 894 894.0 894 914 914.0 914 
20 10079 10079.0 10079 1290 1290.0 1290 1286 1286.0 1286 1276 1276.0 1276 1215 1215.0 1215 1232 1232.0 1232 1230 1230.0 1230 1230 1230.0 1230 
25 12642 12642.0 12642 1580 1580.0 1580 1582 1582.0 1582 1568 1568.0 1568 1515 1515.0 1515 1512 1512.0 1512 1506 1506.0 1506 1514 1514.0 1514 
30 14998 14998.0 14998 1875 1875.0 1875 1866 1866.0 1866 1860 1860.0 1860 1803 1803.0 1803 1812 1812.0 1812 1806 1806.0 1806 1815 1815.0 1815 
35 17365 17365.0 17365 2195 2195.0 2195 2179 2179.0 2179 2176 2176.0 2176 2113 2113.0 2113 2110 2110.0 2110 2141 2141.0 2141 2115 2115.0 2115 
40 19827 19827.0 19827 2524 2524.0 2524 2497 2497.0 2497 2490 2490.0 2490 2439 2439.0 2439 2453 2453.0 2453 2449 2449.0 2449 2448 2448.0 2448 
45 22331 22331.0 22331 2810 2810.0 2810 2797 2797.0 2797 2792 2792.0 2792 2731 2731.0 2731 2736 2736.0 2736 2733 2733.0 2733 2736 2736.0 2736 
50 24854 24854.0 24854 3106 3106.0 3106 3080 3080.0 3080 3080 3080.0 3080 3015 3015.0 3015 3029 3029.0 3029 3033 3033.0 3033 3034 3034.0 3034 
55 27210 27210.0 27210 3400 3400.0 3400 3376 3376.0 3376 3373 3373.0 3373 3311 3311.0 3311 3339 3339.0 3339 3312 3312.0 3312 3332 3332.0 3332 
60 29625 29625.0 29625 3752 3752.0 3752 3723 3723.0 3723 3715 3715.0 3715 3669 3669.0 3669 3663 3663.0 3663 3655 3655.0 3655 3656 3656.0 3656 
65 30682 30682.0 30682 3840 3840.0 3840 3815 3815.0 3815 3809 3809.0 3809 3754 3754.0 3754 3751 3751.0 3751 3747 3747.0 3747 3756 3756.0 3756 
