# Generated by DoSarray v0.2 on 2018-06-08 17:52
0 0 0.0
0 1 0.0
0 2 0.0
0 3 1.0
0 4 20.0
0 5 50.0
0 6 27.0
0 7 1.0
0 8 0.0
0 9 0.0
0 10 0.0
1 0 0.0
1 1 0.0
1 2 0.0
1 3 0.0
1 4 11.0
1 5 50.0
1 6 33.0
1 7 6.0
1 8 0.0
1 9 0.0
1 10 0.0
2 0 0.0
2 1 0.0
2 2 0.0
2 3 0.0
2 4 21.0
2 5 39.0
2 6 40.0
2 7 0.0
2 8 0.0
2 9 0.0
2 10 0.0
3 0 0.0
3 1 0.0
3 2 0.0
3 3 0.0
3 4 16.0
3 5 44.0
3 6 36.0
3 7 4.0
3 8 0.0
3 9 0.0
3 10 0.0
4 0 0.0
4 1 0.0
4 2 0.0
4 3 1.0
4 4 11.0
4 5 50.0
4 6 33.0
4 7 4.0
4 8 0.0
4 9 0.0
4 10 0.0
5 0 0.0
5 1 0.0
5 2 0.0
5 3 4.0
5 4 30.0
5 5 41.0
5 6 24.0
5 7 0.0
5 8 0.0
5 9 0.0
5 10 0.0
6 0 0.0
6 1 0.0
6 2 0.0
6 3 0.0
6 4 17.0
6 5 53.0
6 6 26.0
6 7 4.0
6 8 0.0
6 9 0.0
6 10 0.0
7 0 0.0
7 1 0.0
7 2 0.0
7 3 0.0
7 4 16.0
7 5 43.0
7 6 36.0
7 7 6.0
7 8 0.0
7 9 0.0
7 10 0.0
8 0 0.0
8 1 0.0
8 2 0.0
8 3 1.0
8 4 13.0
8 5 40.0
8 6 40.0
8 7 4.0
8 8 1.0
8 9 0.0
8 10 0.0
9 0 0.0
9 1 0.0
9 2 0.0
9 3 0.0
9 4 19.0
9 5 50.0
9 6 28.999999999999996
9 7 3.0
9 8 0.0
9 9 0.0
9 10 0.0
10 0 0.0
10 1 0.0
10 2 0.0
10 3 1.0
10 4 17.0
10 5 41.0
10 6 40.0
10 7 0.0
10 8 0.0
10 9 0.0
10 10 0.0
11 0 0.0
11 1 0.0
11 2 0.0
11 3 0.0
11 4 9.0
11 5 49.0
11 6 36.0
11 7 7.000000000000001
11 8 0.0
11 9 0.0
11 10 0.0
12 0 0.0
12 1 0.0
12 2 0.0
12 3 1.0
12 4 14.000000000000002
12 5 43.0
12 6 37.0
12 7 4.0
12 8 0.0
12 9 0.0
12 10 0.0
13 0 0.0
13 1 0.0
13 2 0.0
13 3 0.0
13 4 17.0
13 5 43.0
13 6 34.0
13 7 6.0
13 8 0.0
13 9 0.0
13 10 0.0
14 0 0.0
14 1 0.0
14 2 0.0
14 3 1.0
14 4 24.0
14 5 36.0
14 6 33.0
14 7 6.0
14 8 0.0
14 9 0.0
14 10 0.0
15 0 0.0
15 1 0.0
15 2 0.0
15 3 1.0
15 4 16.0
15 5 54.0
15 6 26.0
15 7 3.0
15 8 0.0
15 9 0.0
15 10 0.0
16 0 0.0
16 1 0.0
16 2 0.0
16 3 0.0
16 4 21.0
16 5 44.0
16 6 31.0
16 7 3.0
16 8 0.0
16 9 0.0
16 10 0.0
17 0 0.0
17 1 0.0
17 2 0.0
17 3 0.0
17 4 11.0
17 5 54.0
17 6 31.0
17 7 3.0
17 8 0.0
17 9 0.0
17 10 0.0
18 0 0.0
18 1 0.0
18 2 0.0
18 3 0.0
18 4 14.000000000000002
18 5 51.0
18 6 26.0
18 7 9.0
18 8 0.0
18 9 0.0
18 10 0.0
19 0 0.0
19 1 0.0
19 2 0.0
19 3 0.0
19 4 14.000000000000002
19 5 50.0
19 6 34.0
19 7 1.0
19 8 0.0
19 9 0.0
19 10 0.0
20 0 0.0
20 1 0.0
20 2 0.0
20 3 1.0
20 4 20.0
20 5 51.0
20 6 23.0
20 7 4.0
20 8 0.0
20 9 0.0
20 10 0.0
21 0 0.0
21 1 0.0
21 2 0.0
21 3 6.0
21 4 31.0
21 5 40.0
21 6 21.0
21 7 1.0
21 8 0.0
21 9 0.0
21 10 0.0
22 0 0.0
22 1 0.0
22 2 0.0
22 3 0.0
22 4 16.0
22 5 56.00000000000001
22 6 26.0
22 7 1.0
22 8 1.0
22 9 0.0
22 10 0.0
23 0 0.0
23 1 0.0
23 2 0.0
23 3 4.0
23 4 17.0
23 5 46.0
23 6 31.0
23 7 1.0
23 8 0.0
23 9 0.0
23 10 0.0
24 0 0.0
24 1 0.0
24 2 0.0
24 3 0.0
24 4 14.000000000000002
24 5 54.0
24 6 28.999999999999996
24 7 3.0
24 8 0.0
24 9 0.0
24 10 0.0
25 0 0.0
25 1 0.0
25 2 0.0
25 3 0.0
25 4 13.0
25 5 49.0
25 6 34.0
25 7 3.0
25 8 1.0
25 9 0.0
25 10 0.0
26 0 0.0
26 1 0.0
26 2 0.0
26 3 20.0
26 4 41.0
26 5 31.0
26 6 7.000000000000001
26 7 0.0
26 8 0.0
26 9 0.0
26 10 0.0
27 0 0.0
27 1 0.0
27 2 0.0
27 3 0.0
27 4 28.999999999999996
27 5 37.0
27 6 28.999999999999996
27 7 6.0
27 8 0.0
27 9 0.0
27 10 0.0
28 0 0.0
28 1 0.0
28 2 0.0
28 3 0.0
28 4 19.0
28 5 53.0
28 6 26.0
28 7 3.0
28 8 0.0
28 9 0.0
28 10 0.0
29 0 0.0
29 1 0.0
29 2 0.0
29 3 1.0
29 4 20.0
29 5 46.0
29 6 31.0
29 7 1.0
29 8 0.0
29 9 0.0
29 10 0.0
30 0 0.0
30 1 0.0
30 2 0.0
30 3 0.0
30 4 14.000000000000002
30 5 49.0
30 6 36.0
30 7 1.0
30 8 0.0
30 9 0.0
30 10 0.0
31 0 0.0
31 1 0.0
31 2 0.0
31 3 6.0
31 4 21.0
31 5 40.0
31 6 28.999999999999996
31 7 4.0
31 8 0.0
31 9 0.0
31 10 0.0
32 0 0.0
32 1 0.0
32 2 0.0
32 3 0.0
32 4 20.0
32 5 44.0
32 6 33.0
32 7 3.0
32 8 0.0
32 9 0.0
32 10 0.0
33 0 0.0
33 1 0.0
33 2 0.0
33 3 0.0
33 4 20.0
33 5 41.0
33 6 36.0
33 7 3.0
33 8 0.0
33 9 0.0
33 10 0.0
34 0 0.0
34 1 0.0
34 2 0.0
34 3 0.0
34 4 23.0
34 5 44.0
34 6 26.0
34 7 7.000000000000001
34 8 0.0
34 9 0.0
34 10 0.0
35 0 0.0
35 1 0.0
35 2 0.0
35 3 0.0
35 4 20.0
35 5 50.0
35 6 28.999999999999996
35 7 1.0
35 8 0.0
35 9 0.0
35 10 0.0
36 0 0.0
36 1 0.0
36 2 0.0
36 3 1.0
36 4 16.0
36 5 41.0
36 6 34.0
36 7 7.000000000000001
36 8 0.0
36 9 0.0
36 10 0.0
37 0 0.0
37 1 0.0
37 2 0.0
37 3 0.0
37 4 14.000000000000002
37 5 41.0
37 6 40.0
37 7 3.0
37 8 1.0
37 9 0.0
37 10 0.0
38 0 0.0
38 1 0.0
38 2 0.0
38 3 0.0
38 4 16.0
38 5 54.0
38 6 27.0
38 7 3.0
38 8 0.0
38 9 0.0
38 10 0.0
39 0 0.0
39 1 0.0
39 2 0.0
39 3 0.0
39 4 21.0
39 5 49.0
39 6 24.0
39 7 6.0
39 8 0.0
39 9 0.0
39 10 0.0
40 0 0.0
40 1 0.0
40 2 0.0
40 3 0.0
40 4 24.0
40 5 39.0
40 6 34.0
40 7 3.0
40 8 0.0
40 9 0.0
40 10 0.0
41 0 0.0
41 1 0.0
41 2 0.0
41 3 0.0
41 4 7.000000000000001
41 5 56.99999999999999
41 6 31.0
41 7 4.0
41 8 0.0
41 9 0.0
41 10 0.0
42 0 0.0
42 1 0.0
42 2 0.0
42 3 4.0
42 4 30.0
42 5 40.0
42 6 24.0
42 7 1.0
42 8 0.0
42 9 0.0
42 10 0.0
43 0 0.0
43 1 0.0
43 2 0.0
43 3 0.0
43 4 11.0
43 5 51.0
43 6 31.0
43 7 4.0
43 8 1.0
43 9 0.0
43 10 0.0
44 0 0.0
44 1 0.0
44 2 0.0
44 3 3.0
44 4 21.0
44 5 33.0
44 6 39.0
44 7 4.0
44 8 0.0
44 9 0.0
44 10 0.0
45 0 0.0
45 1 0.0
45 2 0.0
45 3 0.0
45 4 13.0
45 5 54.0
45 6 30.0
45 7 1.0
45 8 1.0
45 9 0.0
45 10 0.0
46 0 0.0
46 1 0.0
46 2 0.0
46 3 0.0
46 4 21.0
46 5 40.0
46 6 36.0
46 7 1.0
46 8 1.0
46 9 0.0
46 10 0.0
47 0 0.0
47 1 0.0
47 2 0.0
47 3 19.0
47 4 39.0
47 5 33.0
47 6 10.0
47 7 0.0
47 8 0.0
47 9 0.0
47 10 0.0
48 0 0.0
48 1 0.0
48 2 0.0
48 3 0.0
48 4 11.0
48 5 49.0
48 6 34.0
48 7 6.0
48 8 0.0
48 9 0.0
48 10 0.0
49 0 0.0
49 1 0.0
49 2 0.0
49 3 0.0
49 4 21.0
49 5 56.99999999999999
49 6 20.0
49 7 1.0
49 8 0.0
49 9 0.0
49 10 0.0
50 0 0.0
50 1 0.0
50 2 0.0
50 3 0.0
50 4 14.000000000000002
50 5 50.0
50 6 31.0
50 7 4.0
50 8 0.0
50 9 0.0
50 10 0.0
51 0 0.0
51 1 0.0
51 2 0.0
51 3 1.0
51 4 9.0
51 5 54.0
51 6 36.0
51 7 0.0
51 8 0.0
51 9 0.0
51 10 0.0
52 0 0.0
52 1 0.0
52 2 0.0
52 3 4.0
52 4 26.0
52 5 43.0
52 6 24.0
52 7 1.0
52 8 0.0
52 9 0.0
52 10 0.0
53 0 0.0
53 1 0.0
53 2 0.0
53 3 0.0
53 4 7.000000000000001
53 5 50.0
53 6 41.0
53 7 1.0
53 8 0.0
53 9 0.0
53 10 0.0
54 0 0.0
54 1 0.0
54 2 0.0
54 3 1.0
54 4 9.0
54 5 50.0
54 6 36.0
54 7 4.0
54 8 0.0
54 9 0.0
54 10 0.0
55 0 0.0
55 1 0.0
55 2 0.0
55 3 1.0
55 4 19.0
55 5 47.0
55 6 28.999999999999996
55 7 4.0
55 8 0.0
55 9 0.0
55 10 0.0
56 0 0.0
56 1 0.0
56 2 0.0
56 3 3.0
56 4 26.0
56 5 34.0
56 6 36.0
56 7 1.0
56 8 0.0
56 9 0.0
56 10 0.0
57 0 0.0
57 1 0.0
57 2 0.0
57 3 1.0
57 4 16.0
57 5 49.0
57 6 33.0
57 7 1.0
57 8 0.0
57 9 0.0
57 10 0.0
58 0 0.0
58 1 0.0
58 2 0.0
58 3 0.0
58 4 30.0
58 5 39.0
58 6 28.999999999999996
58 7 3.0
58 8 0.0
58 9 0.0
58 10 0.0
59 0 0.0
59 1 0.0
59 2 0.0
59 3 1.0
59 4 14.000000000000002
59 5 53.0
59 6 31.0
59 7 0.0
59 8 0.0
59 9 0.0
59 10 0.0
60 0 0.0
60 1 0.0
60 2 0.0
60 3 1.0
60 4 27.0
60 5 44.0
60 6 24.0
60 7 3.0
60 8 0.0
60 9 0.0
60 10 0.0
61 0 0.0
61 1 0.0
61 2 0.0
61 3 0.0
61 4 16.0
61 5 47.0
61 6 36.0
61 7 1.0
61 8 0.0
61 9 0.0
61 10 0.0
62 0 0.0
62 1 0.0
62 2 0.0
62 3 1.0
62 4 17.0
62 5 44.0
62 6 33.0
62 7 4.0
62 8 0.0
62 9 0.0
62 10 0.0
63 0 0.0
63 1 0.0
63 2 0.0
63 3 1.0
63 4 14.000000000000002
63 5 49.0
63 6 33.0
63 7 3.0
63 8 0.0
63 9 0.0
63 10 0.0
