Inter-|   Receive                                                |  Transmit
 face |bytes    packets errs drop fifo frame compressed multicast|bytes    packets errs drop fifo colls carrier compressed
   em1: 1204856367610 3159965779    0 186848    0     0          0   1285735 1277447724514 3189238451    0    0    0     0       0          0
    lo: 961471444509 4437867516    0  780    0     0          0         0 961471444509 4437867516    0    0    0     0       0          0
vethb0d7504: 1662880   21162    0    0    0     0          0         0  1879324   16268    0    0    0     0       0          0
veth70c6346: 1693710   21552    0    0    0     0          0         0  1930862   16719    0    0    0     0       0          0
veth3cd48ae: 1706490   21649    0    0    0     0          0         0  1928534   16687    0    0    0     0       0          0
   em4:       0       0    0    0    0     0          0         0     8514      31    0    0    0     0       0          0
vethbb5069b: 1676494   21360    0    0    0     0          0         0  1917036   16606    0    0    0     0       0          0
docker_bridge: 737623545 6317288    0    0    0     0          0         0 398296343 4410563    0    0    0     0       0          0
   em3: 30890943718 467430977    0    0    0     0          0     46664 35983927127 74862208    0    0    0     0       0          0
veth239c73d: 1660616   21137    0    0    0     0          0         0  1891308   16372    0    0    0     0       0          0
veth30c8eca: 1679412   21401    0    0    0     0          0         0  1919414   16627    0    0    0     0       0          0
veth8dcb607: 23336765  214790    0    0    0     0          0         0 16126057  120484    0    0    0     0       0          0
veth5fcbfd5: 1672400   21280    0    0    0     0          0         0  1907688   16524    0    0    0     0       0          0
veth295e374: 1671286   21281    0    0    0     0          0         0  1903682   16487    0    0    0     0       0          0
docker0:       0       0    0    0    0     0          0         0        0       0    0    0    0     0       0          0
vethedb6885: 1656094   21076    0    0    0     0          0         0  1868682   16181    0    0    0     0       0          0
   em2:       0       0    0    0    0     0          0         0        0       0    0    0    0     0       0          0
Inter-|   Receive                                                |  Transmit
 face |bytes    packets errs drop fifo frame compressed multicast|bytes    packets errs drop fifo colls carrier compressed
   em1: 1204856401810 3159966075    0 186848    0     0          0   1285738 1277447751440 3189238783    0    0    0     0       0          0
    lo: 961471444509 4437867516    0  780    0     0          0         0 961471444509 4437867516    0    0    0     0       0          0
vethb0d7504: 1665206   21192    0    0    0     0          0         0  1882276   16294    0    0    0     0       0          0
veth70c6346: 1695970   21581    0    0    0     0          0         0  1933814   16745    0    0    0     0       0          0
veth3cd48ae: 1708882   21680    0    0    0     0          0         0  1931486   16713    0    0    0     0       0          0
   em4:       0       0    0    0    0     0          0         0     8514      31    0    0    0     0       0          0
vethbb5069b: 1678820   21390    0    0    0     0          0         0  1919988   16632    0    0    0     0       0          0
docker_bridge: 737642605 6317588    0    0    0     0          0         0 398325863 4410823    0    0    0     0       0          0
   em3: 30890978403 467431362    0    0    0     0          0     46664 35983942312 74862276    0    0    0     0       0          0
veth239c73d: 1662876   21166    0    0    0     0          0         0  1894260   16398    0    0    0     0       0          0
veth30c8eca: 1681804   21432    0    0    0     0          0         0  1922366   16653    0    0    0     0       0          0
veth8dcb607: 23339157  214821    0    0    0     0          0         0 16129009  120510    0    0    0     0       0          0
veth5fcbfd5: 1674528   21307    0    0    0     0          0         0  1910640   16550    0    0    0     0       0          0
veth295e374: 1673678   21312    0    0    0     0          0         0  1906634   16513    0    0    0     0       0          0
docker0:       0       0    0    0    0     0          0         0        0       0    0    0    0     0       0          0
vethedb6885: 1658486   21107    0    0    0     0          0         0  1871634   16207    0    0    0     0       0          0
   em2:       0       0    0    0    0     0          0         0        0       0    0    0    0     0       0          0
Inter-|   Receive                                                |  Transmit
 face |bytes    packets errs drop fifo frame compressed multicast|bytes    packets errs drop fifo colls carrier compressed
   em1: 1204856436584 3159966378    0 186848    0     0          0   1285744 1277447778672 3189239120    0    0    0     0       0          0
    lo: 961471444509 4437867516    0  780    0     0          0         0 961471444509 4437867516    0    0    0     0       0          0
vethb0d7504: 1667490   21221    0    0    0     0          0         0  1885186   16319    0    0    0     0       0          0
veth70c6346: 1698254   21610    0    0    0     0          0         0  1936724   16770    0    0    0     0       0          0
veth3cd48ae: 1711232   21710    0    0    0     0          0         0  1934396   16738    0    0    0     0       0          0
   em4:       0       0    0    0    0     0          0         0     8514      31    0    0    0     0       0          0
vethbb5069b: 1681170   21420    0    0    0     0          0         0  1922898   16657    0    0    0     0       0          0
docker_bridge: 737661489 6317880    0    0    0     0          0         0 398354963 4411073    0    0    0     0       0          0
   em3: 30891018347 467431809    0    0    0     0          0     46664 35983957823 74862347    0    0    0     0       0          0
veth239c73d: 1665226   21196    0    0    0     0          0         0  1897170   16423    0    0    0     0       0          0
veth30c8eca: 1684088   21461    0    0    0     0          0         0  1925276   16678    0    0    0     0       0          0
veth8dcb607: 23341441  214850    0    0    0     0          0         0 16131919  120535    0    0    0     0       0          0
veth5fcbfd5: 1676746   21335    0    0    0     0          0         0  1913550   16575    0    0    0     0       0          0
veth295e374: 1675962   21341    0    0    0     0          0         0  1909544   16538    0    0    0     0       0          0
docker0:       0       0    0    0    0     0          0         0        0       0    0    0    0     0       0          0
vethedb6885: 1660770   21136    0    0    0     0          0         0  1874544   16232    0    0    0     0       0          0
   em2:       0       0    0    0    0     0          0         0        0       0    0    0    0     0       0          0
Inter-|   Receive                                                |  Transmit
 face |bytes    packets errs drop fifo frame compressed multicast|bytes    packets errs drop fifo colls carrier compressed
   em1: 1204856471678 3159966685    0 186848    0     0          0   1285756 1277447805664 3189239453    0    0    0     0       0          0
    lo: 961471444509 4437867516    0  780    0     0          0         0 961471444509 4437867516    0    0    0     0       0          0
vethb0d7504: 1669774   21250    0    0    0     0          0         0  1888096   16344    0    0    0     0       0          0
veth70c6346: 1700604   21640    0    0    0     0          0         0  1939634   16795    0    0    0     0       0          0
veth3cd48ae: 1713516   21739    0    0    0     0          0         0  1937306   16763    0    0    0     0       0          0
   em4:       0       0    0    0    0     0          0         0     8514      31    0    0    0     0       0          0
vethbb5069b: 1683520   21450    0    0    0     0          0         0  1925808   16682    0    0    0     0       0          0
docker_bridge: 737680321 6318171    0    0    0     0          0         0 398384063 4411323    0    0    0     0       0          0
   em3: 30891056012 467432247    0    0    0     0          0     46664 35983972942 74862414    0    0    0     0       0          0
veth239c73d: 1667576   21226    0    0    0     0          0         0  1900080   16448    0    0    0     0       0          0
veth30c8eca: 1686438   21491    0    0    0     0          0         0  1928186   16703    0    0    0     0       0          0
veth8dcb607: 23343659  214878    0    0    0     0          0         0 16134829  120560    0    0    0     0       0          0
veth5fcbfd5: 1679030   21364    0    0    0     0          0         0  1916460   16600    0    0    0     0       0          0
veth295e374: 1678180   21369    0    0    0     0          0         0  1912454   16563    0    0    0     0       0          0
docker0:       0       0    0    0    0     0          0         0        0       0    0    0    0     0       0          0
vethedb6885: 1662988   21164    0    0    0     0          0         0  1877454   16257    0    0    0     0       0          0
   em2:       0       0    0    0    0     0          0         0        0       0    0    0    0     0       0          0
Inter-|   Receive                                                |  Transmit
 face |bytes    packets errs drop fifo frame compressed multicast|bytes    packets errs drop fifo colls carrier compressed
   em1: 1204856512610 3159967040    0 186848    0     0          0   1285763 1277447838338 3189239857    0    0    0     0       0          0
    lo: 961471444509 4437867516    0  780    0     0          0         0 961471444509 4437867516    0    0    0     0       0          0
vethb0d7504: 1672594   21286    0    0    0     0          0         0  1891588   16374    0    0    0     0       0          0
veth70c6346: 1703358   21675    0    0    0     0          0         0  1943126   16825    0    0    0     0       0          0
veth3cd48ae: 1716270   21774    0    0    0     0          0         0  1940798   16793    0    0    0     0       0          0
   em4:       0       0    0    0    0     0          0         0     8514      31    0    0    0     0       0          0
vethbb5069b: 1686340   21486    0    0    0     0          0         0  1929300   16712    0    0    0     0       0          0
docker_bridge: 737703169 6318525    0    0    0     0          0         0 398418983 4411623    0    0    0     0       0          0
   em3: 30891095065 467432678    0    0    0     0          0     46664 35983989267 74862492    0    0    0     0       0          0
veth239c73d: 1670396   21262    0    0    0     0          0         0  1903572   16478    0    0    0     0       0          0
veth30c8eca: 1689192   21526    0    0    0     0          0         0  1931678   16733    0    0    0     0       0          0
veth8dcb607: 23346479  214914    0    0    0     0          0         0 16138321  120590    0    0    0     0       0          0
veth5fcbfd5: 1681850   21400    0    0    0     0          0         0  1919952   16630    0    0    0     0       0          0
veth295e374: 1680802   21402    0    0    0     0          0         0  1915946   16593    0    0    0     0       0          0
docker0:       0       0    0    0    0     0          0         0        0       0    0    0    0     0       0          0
vethedb6885: 1665808   21200    0    0    0     0          0         0  1880946   16287    0    0    0     0       0          0
   em2:       0       0    0    0    0     0          0         0        0       0    0    0    0     0       0          0
Inter-|   Receive                                                |  Transmit
 face |bytes    packets errs drop fifo frame compressed multicast|bytes    packets errs drop fifo colls carrier compressed
   em1: 1204856546204 3159967331    0 186848    0     0          0   1285767 1277447864906 3189240186    0    0    0     0       0          0
    lo: 961471444509 4437867516    0  780    0     0          0         0 961471444509 4437867516    0    0    0     0       0          0
vethb0d7504: 1674746   21313    0    0    0     0          0         0  1894498   16399    0    0    0     0       0          0
veth70c6346: 1705642   21704    0    0    0     0          0         0  1946036   16850    0    0    0     0       0          0
veth3cd48ae: 1718620   21804    0    0    0     0          0         0  1943708   16818    0    0    0     0       0          0
   em4:       0       0    0    0    0     0          0         0     8514      31    0    0    0     0       0          0
vethbb5069b: 1688624   21515    0    0    0     0          0         0  1932210   16737    0    0    0     0       0          0
docker_bridge: 737722053 6318817    0    0    0     0          0         0 398448083 4411873    0    0    0     0       0          0
   em3: 30891125864 467433010    0    0    0     0          0     46664 35984003416 74862552    0    0    0     0       0          0
veth239c73d: 1672680   21291    0    0    0     0          0         0  1906482   16503    0    0    0     0       0          0
veth30c8eca: 1691542   21556    0    0    0     0          0         0  1934588   16758    0    0    0     0       0          0
veth8dcb607: 23348763  214943    0    0    0     0          0         0 16141231  120615    0    0    0     0       0          0
veth5fcbfd5: 1684200   21430    0    0    0     0          0         0  1922862   16655    0    0    0     0       0          0
veth295e374: 1683152   21432    0    0    0     0          0         0  1918856   16618    0    0    0     0       0          0
docker0:       0       0    0    0    0     0          0         0        0       0    0    0    0     0       0          0
vethedb6885: 1668092   21229    0    0    0     0          0         0  1883856   16312    0    0    0     0       0          0
   em2:       0       0    0    0    0     0          0         0        0       0    0    0    0     0       0          0
Inter-|   Receive                                                |  Transmit
 face |bytes    packets errs drop fifo frame compressed multicast|bytes    packets errs drop fifo colls carrier compressed
   em1: 1204856580404 3159967627    0 186848    0     0          0   1285769 1277447892030 3189240521    0    0    0     0       0          0
    lo: 961471444509 4437867516    0  780    0     0          0         0 961471444509 4437867516    0    0    0     0       0          0
vethb0d7504: 1677030   21342    0    0    0     0          0         0  1897408   16424    0    0    0     0       0          0
veth70c6346: 1707992   21734    0    0    0     0          0         0  1948946   16875    0    0    0     0       0          0
veth3cd48ae: 1720970   21834    0    0    0     0          0         0  1946618   16843    0    0    0     0       0          0
   em4:       0       0    0    0    0     0          0         0     8514      31    0    0    0     0       0          0
vethbb5069b: 1690908   21544    0    0    0     0          0         0  1935120   16762    0    0    0     0       0          0
docker_bridge: 737740989 6319110    0    0    0     0          0         0 398477183 4412123    0    0    0     0       0          0
   em3: 30891159727 467433407    0    0    0     0          0     46664 35984018313 74862616    0    0    0     0       0          0
veth239c73d: 1674898   21319    0    0    0     0          0         0  1909392   16528    0    0    0     0       0          0
veth30c8eca: 1693892   21586    0    0    0     0          0         0  1937498   16783    0    0    0     0       0          0
veth8dcb607: 23351113  214973    0    0    0     0          0         0 16144141  120640    0    0    0     0       0          0
veth5fcbfd5: 1686550   21460    0    0    0     0          0         0  1925772   16680    0    0    0     0       0          0
veth295e374: 1685436   21461    0    0    0     0          0         0  1921766   16643    0    0    0     0       0          0
docker0:       0       0    0    0    0     0          0         0        0       0    0    0    0     0       0          0
vethedb6885: 1670310   21257    0    0    0     0          0         0  1886766   16337    0    0    0     0       0          0
   em2:       0       0    0    0    0     0          0         0        0       0    0    0    0     0       0          0
Inter-|   Receive                                                |  Transmit
 face |bytes    packets errs drop fifo frame compressed multicast|bytes    packets errs drop fifo colls carrier compressed
   em1: 1204856614478 3159967921    0 186848    0     0          0   1285772 1277447919022 3189240854    0    0    0     0       0          0
    lo: 961471444509 4437867516    0  780    0     0          0         0 961471444509 4437867516    0    0    0     0       0          0
vethb0d7504: 1679314   21371    0    0    0     0          0         0  1900318   16449    0    0    0     0       0          0
veth70c6346: 1710276   21763    0    0    0     0          0         0  1951790   16899    0    0    0     0       0          0
veth3cd48ae: 1723254   21863    0    0    0     0          0         0  1949528   16868    0    0    0     0       0          0
   em4:       0       0    0    0    0     0          0         0     8514      31    0    0    0     0       0          0
vethbb5069b: 1693126   21572    0    0    0     0          0         0  1938030   16787    0    0    0     0       0          0
docker_bridge: 737759821 6319401    0    0    0     0          0         0 398506217 4412372    0    0    0     0       0          0
   em3: 30891193550 467433784    0    0    0     0          0     46664 35984033432 74862683    0    0    0     0       0          0
veth239c73d: 1677248   21349    0    0    0     0          0         0  1912302   16553    0    0    0     0       0          0
veth30c8eca: 1696242   21616    0    0    0     0          0         0  1940408   16808    0    0    0     0       0          0
veth8dcb607: 23353463  215003    0    0    0     0          0         0 16147051  120665    0    0    0     0       0          0
veth5fcbfd5: 1688768   21488    0    0    0     0          0         0  1928682   16705    0    0    0     0       0          0
veth295e374: 1687720   21490    0    0    0     0          0         0  1924676   16668    0    0    0     0       0          0
docker0:       0       0    0    0    0     0          0         0        0       0    0    0    0     0       0          0
vethedb6885: 1672594   21286    0    0    0     0          0         0  1889676   16362    0    0    0     0       0          0
   em2:       0       0    0    0    0     0          0         0        0       0    0    0    0     0       0          0
Inter-|   Receive                                                |  Transmit
 face |bytes    packets errs drop fifo frame compressed multicast|bytes    packets errs drop fifo colls carrier compressed
   em1: 1204856651562 3159968243    0 186848    0     0          0   1285774 1277447948154 3189241213    0    0    0     0       0          0
    lo: 961471444509 4437867516    0  780    0     0          0         0 961471444509 4437867516    0    0    0     0       0          0
vethb0d7504: 1681532   21399    0    0    0     0          0         0  1903228   16474    0    0    0     0       0          0
veth70c6346: 1713072   21799    0    0    0     0          0         0  1955324   16930    0    0    0     0       0          0
veth3cd48ae: 1726050   21899    0    0    0     0          0         0  1953062   16899    0    0    0     0       0          0
   em4:       0       0    0    0    0     0          0         0     8514      31    0    0    0     0       0          0
vethbb5069b: 1695344   21600    0    0    0     0          0         0  1940940   16812    0    0    0     0       0          0
docker_bridge: 737780129 6319717    0    0    0     0          0         0 398537855 4412647    0    0    0     0       0          0
   em3: 30891234623 467434250    0    0    0     0          0     46664 35984049245 74862757    0    0    0     0       0          0
veth239c73d: 1679598   21379    0    0    0     0          0         0  1915212   16578    0    0    0     0       0          0
veth30c8eca: 1698972   21651    0    0    0     0          0         0  1943942   16839    0    0    0     0       0          0
veth8dcb607: 23356259  215039    0    0    0     0          0         0 16150585  120696    0    0    0     0       0          0
veth5fcbfd5: 1691094   21518    0    0    0     0          0         0  1931634   16731    0    0    0     0       0          0
veth295e374: 1689938   21518    0    0    0     0          0         0  1927586   16693    0    0    0     0       0          0
docker0:       0       0    0    0    0     0          0         0        0       0    0    0    0     0       0          0
vethedb6885: 1674878   21315    0    0    0     0          0         0  1892586   16387    0    0    0     0       0          0
   em2:       0       0    0    0    0     0          0         0        0       0    0    0    0     0       0          0
Inter-|   Receive                                                |  Transmit
 face |bytes    packets errs drop fifo frame compressed multicast|bytes    packets errs drop fifo colls carrier compressed
   em1: 1204856688346 3159968560    0 186848    0     0          0   1285777 1277447977248 3189241575    0    0    0     0       0          0
    lo: 961471444509 4437867516    0  780    0     0          0         0 961471444509 4437867516    0    0    0     0       0          0
vethb0d7504: 1684328   21435    0    0    0     0          0         0  1906762   16505    0    0    0     0       0          0
veth70c6346: 1715356   21828    0    0    0     0          0         0  1958234   16955    0    0    0     0       0          0
veth3cd48ae: 1728400   21929    0    0    0     0          0         0  1955972   16924    0    0    0     0       0          0
   em4:       0       0    0    0    0     0          0         0     8514      31    0    0    0     0       0          0
vethbb5069b: 1698206   21637    0    0    0     0          0         0  1944474   16843    0    0    0     0       0          0
docker_bridge: 737801469 6320050    0    0    0     0          0         0 398570657 4412932    0    0    0     0       0          0
   em3: 30891273532 467434691    0    0    0     0          0     46664 35984063800 74862820    0    0    0     0       0          0
veth239c73d: 1682328   21414    0    0    0     0          0         0  1918746   16609    0    0    0     0       0          0
veth30c8eca: 1701256   21680    0    0    0     0          0         0  1946852   16864    0    0    0     0       0          0
veth8dcb607: 23358543  215068    0    0    0     0          0         0 16153495  120721    0    0    0     0       0          0
veth5fcbfd5: 1693848   21553    0    0    0     0          0         0  1935126   16761    0    0    0     0       0          0
veth295e374: 1692800   21555    0    0    0     0          0         0  1931120   16724    0    0    0     0       0          0
docker0:       0       0    0    0    0     0          0         0        0       0    0    0    0     0       0          0
vethedb6885: 1677674   21351    0    0    0     0          0         0  1896120   16418    0    0    0     0       0          0
   em2:       0       0    0    0    0     0          0         0        0       0    0    0    0     0       0          0
Inter-|   Receive                                                |  Transmit
 face |bytes    packets errs drop fifo frame compressed multicast|bytes    packets errs drop fifo colls carrier compressed
   em1: 1204856722628 3159968859    0 186848    0     0          0   1285780 1277448004830 3189241915    0    0    0     0       0          0
    lo: 961471444509 4437867516    0  780    0     0          0         0 961471444509 4437867516    0    0    0     0       0          0
vethb0d7504: 1686612   21464    0    0    0     0          0         0  1909672   16530    0    0    0     0       0          0
veth70c6346: 1717574   21856    0    0    0     0          0         0  1961144   16980    0    0    0     0       0          0
veth3cd48ae: 1730684   21958    0    0    0     0          0         0  1958882   16949    0    0    0     0       0          0
   em4:       0       0    0    0    0     0          0         0     8514      31    0    0    0     0       0          0
vethbb5069b: 1700556   21667    0    0    0     0          0         0  1947384   16868    0    0    0     0       0          0
docker_bridge: 737820457 6320344    0    0    0     0          0         0 398599757 4413182    0    0    0     0       0          0
   em3: 30891308663 467435087    0    0    0     0          0     46664 35984079441 74862892    0    0    0     0       0          0
veth239c73d: 1684678   21444    0    0    0     0          0         0  1921656   16634    0    0    0     0       0          0
veth30c8eca: 1703540   21709    0    0    0     0          0         0  1949762   16889    0    0    0     0       0          0
veth8dcb607: 23360893  215098    0    0    0     0          0         0 16156405  120746    0    0    0     0       0          0
veth5fcbfd5: 1696198   21583    0    0    0     0          0         0  1938036   16786    0    0    0     0       0          0
veth295e374: 1695084   21584    0    0    0     0          0         0  1934030   16749    0    0    0     0       0          0
docker0:       0       0    0    0    0     0          0         0        0       0    0    0    0     0       0          0
vethedb6885: 1680024   21381    0    0    0     0          0         0  1899030   16443    0    0    0     0       0          0
   em2:       0       0    0    0    0     0          0         0        0       0    0    0    0     0       0          0
Inter-|   Receive                                                |  Transmit
 face |bytes    packets errs drop fifo frame compressed multicast|bytes    packets errs drop fifo colls carrier compressed
   em1: 1204856757422 3159969162    0 186848    0     0          0   1285789 1277448031690 3189242246    0    0    0     0       0          0
    lo: 961471444509 4437867516    0  780    0     0          0         0 961471444509 4437867516    0    0    0     0       0          0
vethb0d7504: 1688830   21492    0    0    0     0          0         0  1912582   16555    0    0    0     0       0          0
veth70c6346: 1719858   21885    0    0    0     0          0         0  1964054   17005    0    0    0     0       0          0
veth3cd48ae: 1732968   21987    0    0    0     0          0         0  1961792   16974    0    0    0     0       0          0
   em4:       0       0    0    0    0     0          0         0     8514      31    0    0    0     0       0          0
vethbb5069b: 1702840   21696    0    0    0     0          0         0  1950294   16893    0    0    0     0       0          0
docker_bridge: 737839185 6320633    0    0    0     0          0         0 398628857 4413432    0    0    0     0       0          0
   em3: 30891349260 467435525    0    0    0     0          0     46664 35984094952 74862965    0    0    0     0       0          0
veth239c73d: 1686962   21473    0    0    0     0          0         0  1924566   16659    0    0    0     0       0          0
veth30c8eca: 1705824   21738    0    0    0     0          0         0  1952672   16914    0    0    0     0       0          0
veth8dcb607: 23363177  215127    0    0    0     0          0         0 16159315  120771    0    0    0     0       0          0
veth5fcbfd5: 1698482   21612    0    0    0     0          0         0  1940946   16811    0    0    0     0       0          0
veth295e374: 1697302   21612    0    0    0     0          0         0  1936940   16774    0    0    0     0       0          0
docker0:       0       0    0    0    0     0          0         0        0       0    0    0    0     0       0          0
vethedb6885: 1682374   21411    0    0    0     0          0         0  1901940   16468    0    0    0     0       0          0
   em2:       0       0    0    0    0     0          0         0        0       0    0    0    0     0       0          0
Inter-|   Receive                                                |  Transmit
 face |bytes    packets errs drop fifo frame compressed multicast|bytes    packets errs drop fifo colls carrier compressed
   em1: 1204856792988 3159969468    0 186848    0     0          0   1285801 1277448058484 3189242576    0    0    0     0       0          0
    lo: 961471444509 4437867516    0  780    0     0          0         0 961471444509 4437867516    0    0    0     0       0          0
vethb0d7504: 1691114   21521    0    0    0     0          0         0  1915492   16580    0    0    0     0       0          0
veth70c6346: 1722208   21915    0    0    0     0          0         0  1966964   17030    0    0    0     0       0          0
veth3cd48ae: 1735252   22016    0    0    0     0          0         0  1964702   16999    0    0    0     0       0          0
   em4:       0       0    0    0    0     0          0         0     8514      31    0    0    0     0       0          0
vethbb5069b: 1705190   21726    0    0    0     0          0         0  1953204   16918    0    0    0     0       0          0
docker_bridge: 737857861 6320921    0    0    0     0          0         0 398657957 4413682    0    0    0     0       0          0
   em3: 30891385499 467435894    0    0    0     0          0     46664 35984110581 74863039    0    0    0     0       0          0
veth239c73d: 1689180   21501    0    0    0     0          0         0  1927476   16684    0    0    0     0       0          0
veth30c8eca: 1708108   21767    0    0    0     0          0         0  1955582   16939    0    0    0     0       0          0
veth8dcb607: 23365527  215157    0    0    0     0          0         0 16162225  120796    0    0    0     0       0          0
veth5fcbfd5: 1700700   21640    0    0    0     0          0         0  1943856   16836    0    0    0     0       0          0
veth295e374: 1699454   21639    0    0    0     0          0         0  1939850   16799    0    0    0     0       0          0
docker0:       0       0    0    0    0     0          0         0        0       0    0    0    0     0       0          0
vethedb6885: 1684592   21439    0    0    0     0          0         0  1904850   16493    0    0    0     0       0          0
   em2:       0       0    0    0    0     0          0         0        0       0    0    0    0     0       0          0
Inter-|   Receive                                                |  Transmit
 face |bytes    packets errs drop fifo frame compressed multicast|bytes    packets errs drop fifo colls carrier compressed
   em1: 1204856809912 3159969617    0 186848    0     0          0   1285806 1277448071616 3189242733    0    0    0     0       0          0
    lo: 961471444509 4437867516    0  780    0     0          0         0 961471444509 4437867516    0    0    0     0       0          0
vethb0d7504: 1691988   21532    0    0    0     0          0         0  1916656   16590    0    0    0     0       0          0
veth70c6346: 1723082   21926    0    0    0     0          0         0  1968128   17040    0    0    0     0       0          0
veth3cd48ae: 1736126   22027    0    0    0     0          0         0  1965866   17009    0    0    0     0       0          0
   em4:       0       0    0    0    0     0          0         0     8514      31    0    0    0     0       0          0
vethbb5069b: 1706130   21738    0    0    0     0          0         0  1954368   16928    0    0    0     0       0          0
docker_bridge: 737865269 6321035    0    0    0     0          0         0 398669597 4413782    0    0    0     0       0          0
   em3: 30891421208 467436324    0    0    0     0          0     46664 35984125544 74863104    0    0    0     0       0          0
veth239c73d: 1689988   21511    0    0    0     0          0         0  1928640   16694    0    0    0     0       0          0
veth30c8eca: 1709048   21779    0    0    0     0          0         0  1956746   16949    0    0    0     0       0          0
veth8dcb607: 23366467  215169    0    0    0     0          0         0 16163389  120806    0    0    0     0       0          0
veth5fcbfd5: 1701640   21652    0    0    0     0          0         0  1945020   16846    0    0    0     0       0          0
veth295e374: 1700394   21651    0    0    0     0          0         0  1941014   16809    0    0    0     0       0          0
docker0:       0       0    0    0    0     0          0         0        0       0    0    0    0     0       0          0
vethedb6885: 1685466   21450    0    0    0     0          0         0  1906014   16503    0    0    0     0       0          0
   em2:       0       0    0    0    0     0          0         0        0       0    0    0    0     0       0          0
