dedos07 1528494626 MemTotal: 65725704 kB MemFree: 59262836 kB MemAvailable: 64271656 kB
dedos07 1528494631 MemTotal: 65725704 kB MemFree: 59261144 kB MemAvailable: 64270004 kB
dedos07 1528494636 MemTotal: 65725704 kB MemFree: 59260468 kB MemAvailable: 64269380 kB
dedos07 1528494641 MemTotal: 65725704 kB MemFree: 59263920 kB MemAvailable: 64272832 kB
dedos07 1528494646 MemTotal: 65725704 kB MemFree: 59259680 kB MemAvailable: 64268608 kB
dedos07 1528494652 MemTotal: 65725704 kB MemFree: 59259912 kB MemAvailable: 64268840 kB
dedos07 1528494657 MemTotal: 65725704 kB MemFree: 59262060 kB MemAvailable: 64270980 kB
dedos07 1528494662 MemTotal: 65725704 kB MemFree: 59262452 kB MemAvailable: 64271376 kB
dedos07 1528494667 MemTotal: 65725704 kB MemFree: 59264280 kB MemAvailable: 64273204 kB
dedos07 1528494673 MemTotal: 65725704 kB MemFree: 59262632 kB MemAvailable: 64271548 kB
dedos07 1528494678 MemTotal: 65725704 kB MemFree: 59260396 kB MemAvailable: 64269308 kB
dedos07 1528494683 MemTotal: 65725704 kB MemFree: 59261780 kB MemAvailable: 64270692 kB
dedos07 1528494688 MemTotal: 65725704 kB MemFree: 59261812 kB MemAvailable: 64270756 kB
dedos07 1528494694 MemTotal: 65725704 kB MemFree: 59358148 kB MemAvailable: 64367096 kB
