# Generated by DoSarray v0.2 on 2018-06-08 17:51
# machine_name sequence : ['dedos01', 'dedos02', 'dedos03', 'dedos04', 'dedos05', 'dedos06', 'dedos07', 'dedos08']
# time, (min, avg, max)+
0 0 0.0 0 0 0.0 0 0 0.0 0 0 0.0 0 0 0.0 0 0 0.0 0 0 0.0 0 0 0.0 0 
5 2438 2438.0 2438 332 332.0 332 334 334.0 334 327 327.0 327 341 341.0 341 339 339.0 339 343 343.0 343 340 340.0 340 
10 4486 4486.0 4486 669 669.0 669 664 664.0 664 653 653.0 653 687 687.0 687 681 681.0 681 684 684.0 684 687 687.0 687 
15 6537 6537.0 6537 1002 1002.0 1002 1001 1001.0 1001 982 982.0 982 1029 1029.0 1029 1036 1036.0 1036 1030 1030.0 1030 1032 1032.0 1032 
20 8588 8588.0 8588 1406 1406.0 1406 1402 1402.0 1402 1366 1366.0 1366 1430 1430.0 1430 1437 1437.0 1437 1424 1424.0 1424 1441 1441.0 1441 
25 10969 10969.0 10969 1735 1735.0 1735 1718 1718.0 1718 1693 1693.0 1693 1762 1762.0 1762 1766 1766.0 1766 1772 1772.0 1772 1770 1770.0 1770 
30 13034 13034.0 13034 2070 2070.0 2070 2051 2051.0 2051 2027 2027.0 2027 2117 2117.0 2117 2114 2114.0 2114 2102 2102.0 2102 2121 2121.0 2121 
35 15078 15078.0 15078 2403 2403.0 2403 2376 2376.0 2376 2352 2352.0 2352 2450 2450.0 2450 2455 2455.0 2455 2450 2450.0 2450 2466 2466.0 2466 
40 17132 17132.0 17132 2762 2762.0 2762 2740 2740.0 2740 2712 2712.0 2712 2844 2844.0 2844 2821 2821.0 2821 2834 2834.0 2834 2824 2824.0 2824 
45 19285 19285.0 19285 3124 3124.0 3124 3114 3114.0 3114 3071 3071.0 3071 3197 3197.0 3197 3202 3202.0 3202 3184 3184.0 3184 3203 3203.0 3203 
50 21583 21583.0 21583 3464 3464.0 3464 3441 3441.0 3441 3391 3391.0 3391 3543 3543.0 3543 3540 3540.0 3540 3543 3543.0 3543 3548 3548.0 3548 
55 23626 23626.0 23626 3795 3795.0 3795 3768 3768.0 3768 3715 3715.0 3715 3883 3883.0 3883 3882 3882.0 3882 3885 3885.0 3885 3890 3890.0 3890 
60 25668 25668.0 25668 4125 4125.0 4125 4107 4107.0 4107 4042 4042.0 4042 4221 4221.0 4221 4224 4224.0 4224 4216 4216.0 4216 4232 4232.0 4232 
65 26667 26667.0 26667 4282 4282.0 4282 4259 4259.0 4259 4198 4198.0 4198 4395 4395.0 4395 4390 4390.0 4390 4375 4375.0 4375 4390 4390.0 4390 
