# Generated by DoSarray v0.2 on 2018-06-14 16:00
# machine_name sequence : ['dedos01', 'dedos02', 'dedos03', 'dedos04', 'dedos05', 'dedos06', 'dedos07', 'dedos08']
# time, (min, avg, max)+
0 0.0207519420408 0.0207519420408 0.0207519420408 0.0346219494279 0.0346219494279 0.0346219494279 0.0229631926042 0.0229631926042 0.0229631926042 0.0224488124159 0.0224488124159 0.0224488124159 0.0221764684331 0.0221764684331 0.0221764684331 0.0225183133831 0.0225183133831 0.0225183133831 0.0220532898362 0.0220532898362 0.0220532898362 0.0221264423429 0.0221264423429 0.0221264423429 
5 0.0207602188635 0.0207602188635 0.0207602188635 0.0352458149402 0.0352458149402 0.0352458149402 0.0233406400637 0.0233406400637 0.0233406400637 0.0224782073084 0.0224782073084 0.0224782073084 0.0221726951757 0.0221726951757 0.0221726951757 0.0225365710803 0.0225365710803 0.0225365710803 0.0220360667419 0.0220360667419 0.0220360667419 0.0220229820589 0.0220229820589 0.0220229820589 
10 0.0208880836027 0.0208880836027 0.0208880836027 0.0358655420412 0.0358655420412 0.0358655420412 0.0237846064 0.0237846064 0.0237846064 0.0229552809354 0.0229552809354 0.0229552809354 0.0226205564873 0.0226205564873 0.0226205564873 0.0231191133381 0.0231191133381 0.0231191133381 0.0221546200555 0.0221546200555 0.0221546200555 0.0219389357929 0.0219389357929 0.0219389357929 
15 0.0217741905054 0.0217741905054 0.0217741905054 0.035847588639 0.035847588639 0.035847588639 0.023790874876 0.023790874876 0.023790874876 0.0229816937374 0.0229816937374 0.0229816937374 0.0226389359025 0.0226389359025 0.0226389359025 0.0232058373996 0.0232058373996 0.0232058373996 0.0220556633368 0.0220556633368 0.0220556633368 0.0219501338472 0.0219501338472 0.0219501338472 
20 0.0217749208133 0.0217749208133 0.0217749208133 0.0357419374314 0.0357419374314 0.0357419374314 0.0264036122002 0.0264036122002 0.0264036122002 0.0229882056493 0.0229882056493 0.0229882056493 0.0226189741536 0.0226189741536 0.0226189741536 0.0777205216394 0.0777205216394 0.0777205216394 0.0220306502917 0.0220306502917 0.0220306502917 0.0219662614797 0.0219662614797 0.0219662614797 
25 0.0217908050099 0.0217908050099 0.0217908050099 0.0357527703317 0.0357527703317 0.0357527703317 0.0743341448271 0.0743341448271 0.0743341448271 0.0230107234759 0.0230107234759 0.0230107234759 0.0225970649169 0.0225970649169 0.0225970649169 0.199692163054 0.199692163054 0.199692163054 0.0220882228968 0.0220882228968 0.0220882228968 0.0218991340131 0.0218991340131 0.0218991340131 
30 0.0218082106812 0.0218082106812 0.0218082106812 0.0357615340263 0.0357615340263 0.0357615340263 0.17687606663 0.17687606663 0.17687606663 0.103640061429 0.103640061429 0.103640061429 0.0226682699359 0.0226682699359 0.0226682699359 0.321707622942 0.321707622942 0.321707622942 0.0220699651996 0.0220699651996 0.0220699651996 0.0219534810917 0.0219534810917 0.0219534810917 
35 0.0217913527408 0.0217913527408 0.0217913527408 0.0962710722733 0.0962710722733 0.0962710722733 0.261736382466 0.261736382466 0.261736382466 0.215004345941 0.215004345941 0.215004345941 0.0226378404406 0.0226378404406 0.0226378404406 0.44213375029 0.44213375029 0.44213375029 0.0220374056397 0.0220374056397 0.0220374056397 0.0219461171538 0.0219461171538 0.0219461171538 
40 0.0218082715402 0.0218082715402 0.0218082715402 0.221935089505 0.221935089505 0.221935089505 0.382541904762 0.382541904762 0.382541904762 0.331695252743 0.331695252743 0.331695252743 0.0319740356071 0.0319740356071 0.0319740356071 0.559644062542 0.559644062542 0.559644062542 0.0220487254119 0.0220487254119 0.0220487254119 0.0220184176346 0.0220184176346 0.0220184176346 
45 0.0218240340187 0.0218240340187 0.0218240340187 0.349424876453 0.349424876453 0.349424876453 0.474014489065 0.474014489065 0.474014489065 0.429828184115 0.429828184115 0.429828184115 0.184201480748 0.184201480748 0.184201480748 0.685161713901 0.685161713901 0.685161713901 0.0220075847343 0.0220075847343 0.0220075847343 0.0218807545979 0.0218807545979 0.0218807545979 
50 0.0215387270709 0.0215387270709 0.0215387270709 0.0346669850809 0.0346669850809 0.0346669850809 0.0230575240396 0.0230575240396 0.0230575240396 0.0222336758842 0.0222336758842 0.0222336758842 0.0220292505349 0.0220292505349 0.0220292505349 0.0223930655806 0.0223930655806 0.0223930655806 0.0220132446204 0.0220132446204 0.0220132446204 0.0219134358759 0.0219134358759 0.0219134358759 
55 0.021357245561 0.021357245561 0.021357245561 0.0346494576916 0.0346494576916 0.0346494576916 0.0230433438948 0.0230433438948 0.0230433438948 0.0222068979284 0.0222068979284 0.0222068979284 0.0220204868403 0.0220204868403 0.0220204868403 0.0223953173632 0.0223953173632 0.0223953173632 0.0219952912182 0.0219952912182 0.0219952912182 0.0219360145614 0.0219360145614 0.0219360145614 
60 0.0213793373746 0.0213793373746 0.0213793373746 0.0346413634459 0.0346413634459 0.0346413634459 0.0230231387099 0.0230231387099 0.0230231387099 0.0222263119464 0.0222263119464 0.0222263119464 0.022061018928 0.022061018928 0.022061018928 0.0223931872985 0.0223931872985 0.0223931872985 0.0220940045009 0.0220940045009 0.0220940045009 0.0219001077569 0.0219001077569 0.0219001077569 
65 0.0213537157396 0.0213537157396 0.0213537157396 0.0346046046156 0.0346046046156 0.0346046046156 0.0230424918689 0.0230424918689 0.0230424918689 0.0222154790461 0.0222154790461 0.0222154790461 0.022015739839 0.022015739839 0.022015739839 0.0214681915008 0.0214681915008 0.0214681915008 0.0220406920251 0.0220406920251 0.0220406920251 0.0219537853866 0.0219537853866 0.0219537853866 
