# Generated by DoSarray v0.2 on 2018-06-08 18:15
# machine_name sequence : ['dedos01', 'dedos02', 'dedos03', 'dedos04', 'dedos05', 'dedos06', 'dedos07', 'dedos08']
# time, (min, avg, max)+
0 0.0208233904957 0.0208233904957 0.0208233904957 0.0350688978546 0.0350688978546 0.0350688978546 0.0230858843292 0.0230858843292 0.0230858843292 0.0224405355932 0.0224405355932 0.0224405355932 0.0222835193975 0.0222835193975 0.0222835193975 0.0227364928643 0.0227364928643 0.0227364928643 0.022022130033 0.022022130033 0.022022130033 0.022287231796 0.022287231796 0.022287231796 
5 0.0208096363639 0.0208096363639 0.0208096363639 0.0350222190089 0.0350222190089 0.0350222190089 0.0230891707147 0.0230891707147 0.0230891707147 0.0224839280535 0.0224839280535 0.0224839280535 0.0223115145332 0.0223115145332 0.0223115145332 0.022719208911 0.022719208911 0.022719208911 0.0220044809258 0.0220044809258 0.0220044809258 0.0223752338963 0.0223752338963 0.0223752338963 
10 0.0207853536266 0.0207853536266 0.0207853536266 0.0350175328666 0.0350175328666 0.0350175328666 0.0230843019955 0.0230843019955 0.0230843019955 0.0224706607935 0.0224706607935 0.0224706607935 0.0222655659953 0.0222655659953 0.0222655659953 0.0227136098839 0.0227136098839 0.0227136098839 0.021963948838 0.021963948838 0.021963948838 0.0222939262849 0.0222939262849 0.0222939262849 
15 0.0208236339317 0.0208236339317 0.0208236339317 0.0350388943723 0.0350388943723 0.0350388943723 0.0231042028854 0.0231042028854 0.0231042028854 0.0225360842084 0.0225360842084 0.0225360842084 0.022306341519 0.022306341519 0.022306341519 0.0227398401088 0.0227398401088 0.0227398401088 0.0219664440567 0.0219664440567 0.0219664440567 0.0222956911956 0.0222956911956 0.0222956911956 
20 0.0208513247724 0.0208513247724 0.0208513247724 0.0350239230606 0.0350239230606 0.0350239230606 0.023125990404 0.023125990404 0.023125990404 0.0224847192204 0.0224847192204 0.0224847192204 0.0222938654259 0.0222938654259 0.0222938654259 0.0227498818423 0.0227498818423 0.0227498818423 0.0220114797097 0.0220114797097 0.0220114797097 0.0222985515682 0.0222985515682 0.0222985515682 
25 0.0208320324724 0.0208320324724 0.0208320324724 0.0350257488303 0.0350257488303 0.0350257488303 0.0231265381349 0.0231265381349 0.0231265381349 0.0225573848551 0.0225573848551 0.0225573848551 0.0222367188338 0.0222367188338 0.0222367188338 0.0227333890558 0.0227333890558 0.0227333890558 0.0220254772775 0.0220254772775 0.0220254772775 0.0223557590193 0.0223557590193 0.0223557590193 
30 0.0208042199137 0.0208042199137 0.0208042199137 0.0350222190089 0.0350222190089 0.0350222190089 0.0231171658504 0.0231171658504 0.0231171658504 0.0224566023667 0.0224566023667 0.0224566023667 0.0222896052966 0.0222896052966 0.0222896052966 0.0227637576921 0.0227637576921 0.0227637576921 0.0220278507781 0.0220278507781 0.0220278507781 0.0223311111282 0.0223311111282 0.0223311111282 
35 0.0207720255077 0.0207720255077 0.0207720255077 0.035015159366 0.035015159366 0.035015159366 0.0230955000497 0.0230955000497 0.0230955000497 0.0224814328349 0.0224814328349 0.0224814328349 0.0222370231287 0.0222370231287 0.0222370231287 0.0226955956227 0.0226955956227 0.0226955956227 0.0219739905715 0.0219739905715 0.0219739905715 0.0223252078061 0.0223252078061 0.0223252078061 
40 0.0207577236449 0.0207577236449 0.0207577236449 0.0350258096893 0.0350258096893 0.0350258096893 0.0230665920292 0.0230665920292 0.0230665920292 0.0227226170145 0.0227226170145 0.0227226170145 0.022287049219 0.022287049219 0.022287049219 0.022732354453 0.022732354453 0.022732354453 0.0219702173141 0.0219702173141 0.0219702173141 0.0222633750716 0.0222633750716 0.0222633750716 
45 0.0207632618131 0.0207632618131 0.0207632618131 0.0350096820568 0.0350096820568 0.0350096820568 0.0230955609087 0.0230955609087 0.0230955609087 0.0224800330781 0.0224800330781 0.0224800330781 0.0222154790461 0.0222154790461 0.0222154790461 0.0227663137697 0.0227663137697 0.0227663137697 0.0220020465661 0.0220020465661 0.0220020465661 0.0223236254723 0.0223236254723 0.0223236254723 
50 0.0207447606799 0.0207447606799 0.0207447606799 0.0350241664966 0.0350241664966 0.0350241664966 0.0230749905699 0.0230749905699 0.0230749905699 0.0224780247314 0.0224780247314 0.0224780247314 0.0222894835786 0.0222894835786 0.0222894835786 0.0227267554259 0.0227267554259 0.0227267554259 0.0220243818157 0.0220243818157 0.0220243818157 0.0223118188281 0.0223118188281 0.0223118188281 
55 0.0206813456118 0.0206813456118 0.0206813456118 0.0350133944552 0.0350133944552 0.0350133944552 0.0230573414626 0.0230573414626 0.0230573414626 0.0225049244052 0.0225049244052 0.0225049244052 0.0222848582953 0.0222848582953 0.0222848582953 0.0227559068823 0.0227559068823 0.0227559068823 0.0219720430838 0.0219720430838 0.0219720430838 0.0223244774982 0.0223244774982 0.0223244774982 
60 0.0207108013632 0.0207108013632 0.0207108013632 0.0350183240335 0.0350183240335 0.0350183240335 0.0231149140677 0.0231149140677 0.0231149140677 0.0224875795929 0.0224875795929 0.0224875795929 0.0222663571622 0.0222663571622 0.0222663571622 0.0226819632088 0.0226819632088 0.0226819632088 0.0219618187734 0.0219618187734 0.0219618187734 0.0222836411155 0.0222836411155 0.0222836411155 
65 0.0207002118988 0.0207002118988 0.0207002118988 0.0337272005485 0.0337272005485 0.0337272005485 0.0218075412323 0.0218075412323 0.0218075412323 0.0211063848019 0.0211063848019 0.0211063848019 0.0208958735535 0.0208958735535 0.0208958735535 0.0212043069177 0.0212043069177 0.0212043069177 0.0206727644941 0.0206727644941 0.0206727644941 0.0209172350592 0.0209172350592 0.0209172350592 
