# Generated by DoSarray v0.2 on 2018-06-08 18:15
# machine_name sequence : ['dedos01', 'dedos02', 'dedos03', 'dedos04', 'dedos05', 'dedos06', 'dedos07', 'dedos08']
# time, (min, avg, max)+
0 0 0.0 0 0 0.0 0 0 0.0 0 0 0.0 0 0 0.0 0 0 0.0 0 0 0.0 0 0 0.0 0 
5 2402 2402.0 2402 315 315.0 315 304 304.0 304 321 321.0 321 310 310.0 310 305 305.0 305 304 304.0 304 318 318.0 318 
10 4436 4436.0 4436 626 626.0 626 617 617.0 617 636 636.0 636 624 624.0 624 623 623.0 623 620 620.0 620 639 639.0 639 
15 6474 6474.0 6474 931 931.0 931 931 931.0 931 965 965.0 965 945 945.0 945 939 939.0 939 933 933.0 933 932 932.0 932 
20 8548 8548.0 8548 1291 1291.0 1291 1303 1303.0 1303 1319 1319.0 1319 1323 1323.0 1323 1324 1324.0 1324 1317 1317.0 1317 1294 1294.0 1294 
25 10942 10942.0 10942 1604 1604.0 1604 1605 1605.0 1605 1625 1625.0 1625 1623 1623.0 1623 1623 1623.0 1623 1619 1619.0 1619 1616 1616.0 1616 
30 12984 12984.0 12984 1914 1914.0 1914 1912 1912.0 1912 1945 1945.0 1945 1944 1944.0 1944 1943 1943.0 1943 1932 1932.0 1932 1924 1924.0 1924 
35 15031 15031.0 15031 2221 2221.0 2221 2231 2231.0 2231 2255 2255.0 2255 2249 2249.0 2249 2258 2258.0 2258 2238 2238.0 2238 2232 2232.0 2232 
40 17080 17080.0 17080 2585 2585.0 2585 2544 2544.0 2544 2610 2610.0 2610 2605 2605.0 2605 2625 2625.0 2625 2605 2605.0 2605 2597 2597.0 2597 
45 19422 19422.0 19422 2906 2906.0 2906 2903 2903.0 2903 2938 2938.0 2938 2930 2930.0 2930 2942 2942.0 2942 2923 2923.0 2923 2932 2932.0 2932 
50 21532 21532.0 21532 3216 3216.0 3216 3217 3217.0 3217 3250 3250.0 3250 3246 3246.0 3246 3247 3247.0 3247 3242 3242.0 3242 3236 3236.0 3236 
55 23582 23582.0 23582 3520 3520.0 3520 3512 3512.0 3512 3562 3562.0 3562 3559 3559.0 3559 3565 3565.0 3565 3548 3548.0 3548 3550 3550.0 3550 
60 25624 25624.0 25624 3841 3841.0 3841 3827 3827.0 3827 3907 3907.0 3907 3895 3895.0 3895 3898 3898.0 3898 3906 3906.0 3906 3907 3907.0 3907 
65 26628 26628.0 26628 3984 3984.0 3984 3975 3975.0 3975 4010 4010.0 4010 4016 4016.0 4016 4024 4024.0 4024 4017 4017.0 4017 4012 4012.0 4012 
