dedos06 1528582444 0.06 0.29 0.18 2/620 109159
dedos06 1528582449 0.05 0.29 0.18 1/616 109373
dedos06 1528582455 0.05 0.28 0.18 2/621 109587
dedos06 1528582460 0.04 0.28 0.17 3/621 109784
dedos06 1528582465 0.28 0.32 0.19 2/622 110014
dedos06 1528582470 0.25 0.31 0.19 3/623 110190
dedos06 1528582476 0.23 0.31 0.19 1/617 110440
dedos06 1528582481 0.21 0.30 0.18 2/619 110651
dedos06 1528582486 0.20 0.30 0.18 2/622 110867
dedos06 1528582491 0.18 0.29 0.18 2/622 111065
dedos06 1528582497 0.17 0.29 0.18 2/622 111284
dedos06 1528582502 0.15 0.28 0.18 1/615 111518
dedos06 1528582507 0.14 0.28 0.18 2/616 111723
dedos06 1528582512 0.13 0.27 0.18 3/459 111928
