Inter-|   Receive                                                |  Transmit
 face |bytes    packets errs drop fifo frame compressed multicast|bytes    packets errs drop fifo colls carrier compressed
vethf703f6b: 2103106   26710    0    0    0     0          0         0  2480517   21427    0    0    0     0       0          0
veth4fbb0dc: 2124414   26918    0    0    0     0          0         0  2488053   21493    0    0    0     0       0          0
veth2dcfe2f: 2103264   26731    0    0    0     0          0         0  2484964   21467    0    0    0     0       0          0
   em1: 7989212296944 13564501678    0    0    0     0          0     52297 8703484753797 13568638900    0    0    0     0       0          0
veth84ab7c7: 2090044   26580    0    0    0     0          0         0  2456379   21208    0    0    0     0       0          0
    lo: 26774191   94219    0    0    0     0          0         0 26774191   94219    0    0    0     0       0          0
vethc05f801: 85125169  999028    0    0    0     0          0         0 113350138  637110    0    0    0     0       0          0
vethf6fb63c: 2104186   26718    0    0    0     0          0         0  2470789   21349    0    0    0     0       0          0
vethb442f28: 2096298   26621    0    0    0     0          0         0  2451835   21156    0    0    0     0       0          0
veth31caeff: 2087102   26453    0    0    0     0          0         0  2433726   21008    0    0    0     0       0          0
   em4:       0       0    0    0    0     0          0         0        0       0    0    0    0     0       0          0
docker_bridge: 1635780988 16532112    0    0    0     0          0         0 1302273538 13538453    0    0    0     0       0          0
   em3: 32011301879 515571211    0    5    0     0          0     58667 34478595734 34097961    0    0    0     0       0          0
veth0be148a: 2102478   26691    0    0    0     0          0         0  2472594   21349    0    0    0     0       0          0
docker0:       0       0    0    0    0     0          0         0        0       0    0    0    0     0       0          0
veth723f28f: 2091986   26567    0    0    0     0          0         0  2443031   21085    0    0    0     0       0          0
   em2:       0       0    0    0    0     0          0         0        0       0    0    0    0     0       0          0
Inter-|   Receive                                                |  Transmit
 face |bytes    packets errs drop fifo frame compressed multicast|bytes    packets errs drop fifo colls carrier compressed
vethf703f6b: 2105234   26737    0    0    0     0          0         0  2483812   21453    0    0    0     0       0          0
veth4fbb0dc: 2126740   26948    0    0    0     0          0         0  2491348   21519    0    0    0     0       0          0
veth2dcfe2f: 2105458   26759    0    0    0     0          0         0  2488260   21493    0    0    0     0       0          0
   em1: 7989212334163 13564501970    0    0    0     0          0     52297 8703484779314 13568639213    0    0    0     0       0          0
veth84ab7c7: 2092238   26608    0    0    0     0          0         0  2459674   21234    0    0    0     0       0          0
    lo: 26774191   94219    0    0    0     0          0         0 26774191   94219    0    0    0     0       0          0
vethc05f801: 85127297  999055    0    0    0     0          0         0 113353433  637136    0    0    0     0       0          0
vethf6fb63c: 2106380   26746    0    0    0     0          0         0  2474084   21375    0    0    0     0       0          0
vethb442f28: 2098426   26648    0    0    0     0          0         0  2455132   21182    0    0    0     0       0          0
veth31caeff: 2089494   26484    0    0    0     0          0         0  2437021   21034    0    0    0     0       0          0
   em4:       0       0    0    0    0     0          0         0        0       0    0    0    0     0       0          0
docker_bridge: 1635799112 16532394    0    0    0     0          0         0 1302306492 13538713    0    0    0     0       0          0
   em3: 32011331130 515571513    0    5    0     0          0     58667 34478610399 34098025    0    0    0     0       0          0
veth0be148a: 2104606   26718    0    0    0     0          0         0  2475890   21375    0    0    0     0       0          0
docker0:       0       0    0    0    0     0          0         0        0       0    0    0    0     0       0          0
veth723f28f: 2094246   26596    0    0    0     0          0         0  2446326   21111    0    0    0     0       0          0
   em2:       0       0    0    0    0     0          0         0        0       0    0    0    0     0       0          0
Inter-|   Receive                                                |  Transmit
 face |bytes    packets errs drop fifo frame compressed multicast|bytes    packets errs drop fifo colls carrier compressed
vethf703f6b: 2107452   26765    0    0    0     0          0         0  2487068   21478    0    0    0     0       0          0
veth4fbb0dc: 2128958   26976    0    0    0     0          0         0  2494603   21544    0    0    0     0       0          0
veth2dcfe2f: 2107742   26788    0    0    0     0          0         0  2491516   21518    0    0    0     0       0          0
   em1: 7989212370656 13564502256    0    0    0     0          0     52297 8703484804527 13568639522    0    0    0     0       0          0
veth84ab7c7: 2094456   26636    0    0    0     0          0         0  2462929   21259    0    0    0     0       0          0
    lo: 26774191   94219    0    0    0     0          0         0 26774191   94219    0    0    0     0       0          0
vethc05f801: 85129449  999082    0    0    0     0          0         0 113356688  637161    0    0    0     0       0          0
vethf6fb63c: 2108532   26773    0    0    0     0          0         0  2477340   21400    0    0    0     0       0          0
vethb442f28: 2100644   26676    0    0    0     0          0         0  2458387   21207    0    0    0     0       0          0
veth31caeff: 2091646   26511    0    0    0     0          0         0  2440277   21059    0    0    0     0       0          0
   em4:       0       0    0    0    0     0          0         0        0       0    0    0    0     0       0          0
docker_bridge: 1635817008 16532667    0    0    0     0          0         0 1302339046 13538963    0    0    0     0       0          0
   em3: 32011363465 515571842    0    5    0     0          0     58667 34478625352 34098091    0    0    0     0       0          0
veth0be148a: 2106692   26744    0    0    0     0          0         0  2479145   21400    0    0    0     0       0          0
docker0:       0       0    0    0    0     0          0         0        0       0    0    0    0     0       0          0
veth723f28f: 2096266   26621    0    0    0     0          0         0  2449581   21136    0    0    0     0       0          0
   em2:       0       0    0    0    0     0          0         0        0       0    0    0    0     0       0          0
Inter-|   Receive                                                |  Transmit
 face |bytes    packets errs drop fifo frame compressed multicast|bytes    packets errs drop fifo colls carrier compressed
vethf703f6b: 2109670   26793    0    0    0     0          0         0  2490328   21503    0    0    0     0       0          0
veth4fbb0dc: 2131044   27002    0    0    0     0          0         0  2497862   21569    0    0    0     0       0          0
veth2dcfe2f: 2109828   26814    0    0    0     0          0         0  2494776   21543    0    0    0     0       0          0
   em1: 7989212408295 13564502548    0    0    0     0          0     52297 8703484829472 13568639825    0    0    0     0       0          0
veth84ab7c7: 2096476   26661    0    0    0     0          0         0  2466189   21284    0    0    0     0       0          0
    lo: 26774191   94219    0    0    0     0          0         0 26774191   94219    0    0    0     0       0          0
vethc05f801: 85131601  999109    0    0    0     0          0         0 113359948  637186    0    0    0     0       0          0
vethf6fb63c: 2110750   26801    0    0    0     0          0         0  2480597   21425    0    0    0     0       0          0
vethb442f28: 2102730   26702    0    0    0     0          0         0  2461645   21232    0    0    0     0       0          0
veth31caeff: 2093666   26536    0    0    0     0          0         0  2443537   21084    0    0    0     0       0          0
   em4:       0       0    0    0    0     0          0         0        0       0    0    0    0     0       0          0
docker_bridge: 1635834384 16532930    0    0    0     0          0         0 1302371638 13539213    0    0    0     0       0          0
   em3: 32011393116 515572148    0    5    0     0          0     58667 34478640175 34098156    0    0    0     0       0          0
veth0be148a: 2108778   26770    0    0    0     0          0         0  2482405   21425    0    0    0     0       0          0
docker0:       0       0    0    0    0     0          0         0        0       0    0    0    0     0       0          0
veth723f28f: 2098352   26647    0    0    0     0          0         0  2452839   21161    0    0    0     0       0          0
   em2:       0       0    0    0    0     0          0         0        0       0    0    0    0     0       0          0
Inter-|   Receive                                                |  Transmit
 face |bytes    packets errs drop fifo frame compressed multicast|bytes    packets errs drop fifo colls carrier compressed
vethf703f6b: 2112160   26824    0    0    0     0          0         0  2494240   21533    0    0    0     0       0          0
veth4fbb0dc: 2133600   27034    0    0    0     0          0         0  2501771   21599    0    0    0     0       0          0
veth2dcfe2f: 2112516   26848    0    0    0     0          0         0  2498688   21573    0    0    0     0       0          0
   em1: 7989212452404 13564502894    0    0    0     0          0     52297 8703484859771 13568640195    0    0    0     0       0          0
veth84ab7c7: 2099164   26695    0    0    0     0          0         0  2470099   21314    0    0    0     0       0          0
    lo: 26774191   94219    0    0    0     0          0         0 26774191   94219    0    0    0     0       0          0
vethc05f801: 85134025  999139    0    0    0     0          0         0 113363859  637216    0    0    0     0       0          0
vethf6fb63c: 2113372   26834    0    0    0     0          0         0  2484508   21455    0    0    0     0       0          0
vethb442f28: 2105352   26735    0    0    0     0          0         0  2465556   21262    0    0    0     0       0          0
veth31caeff: 2096222   26568    0    0    0     0          0         0  2447448   21114    0    0    0     0       0          0
   em4:       0       0    0    0    0     0          0         0        0       0    0    0    0     0       0          0
docker_bridge: 1635855672 16533254    0    0    0     0          0         0 1302410748 13539513    0    0    0     0       0          0
   em3: 32011424971 515572511    0    5    0     0          0     58667 34478655392 34098224    0    0    0     0       0          0
veth0be148a: 2111334   26802    0    0    0     0          0         0  2486317   21455    0    0    0     0       0          0
docker0:       0       0    0    0    0     0          0         0        0       0    0    0    0     0       0          0
veth723f28f: 2100974   26680    0    0    0     0          0         0  2456750   21191    0    0    0     0       0          0
   em2:       0       0    0    0    0     0          0         0        0       0    0    0    0     0       0          0
Inter-|   Receive                                                |  Transmit
 face |bytes    packets errs drop fifo frame compressed multicast|bytes    packets errs drop fifo colls carrier compressed
vethf703f6b: 2114246   26850    0    0    0     0          0         0  2497500   21558    0    0    0     0       0          0
veth4fbb0dc: 2135752   27061    0    0    0     0          0         0  2505030   21624    0    0    0     0       0          0
veth2dcfe2f: 2114602   26874    0    0    0     0          0         0  2501948   21598    0    0    0     0       0          0
   em1: 7989212490868 13564503192    0    0    0     0          0     52298 8703484885338 13568640505    0    0    0     0       0          0
veth84ab7c7: 2101250   26721    0    0    0     0          0         0  2473358   21339    0    0    0     0       0          0
    lo: 26774191   94219    0    0    0     0          0         0 26774191   94219    0    0    0     0       0          0
vethc05f801: 85136111  999165    0    0    0     0          0         0 113367119  637241    0    0    0     0       0          0
vethf6fb63c: 2115590   26862    0    0    0     0          0         0  2487767   21480    0    0    0     0       0          0
vethb442f28: 2107438   26761    0    0    0     0          0         0  2468816   21287    0    0    0     0       0          0
veth31caeff: 2098308   26594    0    0    0     0          0         0  2450708   21139    0    0    0     0       0          0
   em4:       0       0    0    0    0     0          0         0        0       0    0    0    0     0       0          0
docker_bridge: 1635873152 16533519    0    0    0     0          0         0 1302443345 13539763    0    0    0     0       0          0
   em3: 32011455258 515572827    0    5    0     0          0     58667 34478670621 34098292    0    0    0     0       0          0
veth0be148a: 2113618   26831    0    0    0     0          0         0  2489577   21480    0    0    0     0       0          0
docker0:       0       0    0    0    0     0          0         0        0       0    0    0    0     0       0          0
veth723f28f: 2102994   26705    0    0    0     0          0         0  2460010   21216    0    0    0     0       0          0
   em2:       0       0    0    0    0     0          0         0        0       0    0    0    0     0       0          0
Inter-|   Receive                                                |  Transmit
 face |bytes    packets errs drop fifo frame compressed multicast|bytes    packets errs drop fifo colls carrier compressed
vethf703f6b: 2116464   26878    0    0    0     0          0         0  2500760   21583    0    0    0     0       0          0
veth4fbb0dc: 2137838   27087    0    0    0     0          0         0  2508290   21649    0    0    0     0       0          0
veth2dcfe2f: 2116688   26900    0    0    0     0          0         0  2505207   21623    0    0    0     0       0          0
   em1: 7989212529110 13564503493    0    0    0     0          0     52300 8703484911003 13568640816    0    0    0     0       0          0
veth84ab7c7: 2103336   26747    0    0    0     0          0         0  2476618   21364    0    0    0     0       0          0
    lo: 26774191   94219    0    0    0     0          0         0 26774191   94219    0    0    0     0       0          0
vethc05f801: 85138263  999192    0    0    0     0          0         0 113370378  637266    0    0    0     0       0          0
vethf6fb63c: 2117676   26888    0    0    0     0          0         0  2491026   21505    0    0    0     0       0          0
vethb442f28: 2109524   26787    0    0    0     0          0         0  2472076   21312    0    0    0     0       0          0
veth31caeff: 2100328   26619    0    0    0     0          0         0  2453968   21164    0    0    0     0       0          0
   em4:       0       0    0    0    0     0          0         0        0       0    0    0    0     0       0          0
docker_bridge: 1635890528 16533782    0    0    0     0          0         0 1302475942 13540013    0    0    0     0       0          0
   em3: 32011485031 515573107    0    5    0     0          0     58667 34478686532 34098367    0    0    0     0       0          0
veth0be148a: 2115638   26856    0    0    0     0          0         0  2492837   21505    0    0    0     0       0          0
docker0:       0       0    0    0    0     0          0         0        0       0    0    0    0     0       0          0
veth723f28f: 2105212   26733    0    0    0     0          0         0  2463270   21241    0    0    0     0       0          0
   em2:       0       0    0    0    0     0          0         0        0       0    0    0    0     0       0          0
Inter-|   Receive                                                |  Transmit
 face |bytes    packets errs drop fifo frame compressed multicast|bytes    packets errs drop fifo colls carrier compressed
vethf703f6b: 2118658   26906    0    0    0     0          0         0  2504062   21609    0    0    0     0       0          0
veth4fbb0dc: 2140032   27115    0    0    0     0          0         0  2511590   21675    0    0    0     0       0          0
veth2dcfe2f: 2118882   26928    0    0    0     0          0         0  2508509   21649    0    0    0     0       0          0
   em1: 7989212566961 13564503787    0    0    0     0          0     52300 8703484936606 13568641128    0    0    0     0       0          0
veth84ab7c7: 2105530   26775    0    0    0     0          0         0  2479920   21390    0    0    0     0       0          0
    lo: 26774191   94219    0    0    0     0          0         0 26774191   94219    0    0    0     0       0          0
vethc05f801: 85140523  999221    0    0    0     0          0         0 113373679  637292    0    0    0     0       0          0
vethf6fb63c: 2119804   26915    0    0    0     0          0         0  2494328   21531    0    0    0     0       0          0
vethb442f28: 2111784   26816    0    0    0     0          0         0  2475377   21338    0    0    0     0       0          0
veth31caeff: 2102522   26647    0    0    0     0          0         0  2457269   21190    0    0    0     0       0          0
   em4:       0       0    0    0    0     0          0         0        0       0    0    0    0     0       0          0
docker_bridge: 1635908548 16534062    0    0    0     0          0         0 1302508954 13540273    0    0    0     0       0          0
   em3: 32011509898 515573308    0    5    0     0          0     58667 34478701893 34098439    0    0    0     0       0          0
veth0be148a: 2117898   26885    0    0    0     0          0         0  2496138   21531    0    0    0     0       0          0
docker0:       0       0    0    0    0     0          0         0        0       0    0    0    0     0       0          0
veth723f28f: 2107274   26759    0    0    0     0          0         0  2466570   21267    0    0    0     0       0          0
   em2:       0       0    0    0    0     0          0         0        0       0    0    0    0     0       0          0
Inter-|   Receive                                                |  Transmit
 face |bytes    packets errs drop fifo frame compressed multicast|bytes    packets errs drop fifo colls carrier compressed
vethf703f6b: 2121214   26938    0    0    0     0          0         0  2507973   21639    0    0    0     0       0          0
veth4fbb0dc: 2142720   27149    0    0    0     0          0         0  2515502   21705    0    0    0     0       0          0
veth2dcfe2f: 2121504   26961    0    0    0     0          0         0  2512420   21679    0    0    0     0       0          0
   em1: 7989212610567 13564504126    0    0    0     0          0     52300 8703484965659 13568641483    0    0    0     0       0          0
veth84ab7c7: 2108086   26807    0    0    0     0          0         0  2483831   21420    0    0    0     0       0          0
    lo: 26774191   94219    0    0    0     0          0         0 26774191   94219    0    0    0     0       0          0
vethc05f801: 85143079  999253    0    0    0     0          0         0 113377590  637322    0    0    0     0       0          0
vethf6fb63c: 2122360   26947    0    0    0     0          0         0  2498239   21561    0    0    0     0       0          0
vethb442f28: 2114274   26847    0    0    0     0          0         0  2479288   21368    0    0    0     0       0          0
veth31caeff: 2104946   26677    0    0    0     0          0         0  2461181   21220    0    0    0     0       0          0
   em4:       0       0    0    0    0     0          0         0        0       0    0    0    0     0       0          0
docker_bridge: 1635929472 16534379    0    0    0     0          0         0 1302548067 13540573    0    0    0     0       0          0
   em3: 32011537281 515573581    0    5    0     0          0     58667 34478716546 34098503    0    0    0     0       0          0
veth0be148a: 2120322   26915    0    0    0     0          0         0  2500049   21561    0    0    0     0       0          0
docker0:       0       0    0    0    0     0          0         0        0       0    0    0    0     0       0          0
veth723f28f: 2109764   26790    0    0    0     0          0         0  2470482   21297    0    0    0     0       0          0
   em2:       0       0    0    0    0     0          0         0        0       0    0    0    0     0       0          0
Inter-|   Receive                                                |  Transmit
 face |bytes    packets errs drop fifo frame compressed multicast|bytes    packets errs drop fifo colls carrier compressed
vethf703f6b: 2123366   26965    0    0    0     0          0         0  2511167   21663    0    0    0     0       0          0
veth4fbb0dc: 2144806   27175    0    0    0     0          0         0  2518761   21730    0    0    0     0       0          0
veth2dcfe2f: 2123722   26989    0    0    0     0          0         0  2515680   21704    0    0    0     0       0          0
   em1: 7989212648015 13564504418    0    0    0     0          0     52300 8703484990668 13568641786    0    0    0     0       0          0
veth84ab7c7: 2110106   26832    0    0    0     0          0         0  2487091   21445    0    0    0     0       0          0
    lo: 26774191   94219    0    0    0     0          0         0 26774191   94219    0    0    0     0       0          0
vethc05f801: 85145231  999280    0    0    0     0          0         0 113380849  637347    0    0    0     0       0          0
vethf6fb63c: 2124380   26972    0    0    0     0          0         0  2501499   21586    0    0    0     0       0          0
vethb442f28: 2116426   26874    0    0    0     0          0         0  2482548   21393    0    0    0     0       0          0
veth31caeff: 2107032   26703    0    0    0     0          0         0  2464441   21245    0    0    0     0       0          0
   em4:       0       0    0    0    0     0          0         0        0       0    0    0    0     0       0          0
docker_bridge: 1635946744 16534640    0    0    0     0          0         0 1302580598 13540822    0    0    0     0       0          0
   em3: 32011575440 515574024    0    5    0     0          0     58667 34478732377 34098574    0    0    0     0       0          0
veth0be148a: 2122342   26940    0    0    0     0          0         0  2503308   21586    0    0    0     0       0          0
docker0:       0       0    0    0    0     0          0         0        0       0    0    0    0     0       0          0
veth723f28f: 2111784   26815    0    0    0     0          0         0  2473742   21322    0    0    0     0       0          0
   em2:       0       0    0    0    0     0          0         0        0       0    0    0    0     0       0          0
Inter-|   Receive                                                |  Transmit
 face |bytes    packets errs drop fifo frame compressed multicast|bytes    packets errs drop fifo colls carrier compressed
vethf703f6b: 2125518   26992    0    0    0     0          0         0  2514426   21688    0    0    0     0       0          0
veth4fbb0dc: 2146892   27201    0    0    0     0          0         0  2522021   21755    0    0    0     0       0          0
veth2dcfe2f: 2125742   27014    0    0    0     0          0         0  2518940   21729    0    0    0     0       0          0
   em1: 7989212685527 13564504711    0    0    0     0          0     52300 8703485015677 13568642089    0    0    0     0       0          0
veth84ab7c7: 2112192   26858    0    0    0     0          0         0  2490351   21470    0    0    0     0       0          0
    lo: 26774191   94219    0    0    0     0          0         0 26774191   94219    0    0    0     0       0          0
vethc05f801: 85147251  999305    0    0    0     0          0         0 113384108  637372    0    0    0     0       0          0
vethf6fb63c: 2126466   26998    0    0    0     0          0         0  2504758   21611    0    0    0     0       0          0
vethb442f28: 2118512   26900    0    0    0     0          0         0  2485808   21418    0    0    0     0       0          0
veth31caeff: 2109118   26729    0    0    0     0          0         0  2467701   21270    0    0    0     0       0          0
   em4:       0       0    0    0    0     0          0         0        0       0    0    0    0     0       0          0
docker_bridge: 1635964016 16534901    0    0    0     0          0         0 1302613193 13541072    0    0    0     0       0          0
   em3: 32011604563 515574299    0    5    0     0          0     58667 34478747132 34098641    0    0    0     0       0          0
veth0be148a: 2124494   26967    0    0    0     0          0         0  2506567   21611    0    0    0     0       0          0
docker0:       0       0    0    0    0     0          0         0        0       0    0    0    0     0       0          0
veth723f28f: 2113936   26842    0    0    0     0          0         0  2477001   21347    0    0    0     0       0          0
   em2:       0       0    0    0    0     0          0         0        0       0    0    0    0     0       0          0
Inter-|   Receive                                                |  Transmit
 face |bytes    packets errs drop fifo frame compressed multicast|bytes    packets errs drop fifo colls carrier compressed
vethf703f6b: 2127802   27021    0    0    0     0          0         0  2517686   21713    0    0    0     0       0          0
veth4fbb0dc: 2149044   27228    0    0    0     0          0         0  2525280   21780    0    0    0     0       0          0
veth2dcfe2f: 2127894   27041    0    0    0     0          0         0  2522200   21754    0    0    0     0       0          0
   em1: 7989212722759 13564505004    0    0    0     0          0     52300 8703485041256 13568642401    0    0    0     0       0          0
veth84ab7c7: 2114410   26886    0    0    0     0          0         0  2493610   21495    0    0    0     0       0          0
    lo: 26774191   94219    0    0    0     0          0         0 26774191   94219    0    0    0     0       0          0
vethc05f801: 85149337  999331    0    0    0     0          0         0 113387368  637397    0    0    0     0       0          0
vethf6fb63c: 2128486   27023    0    0    0     0          0         0  2508018   21636    0    0    0     0       0          0
vethb442f28: 2120664   26927    0    0    0     0          0         0  2489067   21443    0    0    0     0       0          0
veth31caeff: 2111270   26756    0    0    0     0          0         0  2470961   21295    0    0    0     0       0          0
   em4:       0       0    0    0    0     0          0         0        0       0    0    0    0     0       0          0
docker_bridge: 1635981704 16535170    0    0    0     0          0         0 1302645790 13541322    0    0    0     0       0          0
   em3: 32011642742 515574696    0    5    0     0          0     58667 34478762687 34098714    0    0    0     0       0          0
veth0be148a: 2126646   26994    0    0    0     0          0         0  2509827   21636    0    0    0     0       0          0
docker0:       0       0    0    0    0     0          0         0        0       0    0    0    0     0       0          0
veth723f28f: 2116022   26868    0    0    0     0          0         0  2480261   21372    0    0    0     0       0          0
   em2:       0       0    0    0    0     0          0         0        0       0    0    0    0     0       0          0
Inter-|   Receive                                                |  Transmit
 face |bytes    packets errs drop fifo frame compressed multicast|bytes    packets errs drop fifo colls carrier compressed
vethf703f6b: 2130490   27055    0    0    0     0          0         0  2521598   21743    0    0    0     0       0          0
veth4fbb0dc: 2151600   27260    0    0    0     0          0         0  2529192   21810    0    0    0     0       0          0
veth2dcfe2f: 2130450   27073    0    0    0     0          0         0  2526111   21784    0    0    0     0       0          0
   em1: 7989212765620 13564505339    0    0    0     0          0     52300 8703485070091 13568642753    0    0    0     0       0          0
veth84ab7c7: 2116834   26916    0    0    0     0          0         0  2497521   21525    0    0    0     0       0          0
    lo: 26774191   94219    0    0    0     0          0         0 26774191   94219    0    0    0     0       0          0
vethc05f801: 85151893  999363    0    0    0     0          0         0 113391278  637427    0    0    0     0       0          0
vethf6fb63c: 2130506   27048    0    0    0     0          0         0  2511278   21661    0    0    0     0       0          0
vethb442f28: 2123154   26958    0    0    0     0          0         0  2492979   21473    0    0    0     0       0          0
veth31caeff: 2113356   26782    0    0    0     0          0         0  2474221   21320    0    0    0     0       0          0
   em4:       0       0    0    0    0     0          0         0        0       0    0    0    0     0       0          0
docker_bridge: 1636002012 16535478    0    0    0     0          0         0 1302683602 13541612    0    0    0     0       0          0
   em3: 32011676464 515575066    0    5    0     0          0     58667 34478777906 34098783    0    0    0     0       0          0
veth0be148a: 2129202   27026    0    0    0     0          0         0  2513739   21666    0    0    0     0       0          0
docker0:       0       0    0    0    0     0          0         0        0       0    0    0    0     0       0          0
veth723f28f: 2118710   26902    0    0    0     0          0         0  2484173   21402    0    0    0     0       0          0
   em2:       0       0    0    0    0     0          0         0        0       0    0    0    0     0       0          0
Inter-|   Receive                                                |  Transmit
 face |bytes    packets errs drop fifo frame compressed multicast|bytes    packets errs drop fifo colls carrier compressed
vethf703f6b: 2131002   27062    0    0    0     0          0         0  2522292   21749    0    0    0     0       0          0
veth4fbb0dc: 2152112   27267    0    0    0     0          0         0  2529886   21816    0    0    0     0       0          0
veth2dcfe2f: 2130962   27080    0    0    0     0          0         0  2526805   21790    0    0    0     0       0          0
   em1: 7989212779295 13564505451    0    0    0     0          0     52300 8703485080136 13568642868    0    0    0     0       0          0
veth84ab7c7: 2117346   26923    0    0    0     0          0         0  2498215   21531    0    0    0     0       0          0
    lo: 26774191   94219    0    0    0     0          0         0 26774191   94219    0    0    0     0       0          0
vethc05f801: 85152339  999369    0    0    0     0          0         0 113391972  637433    0    0    0     0       0          0
vethf6fb63c: 2131356   27059    0    0    0     0          0         0  2512624   21672    0    0    0     0       0          0
vethb442f28: 2123666   26965    0    0    0     0          0         0  2493673   21479    0    0    0     0       0          0
veth31caeff: 2114206   26793    0    0    0     0          0         0  2475567   21331    0    0    0     0       0          0
   em4:       0       0    0    0    0     0          0         0        0       0    0    0    0     0       0          0
docker_bridge: 1636006560 16535553    0    0    0     0          0         0 1302691846 13541682    0    0    0     0       0          0
   em3: 32011714225 515575475    0    5    0     0          0     58667 34478794237 34098862    0    0    0     0       0          0
veth0be148a: 2129648   27032    0    0    0     0          0         0  2514433   21672    0    0    0     0       0          0
docker0:       0       0    0    0    0     0          0         0        0       0    0    0    0     0       0          0
veth723f28f: 2119156   26908    0    0    0     0          0         0  2484867   21408    0    0    0     0       0          0
   em2:       0       0    0    0    0     0          0         0        0       0    0    0    0     0       0          0
