# Generated by DoSarray v0.2 on 2018-06-09 16:25
0 100.0
1 100.0
2 100.0
3 100.0
4 100.0
5 100.0
6 100.0
7 100.0
8 100.0
9 100.0
10 100.0
11 100.0
12 100.0
13 100.0
14 100.0
15 100.0
16 100.0
17 100.0
18 100.0
19 100.0
20 100.0
21 100.0
22 100.0
23 100.0
24 100.0
25 100.0
26 100.0
27 100.0
28 100.0
29 100.0
30 100.0
31 100.0
32 100.0
33 100.0
34 100.0
35 100.0
36 100.0
37 100.0
38 100.0
39 100.0
40 100.0
41 100.0
42 100.0
43 100.0
44 100.0
45 100.0
46 100.0
47 100.0
48 100.0
49 100.0
50 100.0
51 100.0
52 100.0
53 100.0
54 100.0
55 100.0
56 100.0
57 100.0
58 100.0
59 100.0
60 100.0
61 100.0
62 100.0
63 100.0
