dedos05 1528575785 MemTotal: 65725704 kB MemFree: 1861264 kB MemAvailable: 64258140 kB
dedos05 1528575790 MemTotal: 65725704 kB MemFree: 1861328 kB MemAvailable: 64257956 kB
dedos05 1528575796 MemTotal: 65725704 kB MemFree: 1740928 kB MemAvailable: 64137588 kB
dedos05 1528575801 MemTotal: 65725704 kB MemFree: 1742380 kB MemAvailable: 64139044 kB
dedos05 1528575806 MemTotal: 65725704 kB MemFree: 1736168 kB MemAvailable: 64132832 kB
dedos05 1528575811 MemTotal: 65725704 kB MemFree: 1739500 kB MemAvailable: 64136232 kB
dedos05 1528575817 MemTotal: 65725704 kB MemFree: 1736544 kB MemAvailable: 64133280 kB
dedos05 1528575822 MemTotal: 65725704 kB MemFree: 1739392 kB MemAvailable: 64136132 kB
dedos05 1528575827 MemTotal: 65725704 kB MemFree: 1736324 kB MemAvailable: 64133032 kB
dedos05 1528575832 MemTotal: 65725704 kB MemFree: 1735696 kB MemAvailable: 64132404 kB
dedos05 1528575838 MemTotal: 65725704 kB MemFree: 1866052 kB MemAvailable: 64262764 kB
dedos05 1528575843 MemTotal: 65725704 kB MemFree: 1853212 kB MemAvailable: 64249924 kB
dedos05 1528575848 MemTotal: 65725704 kB MemFree: 1864592 kB MemAvailable: 64261312 kB
dedos05 1528575853 MemTotal: 65725704 kB MemFree: 1957308 kB MemAvailable: 64354092 kB
