# Generated by DoSarray v0.2 on 2018-06-09 16:24
# machine_name sequence : ['dedos01', 'dedos02', 'dedos03', 'dedos04', 'dedos05', 'dedos06', 'dedos07', 'dedos08']
# time, (min, avg, max)+
0 0 0.0 0 0 0.0 0 0 0.0 0 0 0.0 0 0 0.0 0 0 0.0 0 0 0.0 0 0 0.0 0 
5 2341 2341.0 2341 294 294.0 294 278 278.0 278 262 262.0 262 263 263.0 263 265 265.0 265 288 288.0 288 285 285.0 285 
10 11101 11101.0 11101 1915 1915.0 1915 1895 1895.0 1895 1885 1885.0 1885 1871 1871.0 1871 1876 1876.0 1876 591 591.0 591 646 646.0 646 
15 16865 16865.0 16865 3044 3044.0 3044 2969 2969.0 2969 3017 3017.0 3017 2949 2949.0 2949 2954 2954.0 2954 886 886.0 886 876 876.0 876 
20 28842 28842.0 28842 5223 5223.0 5223 5153 5153.0 5153 5174 5174.0 5174 5151 5151.0 5151 5119 5119.0 5119 1229 1229.0 1229 1235 1235.0 1235 
25 38073 38073.0 38073 6936 6936.0 6936 6780 6780.0 6780 6953 6953.0 6953 6760 6760.0 6760 6630 6630.0 6630 1527 1527.0 1527 1526 1526.0 1526 
30 47991 47991.0 47991 8633 8633.0 8633 8496 8496.0 8496 8526 8526.0 8526 8503 8503.0 8503 8463 8463.0 8463 1823 1823.0 1823 1810 1810.0 1810 
35 58735 58735.0 58735 10564 10564.0 10564 10429 10429.0 10429 10493 10493.0 10493 10422 10422.0 10422 10399 10399.0 10399 2112 2112.0 2112 2107 2107.0 2107 
40 68185 68185.0 68185 12315 12315.0 12315 12137 12137.0 12137 12233 12233.0 12233 12191 12191.0 12191 12093 12093.0 12093 2455 2455.0 2455 2446 2446.0 2446 
45 78563 78563.0 78563 14062 14062.0 14062 14015 14015.0 14015 13961 13961.0 13961 13985 13985.0 13985 13942 13942.0 13942 2755 2755.0 2755 2748 2748.0 2748 
50 86025 86025.0 86025 15109 15109.0 15109 15029 15029.0 15029 15065 15065.0 15065 14989 14989.0 14989 14984 14984.0 14984 3049 3049.0 3049 3045 3045.0 3045 
55 87959 87959.0 87959 15385 15385.0 15385 15300 15300.0 15300 15325 15325.0 15325 15252 15252.0 15252 15263 15263.0 15263 3325 3325.0 3325 3329 3329.0 3329 
60 89897 89897.0 89897 15690 15690.0 15690 15584 15584.0 15584 15647 15647.0 15647 15554 15554.0 15554 15553 15553.0 15553 3670 3670.0 3670 3660 3660.0 3660 
65 90871 90871.0 90871 15789 15789.0 15789 15695 15695.0 15695 15736 15736.0 15736 15651 15651.0 15651 15660 15660.0 15660 3767 3767.0 3767 3768 3768.0 3768 
